[
	{
		"ID": 1,
		"Price": 0.99,
		"GotCrystalNums": 30,
		"FirstBoughtReward": 30,
		"RepeatlyBoughtReward": 0,
		"Icon": "UI/Icon/Crystal_ABS/Icon_Crystal_01.png",
		"IsBestValue": false
	},
	{
		"ID": 2,
		"Price": 4.99,
		"GotCrystalNums": 150,
		"FirstBoughtReward": 150,
		"RepeatlyBoughtReward": 18,
		"Icon": "UI/Icon/Crystal_ABS/Icon_Crystal_03.png",
		"IsBestValue": false
	},
	{
		"ID": 3,
		"Price": 9.99,
		"GotCrystalNums": 300,
		"FirstBoughtReward": 300,
		"RepeatlyBoughtReward": 42,
		"Icon": "UI/Icon/Crystal_ABS/Icon_Crystal_04.png",
		"IsBestValue": false
	},
	{
		"ID": 4,
		"Price": 19.99,
		"GotCrystalNums": 600,
		"FirstBoughtReward": 600,
		"RepeatlyBoughtReward": 92,
		"Icon": "UI/Icon/Crystal_ABS/Icon_Crystal_05.png",
		"IsBestValue": false
	},
	{
		"ID": 5,
		"Price": 49.99,
		"GotCrystalNums": 1500,
		"FirstBoughtReward": 1500,
		"RepeatlyBoughtReward": 272,
		"Icon": "UI/Icon/Crystal_ABS/Icon_Crystal_06.png",
		"IsBestValue": false
	},
	{
		"ID": 6,
		"Price": 99.99,
		"GotCrystalNums": 3000,
		"FirstBoughtReward": 3000,
		"RepeatlyBoughtReward": 600,
		"Icon": "UI/Icon/Crystal_ABS/Icon_Crystal_07.png",
		"IsBestValue": true
	}
]