[
	{
		"ID": 1,
		"Exp": 10,
		"Energy": 0,
		"ArenaBuffID": 200,
		"PVPBuffID": 200
	},
	{
		"ID": 2,
		"Exp": 15,
		"Energy": 0,
		"ArenaBuffID": 200,
		"PVPBuffID": 200
	},
	{
		"ID": 3,
		"Exp": 20,
		"Energy": 0,
		"ArenaBuffID": 200,
		"PVPBuffID": 200
	},
	{
		"ID": 4,
		"Exp": 25,
		"Energy": 10,
		"ArenaBuffID": 200,
		"PVPBuffID": 200
	},
	{
		"ID": 5,
		"Exp": 30,
		"Energy": 10,
		"ArenaBuffID": 200,
		"PVPBuffID": 200
	},
	{
		"ID": 6,
		"Exp": 40,
		"Energy": 10,
		"ArenaBuffID": 200,
		"PVPBuffID": 200
	},
	{
		"ID": 7,
		"Exp": 50,
		"Energy": 15,
		"ArenaBuffID": 200,
		"PVPBuffID": 200
	},
	{
		"ID": 8,
		"Exp": 60,
		"Energy": 15,
		"ArenaBuffID": 200,
		"PVPBuffID": 200
	},
	{
		"ID": 9,
		"Exp": 70,
		"Energy": 15,
		"ArenaBuffID": 200,
		"PVPBuffID": 200
	},
	{
		"ID": 10,
		"Exp": 80,
		"Energy": 20,
		"ArenaBuffID": 200,
		"PVPBuffID": 200
	},
	{
		"ID": 11,
		"Exp": 90,
		"Energy": 20,
		"ArenaBuffID": 200,
		"PVPBuffID": 200
	},
	{
		"ID": 12,
		"Exp": 100,
		"Energy": 25,
		"ArenaBuffID": 200,
		"PVPBuffID": 200
	},
	{
		"ID": 13,
		"Exp": 120,
		"Energy": 25,
		"ArenaBuffID": 200,
		"PVPBuffID": 200
	},
	{
		"ID": 14,
		"Exp": 140,
		"Energy": 30,
		"ArenaBuffID": 200,
		"PVPBuffID": 200
	},
	{
		"ID": 15,
		"Exp": 160,
		"Energy": 30,
		"ArenaBuffID": 200,
		"PVPBuffID": 200
	},
	{
		"ID": 16,
		"Exp": 180,
		"Energy": 40,
		"ArenaBuffID": 200,
		"PVPBuffID": 200
	},
	{
		"ID": 17,
		"Exp": 210,
		"Energy": 40,
		"ArenaBuffID": 200,
		"PVPBuffID": 200
	},
	{
		"ID": 18,
		"Exp": 240,
		"Energy": 50,
		"ArenaBuffID": 200,
		"PVPBuffID": 200
	},
	{
		"ID": 19,
		"Exp": 280,
		"Energy": 50,
		"ArenaBuffID": 200,
		"PVPBuffID": 200
	},
	{
		"ID": 20,
		"Exp": 320,
		"Energy": 60,
		"ArenaBuffID": 200,
		"PVPBuffID": 200
	},
	{
		"ID": 21,
		"Exp": 380,
		"Energy": 70,
		"ArenaBuffID": 200,
		"PVPBuffID": 200
	},
	{
		"ID": 22,
		"Exp": 440,
		"Energy": 80,
		"ArenaBuffID": 200,
		"PVPBuffID": 200
	},
	{
		"ID": 23,
		"Exp": 500,
		"Energy": 90,
		"ArenaBuffID": 200,
		"PVPBuffID": 200
	},
	{
		"ID": 24,
		"Exp": 580,
		"Energy": 100,
		"ArenaBuffID": 200,
		"PVPBuffID": 200
	},
	{
		"ID": 25,
		"Exp": 700,
		"Energy": 100,
		"ArenaBuffID": 200,
		"PVPBuffID": 200
	},
	{
		"ID": 26,
		"Exp": 800,
		"Energy": 100,
		"ArenaBuffID": 215,
		"PVPBuffID": 215
	},
	{
		"ID": 27,
		"Exp": 900,
		"Energy": 100,
		"ArenaBuffID": 215,
		"PVPBuffID": 215
	},
	{
		"ID": 28,
		"Exp": 900,
		"Energy": 100,
		"ArenaBuffID": 215,
		"PVPBuffID": 215
	},
	{
		"ID": 29,
		"Exp": 1000,
		"Energy": 100,
		"ArenaBuffID": 215,
		"PVPBuffID": 215
	},
	{
		"ID": 30,
		"Exp": 1100,
		"Energy": 100,
		"ArenaBuffID": 215,
		"PVPBuffID": 215
	},
	{
		"ID": 31,
		"Exp": 1100,
		"Energy": 100,
		"ArenaBuffID": 215,
		"PVPBuffID": 215
	},
	{
		"ID": 32,
		"Exp": 1200,
		"Energy": 100,
		"ArenaBuffID": 215,
		"PVPBuffID": 215
	},
	{
		"ID": 33,
		"Exp": 1300,
		"Energy": 100,
		"ArenaBuffID": 215,
		"PVPBuffID": 215
	},
	{
		"ID": 34,
		"Exp": 1400,
		"Energy": 100,
		"ArenaBuffID": 215,
		"PVPBuffID": 215
	},
	{
		"ID": 35,
		"Exp": 1400,
		"Energy": 100,
		"ArenaBuffID": 215,
		"PVPBuffID": 215
	},
	{
		"ID": 36,
		"Exp": 1500,
		"Energy": 100,
		"ArenaBuffID": 215,
		"PVPBuffID": 215
	},
	{
		"ID": 37,
		"Exp": 1600,
		"Energy": 100,
		"ArenaBuffID": 215,
		"PVPBuffID": 215
	},
	{
		"ID": 38,
		"Exp": 1700,
		"Energy": 100,
		"ArenaBuffID": 215,
		"PVPBuffID": 215
	},
	{
		"ID": 39,
		"Exp": 1800,
		"Energy": 100,
		"ArenaBuffID": 215,
		"PVPBuffID": 215
	},
	{
		"ID": 40,
		"Exp": 1900,
		"Energy": 100,
		"ArenaBuffID": 215,
		"PVPBuffID": 215
	},
	{
		"ID": 41,
		"Exp": 2000,
		"Energy": 100,
		"ArenaBuffID": 215,
		"PVPBuffID": 215
	},
	{
		"ID": 42,
		"Exp": 2100,
		"Energy": 100,
		"ArenaBuffID": 215,
		"PVPBuffID": 215
	},
	{
		"ID": 43,
		"Exp": 2200,
		"Energy": 100,
		"ArenaBuffID": 215,
		"PVPBuffID": 215
	},
	{
		"ID": 44,
		"Exp": 2300,
		"Energy": 100,
		"ArenaBuffID": 215,
		"PVPBuffID": 215
	},
	{
		"ID": 45,
		"Exp": 2400,
		"Energy": 100,
		"ArenaBuffID": 215,
		"PVPBuffID": 215
	},
	{
		"ID": 46,
		"Exp": 2500,
		"Energy": 100,
		"ArenaBuffID": 215,
		"PVPBuffID": 215
	},
	{
		"ID": 47,
		"Exp": 2600,
		"Energy": 100,
		"ArenaBuffID": 215,
		"PVPBuffID": 215
	},
	{
		"ID": 48,
		"Exp": 2700,
		"Energy": 100,
		"ArenaBuffID": 215,
		"PVPBuffID": 215
	},
	{
		"ID": 49,
		"Exp": 2700,
		"Energy": 100,
		"ArenaBuffID": 215,
		"PVPBuffID": 215
	},
	{
		"ID": 50,
		"Exp": 2700,
		"Energy": 100,
		"ArenaBuffID": 215,
		"PVPBuffID": 215
	},
	{
		"ID": 51,
		"Exp": 2700,
		"Energy": 100,
		"ArenaBuffID": 215,
		"PVPBuffID": 215
	},
	{
		"ID": 52,
		"Exp": 3400,
		"Energy": 100,
		"ArenaBuffID": 215,
		"PVPBuffID": 215
	},
	{
		"ID": 53,
		"Exp": 3400,
		"Energy": 100,
		"ArenaBuffID": 215,
		"PVPBuffID": 215
	},
	{
		"ID": 54,
		"Exp": 3400,
		"Energy": 100,
		"ArenaBuffID": 215,
		"PVPBuffID": 215
	},
	{
		"ID": 55,
		"Exp": 4000,
		"Energy": 100,
		"ArenaBuffID": 215,
		"PVPBuffID": 215
	},
	{
		"ID": 56,
		"Exp": 4000,
		"Energy": 100,
		"ArenaBuffID": 215,
		"PVPBuffID": 215
	},
	{
		"ID": 57,
		"Exp": 4000,
		"Energy": 100,
		"ArenaBuffID": 215,
		"PVPBuffID": 215
	},
	{
		"ID": 58,
		"Exp": 4000,
		"Energy": 100,
		"ArenaBuffID": 215,
		"PVPBuffID": 215
	},
	{
		"ID": 59,
		"Exp": 4000,
		"Energy": 100,
		"ArenaBuffID": 215,
		"PVPBuffID": 215
	},
	{
		"ID": 60,
		"Exp": 0,
		"Energy": 100,
		"ArenaBuffID": 215,
		"PVPBuffID": 215
	}
]