v 3.7591334489661676e-08 0.49791228771209717 0.0
v 3.867547349045708e-08 0.5122721791267395 0.15975388884544373
v -0.13258573412895203 0.49481692910194397 0.15975388884544373
v -0.12886911630630493 0.4809463620185852 0.0
v -0.2561360001564026 0.44364073872566223 0.15975388884544373
v -0.24895606935024261 0.43120473623275757 0.0
v -0.36223104596138 0.36223119497299194 0.15975388884544373
v -0.35207703709602356 0.3520772457122803 0.0
v -0.44364064931869507 0.2561362087726593 0.15975388884544373
v -0.4312046468257904 0.24895626306533813 0.0
v -0.4948168694972992 0.13258595764636993 0.15975388884544373
v -0.48094630241394043 0.12886935472488403 0.0
v -0.5122721791267395 1.9948613783071778e-07 0.15975388884544373
v -0.49791228771209717 1.9389419492199522e-07 0.0
v -0.49481698870658875 -0.1325855851173401 0.15975388884544373
v -0.48094642162323 -0.128868967294693 0.0
v -0.4436408281326294 -0.25613585114479065 0.15975388884544373
v -0.43120476603507996 -0.24895592033863068 0.0
v -0.3622313141822815 -0.36223092675209045 0.15975388884544373
v -0.3520773649215698 -0.3520769774913788 0.0
v -0.2561362385749817 -0.4436405897140503 0.15975388884544373
v -0.24895629286766052 -0.43120458722114563 0.0
v -0.13258598744869232 -0.4948168396949768 0.15975388884544373
v -0.12886936962604523 -0.48094627261161804 0.0
v -2.3816161842660222e-07 -0.5122721791267395 0.15975388884544373
v -2.3148554362251161e-07 -0.49791228771209717 0.0
v -0.5266320705413818 2.0507809495029505e-07 0.31950777769088745
v -0.5086876153945923 -0.136302188038826 0.31950777769088745
v -0.45607689023017883 -0.2633158266544342 0.31950777769088745
v -0.37238532304763794 -0.3723849058151245 0.31950777769088745
v -0.26331618428230286 -0.45607665181159973 0.31950777769088745
v -0.1363026201725006 -0.508687436580658 0.31950777769088745
v -2.4483773586325697e-07 -0.5266320705413818 0.31950777769088745
v -0.5225581526756287 -0.14001880586147308 0.4792616665363312
v -0.5409919619560242 2.106700378590176e-07 0.4792616665363312
v -0.5086874961853027 0.13630259037017822 0.31950777769088745
v -0.4560767114162445 0.26331615447998047 0.31950777769088745
v -0.37238502502441406 0.3723852038383484 0.31950777769088745
v -0.26331597566604614 0.45607680082321167 0.31950777769088745
v -0.13630235195159912 0.5086875557899475 0.31950777769088745
v 3.975961604396616e-08 0.5266320705413818 0.31950777769088745
v -0.14001895487308502 0.5225581526756287 0.4792616665363312
v 4.0843758597475244e-08 0.5409919619560242 0.4792616665363312
v -0.2704959213733673 0.4685128629207611 0.4792616665363312
v -0.3825390040874481 0.38253918290138245 0.4792616665363312
v -0.46851271390914917 0.27049610018730164 0.4792616665363312
v -0.5225580930709839 0.14001920819282532 0.4792616665363312
v -0.14373557269573212 0.5364287495613098 0.6390155553817749
v 4.192789759827065e-08 0.5553518533706665 0.6390155553817749
v -0.2776758670806885 0.48094889521598816 0.6390155553817749
v -0.3926929533481598 0.3926931619644165 0.6390155553817749
v -0.4809487462043762 0.2776760458946228 0.6390155553817749
v -0.5364286303520203 0.1437358260154724 0.6390155553817749
v -0.5553518533706665 2.1626199497859488e-07 0.6390155553817749
v -0.5364287495613098 -0.1437353938817978 0.6390155553817749
v -0.48094892501831055 -0.27767568826675415 0.6390155553817749
v -0.4685129225254059 -0.27049577236175537 0.4792616665363312
v -0.382539302110672 -0.38253891468048096 0.4792616665363312
v -0.2704961597919464 -0.4685126841068268 0.4792616665363312
v -0.1400192379951477 -0.5225580930709839 0.4792616665363312
v -2.515138248782023e-07 -0.5409919619560242 0.4792616665363312
v -0.39269328117370605 -0.3926928639411926 0.6390155553817749
v -0.2776761054992676 -0.48094868659973145 0.6390155553817749
v -0.1437358409166336 -0.5364286303520203 0.6390155553817749
v -2.581898854714382e-07 -0.5553518533706665 0.6390155553817749
v -0.4028472900390625 -0.4028468430042267 0.7987694144248962
v -0.28485605120658875 -0.4933847486972809 0.7987694144248962
v -0.1474524736404419 -0.5502992272377014 0.7987694144248962
v -2.648660029080929e-07 -0.5697118043899536 0.7987694144248962
v -0.49338498711586 -0.2848556339740753 0.7987694144248962
v -0.5502994060516357 -0.14745202660560608 0.7987694144248962
v -0.5697118043899536 2.2185395209817216e-07 0.7987694144248962
v -0.5502992868423462 0.1474524438381195 0.7987694144248962
v -0.49338480830192566 0.28485602140426636 0.7987694144248962
v -0.40284693241119385 0.40284717082977295 0.7987694144248962
v -0.28485578298568726 0.4933849573135376 0.7987694144248962
v -0.1474521905183792 0.550299346446991 0.7987694144248962
v 4.301204370449341e-08 0.5697118043899536 0.7987694144248962
vn -0.13001079857349396 0.9875311255455017 -0.0887666791677475
vn -0.13001084327697754 0.9875311255455017 -0.08876682817935944
vn -0.25777962803840637 0.9620471000671387 -0.08952667564153671
vn -0.25777962803840637 0.9620472192764282 -0.08952654153108597
vn -0.49799203872680664 0.8625478148460388 -0.08952666819095612
vn -0.4979921281337738 0.8625479340553284 -0.08952653408050537
vn -0.7042670845985413 0.7042675614356995 -0.0895266905426979
vn -0.7042670845985413 0.7042675614356995 -0.08952657133340836
vn -0.8625476360321045 0.49799251556396484 -0.0895266979932785
vn -0.8625476360321045 0.4979925751686096 -0.08952654898166656
vn -0.9620469808578491 0.257779985666275 -0.08952667564153671
vn -0.9620471000671387 0.2577800452709198 -0.08952654153108597
vn -0.9959844350814819 3.803112633704586e-07 -0.08952667564153671
vn -0.9959844350814819 3.9412250885106914e-07 -0.08952653408050537
vn -0.9620472192764282 -0.2577793300151825 -0.0895267203450203
vn -0.9620472192764282 -0.25777938961982727 -0.08952660113573074
vn -0.8625479936599731 -0.49799180030822754 -0.08952673524618149
vn -0.8625479936599731 -0.49799180030822754 -0.08952663093805313
vn -0.7042675614356995 -0.7042670249938965 -0.0895266905426979
vn -0.7042676210403442 -0.7042670249938965 -0.08952656388282776
vn -0.4979923963546753 -0.8625476360321045 -0.08952667564153671
vn -0.49799248576164246 -0.862547755241394 -0.08952651172876358
vn -0.2577802240848541 -0.9620469808578491 -0.0895266979932785
vn -0.25778019428253174 -0.9620469808578491 -0.08952654153108597
vn -0.13001154363155365 -0.9875310063362122 -0.08876685053110123
vn -0.13001151382923126 -0.9875310063362122 -0.0887666866183281
vn -0.9959844350814819 3.6595992014554213e-07 -0.08952667564153671
vn -0.9620472192764282 -0.2577793300151825 -0.08952667564153671
vn -0.8625481128692627 -0.4979917109012604 -0.08952666819095612
vn -0.7042675614356995 -0.7042670249938965 -0.08952672779560089
vn -0.4979923963546753 -0.8625476360321045 -0.08952673524618149
vn -0.2577802240848541 -0.9620469808578491 -0.08952676504850388
vn -0.13001149892807007 -0.9875310063362122 -0.0887669026851654
vn -0.9620472192764282 -0.2577793598175049 -0.08952650427818298
vn -0.9959844350814819 3.3964903423111537e-07 -0.08952653408050537
vn -0.9620469808578491 0.2577800452709198 -0.08952667564153671
vn -0.8625476360321045 0.49799251556396484 -0.0895266905426979
vn -0.7042670845985413 0.7042675614356995 -0.08952673524618149
vn -0.4979920983314514 0.8625478148460388 -0.08952677994966507
vn -0.25777962803840637 0.9620471000671387 -0.08952677249908447
vn -0.13001079857349396 0.9875310063362122 -0.08876689523458481
vn -0.2577795386314392 0.9620472192764282 -0.08952663838863373
vn -0.1300107091665268 0.9875311255455017 -0.08876675367355347
vn -0.49799206852912903 0.8625479340553284 -0.08952663838863373
vn -0.7042672038078308 0.7042674422264099 -0.08952658623456955
vn -0.862547755241394 0.49799248576164246 -0.08952654153108597
vn -0.9620469808578491 0.2577800452709198 -0.08952654153108597
vn -0.2577795684337616 0.9620472192764282 -0.0895266979932785
vn -0.1300107091665268 0.9875311255455017 -0.08876685053110123
vn -0.49799203872680664 0.8625478148460388 -0.08952666819095612
vn -0.7042672634124756 0.7042673826217651 -0.08952666819095612
vn -0.862547755241394 0.4979924261569977 -0.08952674269676208
vn -0.9620469808578491 0.2577800452709198 -0.08952677249908447
vn -0.9959844350814819 3.324733484078024e-07 -0.08952677249908447
vn -0.9620472192764282 -0.25777938961982727 -0.08952675759792328
vn -0.8625481128692627 -0.4979917109012604 -0.0895267128944397
vn -0.8625481128692627 -0.4979917109012604 -0.08952650427818298
vn -0.7042676210403442 -0.7042670249938965 -0.08952656388282776
vn -0.49799251556396484 -0.8625476360321045 -0.08952659368515015
vn -0.25778019428253174 -0.9620469808578491 -0.08952660858631134
vn -0.13001137971878052 -0.9875310063362122 -0.08876675367355347
vn -0.704267680644989 -0.7042670249938965 -0.0895266905426979
vn -0.49799251556396484 -0.8625476360321045 -0.0895266979932785
vn -0.25778016448020935 -0.9620469808578491 -0.0895267054438591
vn -0.13001137971878052 -0.9875310063362122 -0.08876685053110123
vn -0.7042675614356995 -0.7042669653892517 -0.08952683210372925
vn -0.4979925751686096 -0.8625475764274597 -0.08952686190605164
vn -0.2577802240848541 -0.9620469808578491 -0.08952687680721283
vn -0.1300113946199417 -0.9875310063362122 -0.08876700699329376
vn -0.8625479936599731 -0.49799180030822754 -0.08952692896127701
vn -0.9620472192764282 -0.25777938961982727 -0.08952700346708298
vn -0.9959844350814819 3.3255545872634684e-07 -0.08952701091766357
vn -0.9620469808578491 0.257779985666275 -0.08952701836824417
vn -0.8625476360321045 0.49799245595932007 -0.0895269438624382
vn -0.7042672634124756 0.7042673230171204 -0.08952683210372925
vn -0.4979920983314514 0.8625478148460388 -0.08952682465314865
vn -0.2577795386314392 0.9620471000671387 -0.08952683955430984
vn -0.13001073896884918 0.9875311255455017 -0.08876698464155197
vt 0.018392246216535568 0.9784782528877258
vt 0.018392246216535568 0.7852759063243866
vt 0.11485471576452255 0.7852758914232254
vt 0.12565100193023682 0.9784782528877258
vt 0.19188374280929565 0.7852758765220642
vt 0.2005208134651184 0.9784782528877258
vt 0.26891282200813293 0.7852758765220642
vt 0.275390625 0.9784782528877258
vt 0.3459418714046478 0.7852758765220642
vt 0.3502604067325592 0.978478193283081
vt 0.42297089099884033 0.7852758765220642
vt 0.4251302182674408 0.978478193283081
vt 0.4999999403953552 0.7852758765220642
vt 0.5 0.978478193283081
vt 0.5770289897918701 0.785275861620903
vt 0.5748697519302368 0.978478193283081
vt 0.654058039188385 0.785275861620903
vt 0.6497395634651184 0.978478193283081
vt 0.7310871481895447 0.7852758467197418
vt 0.724609375 0.9784782230854034
vt 0.8081161975860596 0.7852758467197418
vt 0.7994791269302368 0.9784782230854034
vt 0.8851453065872192 0.7852758765220642
vt 0.8743489384651184 0.9784782230854034
vt 0.9816076159477234 0.7852758765220642
vt 0.9816076159477234 0.9784782230854034
vt 0.5 0.5920735001564026
vt 0.5791882872581482 0.5920735001564026
vt 0.6583765745162964 0.5920734703540802
vt 0.7375648617744446 0.5920735001564026
vt 0.8167531490325928 0.5920735001564026
vt 0.895941436290741 0.5920735001564026
vt 0.9816076159477234 0.5920735001564026
vt 0.5813475251197815 0.3988710641860962
vt 0.5 0.3988710641860962
vt 0.4208117127418518 0.5920735001564026
vt 0.3416233956813812 0.5920735001564026
vt 0.26243507862091064 0.592073529958725
vt 0.18324673175811768 0.592073529958725
vt 0.10405842959880829 0.592073529958725
vt 0.018392246216535568 0.592073529958725
vt 0.09326213598251343 0.39887118339538574
vt 0.018392246216535568 0.39887118339538574
vt 0.1746096909046173 0.39887118339538574
vt 0.2559572756290436 0.39887118339538574
vt 0.33730486035346985 0.39887118339538574
vt 0.4186524450778961 0.3988710641860962
vt 0.08246578276157379 0.20566892623901367
vt 0.018392246216535568 0.20566880702972412
vt 0.16597262024879456 0.20566892623901367
vt 0.24947944283485413 0.20566892623901367
vt 0.3329862952232361 0.20566892623901367
vt 0.41649314761161804 0.20566880702972412
vt 0.5 0.20566880702972412
vt 0.5835068225860596 0.20566880702972412
vt 0.6670137047767639 0.20566880702972412
vt 0.6626951098442078 0.3988710641860962
vt 0.744042694568634 0.39887118339538574
vt 0.8253902792930603 0.39887118339538574
vt 0.9067378044128418 0.39887118339538574
vt 0.9816076159477234 0.39887118339538574
vt 0.7505205273628235 0.20566880702972412
vt 0.8340273499488831 0.20566880702972412
vt 0.9175342321395874 0.20566880702972412
vt 0.9816076159477234 0.20566880702972412
vt 0.7569981813430786 0.012466490268707275
vt 0.8426642417907715 0.012466490268707275
vt 0.9283303022384644 0.012466490268707275
vt 0.9816076159477234 0.012466490268707275
vt 0.6713321208953857 0.012466490268707275
vt 0.5856660604476929 0.012466490268707275
vt 0.4999999403953552 0.012466490268707275
vt 0.41433385014533997 0.012466490268707275
vt 0.3286677598953247 0.012466490268707275
vt 0.24300163984298706 0.012466490268707275
vt 0.15733551979064941 0.012466490268707275
vt 0.07166943699121475 0.012466490268707275
vt 0.018392246216535568 0.0124664306640625

g qi
s 1
usemtl qi
f 3/3/3 2/2/2 1/1/1 
f 4/4/4 3/3/3 1/1/1 
f 5/5/5 3/3/3 4/4/4 
f 6/6/6 5/5/5 4/4/4 
f 7/7/7 5/5/5 6/6/6 
f 8/8/8 7/7/7 6/6/6 
f 9/9/9 7/7/7 8/8/8 
f 10/10/10 9/9/9 8/8/8 
f 11/11/11 9/9/9 10/10/10 
f 12/12/12 11/11/11 10/10/10 
f 13/13/13 11/11/11 12/12/12 
f 14/14/14 13/13/13 12/12/12 
f 15/15/15 13/13/13 14/14/14 
f 16/16/16 15/15/15 14/14/14 
f 17/17/17 15/15/15 16/16/16 
f 18/18/18 17/17/17 16/16/16 
f 19/19/19 17/17/17 18/18/18 
f 20/20/20 19/19/19 18/18/18 
f 21/21/21 19/19/19 20/20/20 
f 22/22/22 21/21/21 20/20/20 
f 23/23/23 21/21/21 22/22/22 
f 24/24/24 23/23/23 22/22/22 
f 25/25/25 23/23/23 24/24/24 
f 26/26/26 25/25/25 24/24/24 
f 13/13/13 27/27/27 11/11/11 
f 28/28/28 27/27/27 13/13/13 
f 15/15/15 28/28/28 13/13/13 
f 29/29/29 28/28/28 15/15/15 
f 17/17/17 29/29/29 15/15/15 
f 30/30/30 29/29/29 17/17/17 
f 19/19/19 30/30/30 17/17/17 
f 31/31/31 30/30/30 19/19/19 
f 21/21/21 31/31/31 19/19/19 
f 32/32/32 31/31/31 21/21/21 
f 23/23/23 32/32/32 21/21/21 
f 33/33/33 32/32/32 23/23/23 
f 25/25/25 33/33/33 23/23/23 
f 28/28/28 34/34/34 27/27/27 
f 34/34/34 35/35/35 27/27/27 
f 27/27/27 35/35/35 36/36/36 
f 27/27/27 36/36/36 11/11/11 
f 11/11/11 36/36/36 9/9/9 
f 36/36/36 37/37/37 9/9/9 
f 9/9/9 37/37/37 7/7/7 
f 37/37/37 38/38/38 7/7/7 
f 7/7/7 38/38/38 5/5/5 
f 38/38/38 39/39/39 5/5/5 
f 5/5/5 39/39/39 3/3/3 
f 39/39/39 40/40/40 3/3/3 
f 3/3/3 40/40/40 2/2/2 
f 40/40/40 41/41/41 2/2/2 
f 40/40/40 42/42/42 41/41/41 
f 42/42/42 43/43/43 41/41/41 
f 44/44/44 42/42/42 40/40/40 
f 39/39/39 44/44/44 40/40/40 
f 45/45/45 44/44/44 39/39/39 
f 38/38/38 45/45/45 39/39/39 
f 46/46/46 45/45/45 38/38/38 
f 37/37/37 46/46/46 38/38/38 
f 47/47/47 46/46/46 37/37/37 
f 36/36/36 47/47/47 37/37/37 
f 35/35/35 47/47/47 36/36/36 
f 42/42/42 48/48/48 43/43/43 
f 48/48/48 49/49/49 43/43/43 
f 50/50/50 48/48/48 42/42/42 
f 44/44/44 50/50/50 42/42/42 
f 51/51/51 50/50/50 44/44/44 
f 45/45/45 51/51/51 44/44/44 
f 52/52/52 51/51/51 45/45/45 
f 46/46/46 52/52/52 45/45/45 
f 53/53/53 52/52/52 46/46/46 
f 47/47/47 53/53/53 46/46/46 
f 54/54/54 53/53/53 47/47/47 
f 35/35/35 54/54/54 47/47/47 
f 55/55/55 54/54/54 35/35/35 
f 34/34/34 55/55/55 35/35/35 
f 56/56/56 55/55/55 34/34/34 
f 57/57/57 56/56/56 34/34/34 
f 57/57/57 34/34/34 28/28/28 
f 29/29/29 57/57/57 28/28/28 
f 58/58/58 57/57/57 29/29/29 
f 30/30/30 58/58/58 29/29/29 
f 59/59/59 58/58/58 30/30/30 
f 31/31/31 59/59/59 30/30/30 
f 60/60/60 59/59/59 31/31/31 
f 32/32/32 60/60/60 31/31/31 
f 61/61/61 60/60/60 32/32/32 
f 33/33/33 61/61/61 32/32/32 
f 62/62/62 56/56/56 57/57/57 
f 58/58/58 62/62/62 57/57/57 
f 63/63/63 62/62/62 58/58/58 
f 59/59/59 63/63/63 58/58/58 
f 64/64/64 63/63/63 59/59/59 
f 60/60/60 64/64/64 59/59/59 
f 65/65/65 64/64/64 60/60/60 
f 61/61/61 65/65/65 60/60/60 
f 62/62/62 66/66/66 56/56/56 
f 67/67/67 66/66/66 62/62/62 
f 63/63/63 67/67/67 62/62/62 
f 68/68/68 67/67/67 63/63/63 
f 64/64/64 68/68/68 63/63/63 
f 69/69/69 68/68/68 64/64/64 
f 65/65/65 69/69/69 64/64/64 
f 66/66/66 70/70/70 56/56/56 
f 56/56/56 70/70/70 55/55/55 
f 70/70/70 71/71/71 55/55/55 
f 55/55/55 71/71/71 54/54/54 
f 71/71/71 72/72/72 54/54/54 
f 54/54/54 72/72/72 53/53/53 
f 72/72/72 73/73/73 53/53/53 
f 53/53/53 73/73/73 52/52/52 
f 73/73/73 74/74/74 52/52/52 
f 52/52/52 74/74/74 51/51/51 
f 74/74/74 75/75/75 51/51/51 
f 51/51/51 75/75/75 50/50/50 
f 75/75/75 76/76/76 50/50/50 
f 50/50/50 76/76/76 48/48/48 
f 76/76/76 77/77/77 48/48/48 
f 48/48/48 77/77/77 49/49/49 
f 77/77/77 78/78/78 49/49/49 

