v 22.661251068115234 -16.444950103759766 -15.586380004882812
v 21.619029998779297 -15.094771385192871 -17.011581420898438
v 21.290586471557617 -17.820079803466797 -19.59343719482422
v 22.316978454589844 -19.301319122314453 -18.293041229248047
v 21.294612884521484 -22.070907592773438 -20.917461395263672
v 20.315244674682617 -20.46257781982422 -22.096851348876953
v 19.625219345092773 -24.669551849365234 -23.379898071289062
v 18.722631454467773 -22.941978454589844 -24.44574737548828
v 17.359535217285156 -27.018299102783203 -25.605541229248047
v 16.561140060424805 -25.182952880859375 -26.56875991821289
v 14.566372871398926 -29.045772552490234 -27.526748657226562
v 13.896441459655762 -27.117401123046875 -28.401390075683594
v 11.330621719360352 -30.690383911132812 -29.085159301757812
v 10.8095121383667 -28.686542510986328 -29.887935638427734
v 7.750604629516602 -31.90215301513672 -30.233413696289062
v 7.394145488739014 -29.842700958251953 -30.98324203491211
v 3.9350883960723877 -32.644256591796875 -30.936622619628906
v 3.7541086673736572 -30.550762176513672 -31.654033660888672
v 5.348119884729385e-06 -32.8941535949707 -31.173419952392578
v 4.86389035359025e-06 -30.789199829101562 -31.879913330078125
v -3.9350783824920654 -32.64426040649414 -30.936626434326172
v -3.754098653793335 -30.550762176513672 -31.654033660888672
v -7.750598907470703 -31.90215301513672 -30.233413696289062
v -7.394136905670166 -29.842716217041016 -30.983245849609375
v -11.330618858337402 -30.690380096435547 -29.085155487060547
v -10.80950927734375 -28.686546325683594 -29.887939453125
v -14.566357612609863 -29.0457763671875 -27.526748657226562
v -13.896438598632812 -27.11740493774414 -28.401386260986328
v -17.35950469970703 -27.018299102783203 -25.605541229248047
v -16.561124801635742 -25.182960510253906 -26.568763732910156
v -19.625207901000977 -24.6695556640625 -23.379901885986328
v -18.722618103027344 -22.94198989868164 -24.44574737548828
v -21.29459571838379 -22.07091522216797 -20.917465209960938
v -20.31523323059082 -20.462589263916016 -22.096851348876953
v -22.316959381103516 -19.30133056640625 -18.293048858642578
v -21.29058074951172 -17.820087432861328 -19.59344482421875
v -22.661237716674805 -16.444961547851562 -15.58639144897461
v -21.61902618408203 -15.094782829284668 -17.011581420898438
v -22.316965103149414 -13.58858585357666 -12.879730224609375
v -21.29058265686035 -12.369475364685059 -14.429725646972656
v -21.294601440429688 -10.818998336791992 -10.255306243896484
v -20.315244674682617 -9.726973533630371 -11.926315307617188
v -19.625213623046875 -8.220354080200195 -7.792867660522461
v -18.72262954711914 -7.247572898864746 -9.577415466308594
v -17.35952377319336 -5.871620178222656 -5.567239761352539
v -16.561141967773438 -5.006604194641113 -7.45440673828125
v -14.566368103027344 -3.8441362380981445 -3.646024703979492
v -13.896449089050293 -3.0721569061279297 -5.6217803955078125
v -11.330628395080566 -2.199530601501465 -2.0876197814941406
v -10.80951976776123 -1.5030145645141602 -4.135231018066406
v -7.750609874725342 -0.9877643585205078 -0.9393653869628906
v -7.394148349761963 -0.3468465805053711 -3.039915084838867
v -3.935091018676758 -0.24565410614013672 -0.23615264892578125
v -3.7541115283966064 0.36121082305908203 -2.3691329956054688
v -8.327886462211609e-06 0.004248619079589844 0.000652313232421875
v -8.183124009519815e-06 0.5996484756469727 -2.143247604370117
v 3.935074806213379 -0.24564838409423828 -0.23614883422851562
v 3.754096031188965 0.36121463775634766 -2.369131088256836
v 7.7505927085876465 -0.9877595901489258 -0.939361572265625
v 7.394136428833008 -0.34683704376220703 -3.0399131774902344
v 11.330613136291504 -2.199522018432617 -2.0876102447509766
v 10.809502601623535 -1.5029993057250977 -4.135227203369141
v 14.566359519958496 -3.844127655029297 -3.646017074584961
v 13.896430969238281 -3.0721426010131836 -5.621776580810547
v 17.359514236450195 -5.871600151062012 -5.567222595214844
v 16.561126708984375 -5.006585121154785 -7.4543914794921875
v 19.62521743774414 -8.220338821411133 -7.792854309082031
v 18.72262191772461 -7.247550964355469 -9.577404022216797
v 21.29460906982422 -10.818978309631348 -10.255290985107422
v 20.315237045288086 -9.726950645446777 -11.926300048828125
v 22.31697654724121 -13.5885648727417 -12.879711151123047
v 21.290584564208984 -12.369454383850098 -14.429706573486328
v 10.027873992919922 -1.8078432083129883 -5.781942367553711
v 6.859469413757324 -0.735285758972168 -4.765827178955078
v 12.891586303710938 -3.263524055480957 -7.160999298095703
v 15.363597869873047 -5.058087348937988 -8.861104965209961
v 17.368791580200195 -7.137011528015137 -10.830604553222656
v 18.846248626708984 -9.437126159667969 -13.009651184082031
v 19.751070022583008 -11.88855266571045 -15.332038879394531
v 20.05576515197754 -14.416802406311035 -17.727218627929688
v 19.751073837280273 -16.945045471191406 -20.12238311767578
v 18.846256256103516 -19.396469116210938 -22.44477081298828
v 17.36880111694336 -21.69658660888672 -24.623821258544922
v 15.363609313964844 -23.775516510009766 -26.59332275390625
v 12.891597747802734 -25.570083618164062 -28.29343032836914
v 10.027885437011719 -27.02576446533203 -29.6724853515625
v 6.859478950500488 -28.098323822021484 -30.68859100341797
v 3.4826507568359375 -28.755184173583984 -31.310874938964844
v 4.398520104587078e-06 -28.976375579833984 -31.520427703857422
v -3.4826419353485107 -28.755184173583984 -31.310882568359375
v -6.859471797943115 -28.098339080810547 -30.688594818115234
v -10.027877807617188 -27.02576446533203 -29.672489166259766
v -12.891595840454102 -25.570087432861328 -28.293426513671875
v -15.363603591918945 -23.775524139404297 -26.59332275390625
v -17.368799209594727 -21.69659423828125 -24.623825073242188
v -18.84625244140625 -19.39647674560547 -22.444774627685547
v -19.751075744628906 -16.945053100585938 -20.122386932373047
v -20.05577278137207 -14.416815757751465 -17.727218627929688
v -19.751081466674805 -11.888571739196777 -15.332054138183594
v -18.84626579284668 -9.437150001525879 -13.009662628173828
v -17.368812561035156 -7.1370344161987305 -10.830612182617188
v -15.363617897033691 -5.058104515075684 -8.86111831665039
v -12.891605377197266 -3.2635364532470703 -7.161006927490234
v -10.0278902053833 -1.8078594207763672 -5.781949996948242
v -6.859481334686279 -0.7352933883666992 -4.765842437744141
v -3.482654094696045 -0.07843589782714844 -4.143558502197266
v -7.705035386607051e-06 0.1427602767944336 -3.9340038299560547
v 3.4826388359069824 -0.0784292221069336 -4.1435546875
v 20.05576515197754 -14.416802406311035 -17.727218627929688
v 21.401025772094727 -16.443843841552734 -15.587554931640625
v 21.075897216796875 -19.141372680664062 -18.143695831298828
v 19.751073837280273 -16.945045471191406 -20.12238311767578
v 20.110387802124023 -21.756935119628906 -20.62216567993164
v 18.846256256103516 -19.396469116210938 -22.44477081298828
v 18.53382682800293 -24.211063385009766 -22.947662353515625
v 17.36880111694336 -21.69658660888672 -24.623821258544922
v 16.394140243530273 -26.429187774658203 -25.04952621459961
v 15.363609313964844 -23.775516510009766 -26.59332275390625
v 13.756317138671875 -28.343921661376953 -26.86389923095703
v 12.891597747802734 -25.570083618164062 -28.29343032836914
v 10.700515747070312 -29.897071838378906 -28.335643768310547
v 10.027885437011719 -27.02576446533203 -29.6724853515625
v 7.319582939147949 -31.04144287109375 -29.42003631591797
v 6.859478950500488 -28.098323822021484 -30.68859100341797
v 3.7162508964538574 -31.742279052734375 -30.08414077758789
v 3.4826507568359375 -28.755184173583984 -31.310874938964844
v 1.5320256352424622e-06 -31.978290557861328 -30.307777404785156
v 4.398520104587078e-06 -28.976375579833984 -31.520427703857422
v -3.716247320175171 -31.742286682128906 -30.084144592285156
v -3.4826419353485107 -28.755184173583984 -31.310882568359375
v -7.319582462310791 -31.041461944580078 -29.42005157470703
v -6.859471797943115 -28.098339080810547 -30.688594818115234
v -10.700514793395996 -29.89706802368164 -28.335647583007812
v -10.027877807617188 -27.02576446533203 -29.672489166259766
v -13.756317138671875 -28.343921661376953 -26.86389923095703
v -12.891595840454102 -25.570087432861328 -28.293426513671875
v -16.394140243530273 -26.429195404052734 -25.04953384399414
v -15.363603591918945 -23.775524139404297 -26.59332275390625
v -18.533836364746094 -24.211071014404297 -22.947669982910156
v -17.368799209594727 -21.69659423828125 -24.623825073242188
v -20.11038589477539 -21.756942749023438 -20.622173309326172
v -18.84625244140625 -19.39647674560547 -22.444774627685547
v -21.075899124145508 -19.141376495361328 -18.143699645996094
v -19.751075744628906 -16.945053100585938 -20.122386932373047
v -21.401039123535156 -16.44385528564453 -15.587562561035156
v -20.05577278137207 -14.416815757751465 -17.727218627929688
v -21.07592010498047 -13.746325492858887 -13.031421661376953
v -19.751081466674805 -11.888571739196777 -15.332054138183594
v -20.110403060913086 -11.130760192871094 -10.552947998046875
v -18.84626579284668 -9.437150001525879 -13.009662628173828
v -18.533849716186523 -8.676629066467285 -8.227447509765625
v -17.368812561035156 -7.1370344161987305 -10.830612182617188
v -16.39415740966797 -6.458501815795898 -6.125579833984375
v -15.363617897033691 -5.058104515075684 -8.86111831665039
v -13.756331443786621 -4.54377555847168 -4.311214447021484
v -12.891605377197266 -3.2635364532470703 -7.161006927490234
v -10.700528144836426 -2.990628242492676 -2.8394718170166016
v -10.0278902053833 -1.8078594207763672 -5.781949996948242
v -7.31959342956543 -1.8462467193603516 -1.7550716400146484
v -6.859481334686279 -0.7352933883666992 -4.765842437744141
v -3.7162599563598633 -1.1454105377197266 -1.0909690856933594
v -3.482654094696045 -0.07843589782714844 -4.143558502197266
v -1.138349762186408e-05 -0.9093990325927734 -0.8673286437988281
v -7.705035386607051e-06 0.1427602767944336 -3.9340038299560547
v 3.7162389755249023 -1.1453981399536133 -1.0909576416015625
v 3.4826388359069824 -0.0784292221069336 -4.1435546875
v 7.319573879241943 -1.8462352752685547 -1.7550621032714844
v 6.859469413757324 -0.735285758972168 -4.765827178955078
v 10.700501441955566 -2.990614891052246 -2.8394603729248047
v 10.027873992919922 -1.8078432083129883 -5.781942367553711
v 13.756299018859863 -4.543763160705566 -4.3112030029296875
v 12.891586303710938 -3.263524055480957 -7.160999298095703
v 16.394126892089844 -6.458483695983887 -6.1255645751953125
v 15.363597869873047 -5.058087348937988 -8.861104965209961
v 18.533823013305664 -8.67661190032959 -8.227432250976562
v 17.368791580200195 -7.137011528015137 -10.830604553222656
v 20.110376358032227 -11.13074016571045 -10.552932739257812
v 18.846248626708984 -9.437126159667969 -13.009651184082031
v 21.07589340209961 -13.746304512023926 -13.031402587890625
v 19.751070022583008 -11.88855266571045 -15.332038879394531
v 22.316978454589844 -19.301319122314453 -18.293041229248047
v 21.075897216796875 -19.141372680664062 -18.143695831298828
v 21.401025772094727 -16.443843841552734 -15.587554931640625
v 22.661251068115234 -16.444950103759766 -15.586380004882812
v 21.294612884521484 -22.070907592773438 -20.917461395263672
v 20.110387802124023 -21.756935119628906 -20.62216567993164
v 19.625219345092773 -24.669551849365234 -23.379898071289062
v 18.53382682800293 -24.211063385009766 -22.947662353515625
v 17.359535217285156 -27.018299102783203 -25.605541229248047
v 16.394140243530273 -26.429187774658203 -25.04952621459961
v 14.566372871398926 -29.045772552490234 -27.526748657226562
v 13.756317138671875 -28.343921661376953 -26.86389923095703
v 11.330621719360352 -30.690383911132812 -29.085159301757812
v 10.700515747070312 -29.897071838378906 -28.335643768310547
v 7.750604629516602 -31.90215301513672 -30.233413696289062
v 7.319582939147949 -31.04144287109375 -29.42003631591797
v 3.9350883960723877 -32.644256591796875 -30.936622619628906
v 3.7162508964538574 -31.742279052734375 -30.08414077758789
v 5.348119884729385e-06 -32.8941535949707 -31.173419952392578
v 1.5320256352424622e-06 -31.978290557861328 -30.307777404785156
v -3.9350783824920654 -32.64426040649414 -30.936626434326172
v -3.716247320175171 -31.742286682128906 -30.084144592285156
v -7.750598907470703 -31.90215301513672 -30.233413696289062
v -7.319582462310791 -31.041461944580078 -29.42005157470703
v -11.330618858337402 -30.690380096435547 -29.085155487060547
v -10.700514793395996 -29.89706802368164 -28.335647583007812
v -14.566357612609863 -29.0457763671875 -27.526748657226562
v -13.756317138671875 -28.343921661376953 -26.86389923095703
v -17.35950469970703 -27.018299102783203 -25.605541229248047
v -16.394140243530273 -26.429195404052734 -25.04953384399414
v -19.625207901000977 -24.6695556640625 -23.379901885986328
v -18.533836364746094 -24.211071014404297 -22.947669982910156
v -21.29459571838379 -22.07091522216797 -20.917465209960938
v -20.11038589477539 -21.756942749023438 -20.622173309326172
v -22.316959381103516 -19.30133056640625 -18.293048858642578
v -21.075899124145508 -19.141376495361328 -18.143699645996094
v -22.661237716674805 -16.444961547851562 -15.58639144897461
v -21.401039123535156 -16.44385528564453 -15.587562561035156
v -22.316965103149414 -13.58858585357666 -12.879730224609375
v -21.07592010498047 -13.746325492858887 -13.031421661376953
v -21.294601440429688 -10.818998336791992 -10.255306243896484
v -20.110403060913086 -11.130760192871094 -10.552947998046875
v -19.625213623046875 -8.220354080200195 -7.792867660522461
v -18.533849716186523 -8.676629066467285 -8.227447509765625
v -17.35952377319336 -5.871620178222656 -5.567239761352539
v -16.39415740966797 -6.458501815795898 -6.125579833984375
v -14.566368103027344 -3.8441362380981445 -3.646024703979492
v -13.756331443786621 -4.54377555847168 -4.311214447021484
v -11.330628395080566 -2.199530601501465 -2.0876197814941406
v -10.700528144836426 -2.990628242492676 -2.8394718170166016
v -7.750609874725342 -0.9877643585205078 -0.9393653869628906
v -7.31959342956543 -1.8462467193603516 -1.7550716400146484
v -3.935091018676758 -0.24565410614013672 -0.23615264892578125
v -3.7162599563598633 -1.1454105377197266 -1.0909690856933594
v -8.327886462211609e-06 0.004248619079589844 0.000652313232421875
v -1.138349762186408e-05 -0.9093990325927734 -0.8673286437988281
v 3.935074806213379 -0.24564838409423828 -0.23614883422851562
v 3.7162389755249023 -1.1453981399536133 -1.0909576416015625
v 7.7505927085876465 -0.9877595901489258 -0.939361572265625
v 7.319573879241943 -1.8462352752685547 -1.7550621032714844
v 11.330613136291504 -2.199522018432617 -2.0876102447509766
v 10.700501441955566 -2.990614891052246 -2.8394603729248047
v 14.566359519958496 -3.844127655029297 -3.646017074584961
v 13.756299018859863 -4.543763160705566 -4.3112030029296875
v 17.359514236450195 -5.871600151062012 -5.567222595214844
v 16.394126892089844 -6.458483695983887 -6.1255645751953125
v 19.62521743774414 -8.220338821411133 -7.792854309082031
v 18.533823013305664 -8.67661190032959 -8.227432250976562
v 21.29460906982422 -10.818978309631348 -10.255290985107422
v 20.110376358032227 -11.13074016571045 -10.552932739257812
v 22.31697654724121 -13.5885648727417 -12.879711151123047
v 21.07589340209961 -13.746304512023926 -13.031402587890625
vn 0.8832514882087708 0.3225080966949463 -0.3403753340244293
vn 0.739445686340332 0.46301156282424927 -0.48871299624443054
vn 0.7281818985939026 0.3698253035545349 -0.5770444273948669
vn 0.8697946071624756 0.21122822165489197 -0.4459148347377777
vn 0.8299131989479065 0.10333792865276337 -0.5482384562492371
vn 0.6947951912879944 0.27947819232940674 -0.6626850962638855
vn 0.7648215293884277 0.0021164517384022474 -0.6442387104034424
vn 0.6403025984764099 0.19471412897109985 -0.7430335879325867
vn 0.67649906873703 -0.08936289697885513 -0.7310014963150024
vn 0.5663616061210632 0.118106909096241 -0.815650224685669
vn 0.5676318407058716 -0.16832584142684937 -0.8058910965919495
vn 0.4752192795276642 0.05198182538151741 -0.8783305287361145
vn 0.4415278434753418 -0.23237259685993195 -0.8666349053382874
vn 0.3696461319923401 -0.001652551582083106 -0.929171085357666
vn 0.3020171821117401 -0.2795604169368744 -0.9113898873329163
vn 0.25284868478775024 -0.04116848483681679 -0.9666295647621155
vn 0.15333616733551025 -0.3084604740142822 -0.9387971758842468
vn 0.1283731609582901 -0.06536997109651566 -0.9895691871643066
vn -0.0 -0.3181925415992737 -0.9480260610580444
vn -0.0 -0.07352064549922943 -0.9972937107086182
vn -0.1533355563879013 -0.3084603548049927 -0.9387973546981812
vn -0.12837286293506622 -0.06537054479122162 -0.9895691871643066
vn -0.3020176589488983 -0.27956223487854004 -0.911389172077179
vn -0.2528490126132965 -0.04117054119706154 -0.9666293859481812
vn -0.44152921438217163 -0.2323748916387558 -0.8666335940361023
vn -0.3696470260620117 -0.0016534671885892749 -0.9291707873344421
vn -0.5676335096359253 -0.16832824051380157 -0.8058894276618958
vn -0.47522103786468506 0.05198078230023384 -0.8783296942710876
vn -0.6765000820159912 -0.0893658697605133 -0.7310003042221069
vn -0.5663625597953796 0.11810486763715744 -0.8156498670578003
vn -0.7648215293884277 0.002115322509780526 -0.6442387700080872
vn -0.6403036117553711 0.19471217691898346 -0.743033230304718
vn -0.8299137353897095 0.10333673655986786 -0.5482378602027893
vn -0.694796621799469 0.2794761061668396 -0.6626845002174377
vn -0.8697959780693054 0.2112252563238144 -0.4459134042263031
vn -0.7281835079193115 0.3698233962059021 -0.5770437121391296
vn -0.8832530975341797 0.32250553369522095 -0.3403736650943756
vn -0.739447832107544 0.46300962567329407 -0.48871156573295593
vn -0.8698729276657104 0.43379536271095276 -0.2348247468471527
vn -0.7282436490058899 0.5562035441398621 -0.40037328004837036
vn -0.8300585746765137 0.5417134165763855 -0.13247379660606384
vn -0.6949095726013184 0.6465734839439392 -0.31471168994903564
vn -0.7650163769721985 0.6429795026779175 -0.0364321768283844
vn -0.6404558420181274 0.7313722372055054 -0.23433107137680054
vn -0.6767216324806213 0.7345132231712341 0.05038001015782356
vn -0.5665358304977417 0.8080211877822876 -0.16167524456977844
vn -0.5678545832633972 0.8135327100753784 0.1253226399421692
vn -0.47539377212524414 0.8741905093193054 -0.09895343333482742
vn -0.4417235255241394 0.877633810043335 0.1861162930727005
vn -0.3697992265224457 0.9278671145439148 -0.04807385802268982
vn -0.302162766456604 0.9248659610748291 0.23091259598731995
vn -0.2529624104499817 0.9674181938171387 -0.010582680813968182
vn -0.15341424942016602 0.9537927508354187 0.25834763050079346
vn -0.12843415141105652 0.9916408061981201 0.012377467006444931
vn -0.0 0.9635339975357056 0.2675859332084656
vn -0.0 0.9997977614402771 0.020109431818127632
vn 0.15341322124004364 0.9537928104400635 0.2583477795124054
vn 0.12843318283557892 0.9916409254074097 0.012377611361443996
vn 0.30216214060783386 0.9248657822608948 0.23091423511505127
vn 0.25296157598495483 0.9674184918403625 -0.010582219809293747
vn 0.4417232275009155 0.8776335716247559 0.18611784279346466
vn 0.3697987198829651 0.9278673529624939 -0.04807351157069206
vn 0.5678536891937256 0.8135333061218262 0.12532277405261993
vn 0.47539278864860535 0.8741909265518188 -0.09895402938127518
vn 0.6767198443412781 0.7345149517059326 0.050379544496536255
vn 0.5665341019630432 0.8080223798751831 -0.1616756021976471
vn 0.7650147080421448 0.6429813504219055 -0.03643372282385826
vn 0.6404538750648499 0.7313736081123352 -0.2343320995569229
vn 0.8300565481185913 0.5417159199714661 -0.13247625529766083
vn 0.6949073672294617 0.6465749740600586 -0.3147134780883789
vn 0.8698710203170776 0.43379801511764526 -0.23482686281204224
vn 0.7282416820526123 0.5562054514884949 -0.4003743827342987
vn 0.2666989266872406 0.9170821309089661 -0.2963646650314331
vn 0.1824323832988739 0.9456078410148621 -0.2693403661251068
vn 0.34286215901374817 0.8783670663833618 -0.3330416679382324
vn 0.40860676765441895 0.8306394815444946 -0.37825724482536316
vn 0.4619360864162445 0.7753490805625916 -0.4306376576423645
vn 0.5012303590774536 0.714175283908844 -0.48859167098999023
vn 0.5252950191497803 0.6489778757095337 -0.5503570437431335
vn 0.5333986878395081 0.5817372798919678 -0.6140583157539368
vn 0.525295078754425 0.5144965648651123 -0.6777598261833191
vn 0.5012295246124268 0.44930019974708557 -0.7395257353782654
vn 0.46193504333496094 0.38812685012817383 -0.797479510307312
vn 0.4086061716079712 0.3328358829021454 -0.8498595356941223
vn 0.3428609073162079 0.28510811924934387 -0.895075261592865
vn 0.26669806241989136 0.24639356136322021 -0.9317522644996643
vn 0.1824326068162918 0.2178688645362854 -0.95877605676651
vn 0.0926235020160675 0.2003992199897766 -0.9753261208534241
vn -0.0 0.19451479613780975 -0.9808996319770813
vn -0.09262363612651825 0.2003972828388214 -0.9753265380859375
vn -0.18243281543254852 0.21786774694919586 -0.9587762951850891
vn -0.2666983902454376 0.2463938146829605 -0.9317521452903748
vn -0.3428616523742676 0.28510838747024536 -0.8950749039649963
vn -0.4086070656776428 0.33283478021621704 -0.8498595356941223
vn -0.4619377553462982 0.3881244659423828 -0.7974790930747986
vn -0.5012320876121521 0.4492975175380707 -0.7395256161689758
vn -0.5252965688705444 0.5144952535629272 -0.67775958776474
vn -0.53340083360672 0.5817360877990723 -0.6140575408935547
vn -0.5252972841262817 0.6489765644073486 -0.550356388092041
vn -0.5012319087982178 0.7141748666763306 -0.4885905981063843
vn -0.46193793416023254 0.7753483653068542 -0.43063709139823914
vn -0.4086085855960846 0.8306388854980469 -0.37825655937194824
vn -0.3428627848625183 0.8783673048019409 -0.33304059505462646
vn -0.2666999101638794 0.9170821905136108 -0.2963636517524719
vn -0.1824338734149933 0.9456077814102173 -0.2693396508693695
vn -0.09262446314096451 0.9630773067474365 -0.25279003381729126
vn -0.0 0.968960165977478 -0.24721701443195343
vn 0.09262342751026154 0.9630774259567261 -0.25279000401496887
vn -0.9097208976745605 -0.28558388352394104 0.30141282081604004
vn -0.9097208976745605 -0.285587877035141 0.3014090359210968
vn -0.8958829045295715 -0.17094452679157257 0.41008755564689636
vn -0.8958819508552551 -0.17094068229198456 0.4100911319255829
vn -0.8548254370689392 -0.05978827551007271 0.5154598951339722
vn -0.854823648929596 -0.05978478118777275 0.5154632329940796
vn -0.7877979874610901 0.04450296238064766 0.6143238544464111
vn -0.7877956032752991 0.04450594261288643 0.6143266558647156
vn -0.6968377232551575 0.13876104354858398 0.7036778926849365
vn -0.696834921836853 0.13876347243785858 0.7036800980567932
vn -0.5847077965736389 0.22012394666671753 0.780808687210083
vn -0.5847051739692688 0.22012557089328766 0.7808102369308472
vn -0.45481598377227783 0.2861209213733673 0.8433725237846375
vn -0.454813688993454 0.2861219048500061 0.8433734774589539
vn -0.3111098110675812 0.3347480893135071 0.8894686102867126
vn -0.3111080527305603 0.3347485363483429 0.8894690871238708
vn -0.15795478224754333 0.36452776193618774 0.917698085308075
vn -0.1579538881778717 0.3645278811454773 0.9176982045173645
vn -0.0 0.3745557367801666 0.927204430103302
vn -0.0 0.3745557367801666 0.927204430103302
vn 0.1579527109861374 0.36452701687812805 0.9176987409591675
vn 0.15795151889324188 0.36452716588974 0.9176989197731018
vn 0.3111097812652588 0.3347458839416504 0.8894694447517395
vn 0.3111079931259155 0.334746390581131 0.8894698619842529
vn 0.45481735467910767 0.28611886501312256 0.8433725237846375
vn 0.4548149108886719 0.28611987829208374 0.8433734774589539
vn 0.5847073197364807 0.22012288868427277 0.7808094024658203
vn 0.5847043991088867 0.22012460231781006 0.7808110117912292
vn 0.6968361139297485 0.1387597769498825 0.7036797404289246
vn 0.6968331933021545 0.1387622356414795 0.7036821246147156
vn 0.7877970337867737 0.04450079798698425 0.614325225353241
vn 0.7877945899963379 0.04450385272502899 0.6143282055854797
vn 0.854824960231781 -0.05978953465819359 0.5154604911804199
vn 0.8548231720924377 -0.059786032885313034 0.5154638290405273
vn 0.895882248878479 -0.1709442287683487 0.41008904576301575
vn 0.8958813548088074 -0.17094029486179352 0.4100927710533142
vn 0.9097198843955994 -0.28558796644210815 0.30141207575798035
vn 0.9097198843955994 -0.2855839729309082 0.3014158606529236
vn 0.8959161639213562 -0.40023672580718994 0.19272980093955994
vn 0.8959170579910278 -0.4002329707145691 0.19273337721824646
vn 0.8548892140388489 -0.5114052295684814 0.08734495937824249
vn 0.8548909425735474 -0.5114017724990845 0.08734825253486633
vn 0.7878841757774353 -0.6157153248786926 -0.011537759564816952
vn 0.7878865599632263 -0.6157124042510986 -0.011534951627254486
vn 0.6969354152679443 -0.7099980115890503 -0.10091456770896912
vn 0.6969380974769592 -0.7099957466125488 -0.10091239213943481
vn 0.584805965423584 -0.7913869023323059 -0.1780693233013153
vn 0.5848085284233093 -0.7913854122161865 -0.1780678629875183
vn 0.45490363240242004 -0.8574075102806091 -0.24065537750720978
vn 0.4549058973789215 -0.8574065566062927 -0.24065446853637695
vn 0.31117522716522217 -0.9060532450675964 -0.286770761013031
vn 0.3111768662929535 -0.906052827835083 -0.2867703437805176
vn 0.15798956155776978 -0.9358450770378113 -0.31501317024230957
vn 0.15799041092395782 -0.9358449578285217 -0.3150130808353424
vn -0.0 -0.9458777904510498 -0.3245231509208679
vn -0.0 -0.9458777904510498 -0.32452309131622314
vn -0.1579875349998474 -0.935845673084259 -0.31501245498657227
vn -0.157988503575325 -0.9358455538749695 -0.3150123357772827
vn -0.3111746907234192 -0.9060534238815308 -0.2867709696292877
vn -0.3111765384674072 -0.9060528874397278 -0.28677046298980713
vn -0.4549041986465454 -0.8574068546295166 -0.24065670371055603
vn -0.45490676164627075 -0.8574057817459106 -0.24065566062927246
vn -0.5848064422607422 -0.7913861274719238 -0.17807136476039886
vn -0.5848091244697571 -0.7913844585418701 -0.17806971073150635
vn -0.6969354748725891 -0.7099976539611816 -0.10091701149940491
vn -0.6969382762908936 -0.7099952697753906 -0.10091471672058105
vn -0.7878847718238831 -0.6157146096229553 -0.011540260165929794
vn -0.7878871560096741 -0.615711510181427 -0.011537368409335613
vn -0.8548902869224548 -0.5114039182662964 0.08734215050935745
vn -0.8548920154571533 -0.5114003419876099 0.0873454287648201
vn -0.8959174156188965 -0.4002356231212616 0.19272634387016296
vn -0.8959183692932129 -0.4002317190170288 0.19273002445697784
vn -0.0012789913453161716 -0.687746524810791 0.725949764251709
vn -0.0012789914617314935 -0.687746524810791 0.7259498238563538
vn -0.0012789915781468153 -0.687746524810791 0.7259498238563538
vn -0.0012789915781468153 -0.687746524810791 0.7259498238563538
vn -0.0012396033853292465 -0.6875858306884766 0.7261021137237549
vn -0.0012396035017445683 -0.6875858306884766 0.7261021137237549
vn -0.0011636432027444243 -0.6874331831932068 0.7262466549873352
vn -0.0011636433191597462 -0.6874332427978516 0.7262466549873352
vn -0.0010513229062780738 -0.6872934103012085 0.7263791561126709
vn -0.0010513229062780738 -0.6872934103012085 0.7263792157173157
vn -0.0009057559072971344 -0.68716961145401 0.7264964580535889
vn -0.0009057558490894735 -0.68716961145401 0.7264963984489441
vn -0.0007347498321905732 -0.6870657801628113 0.726594865322113
vn -0.0007347497157752514 -0.6870657801628113 0.726594865322113
vn -0.0005420293309725821 -0.6869837641716003 0.7266725301742554
vn -0.000542029389180243 -0.6869838237762451 0.7266725301742554
vn -0.00033248684485442936 -0.6869276165962219 0.7267258167266846
vn -0.00033248684485442936 -0.6869276165962219 0.7267258167266846
vn -0.00011119177361251786 -0.6868999600410461 0.726751983165741
vn -0.00011119176633656025 -0.6868999600410461 0.726751983165741
vn 0.00011139902926515788 -0.6869007349014282 0.7267512679100037
vn 0.00011139902926515788 -0.6869007349014282 0.7267512679100037
vn 0.00033197010634467006 -0.686928927898407 0.7267245650291443
vn 0.00033197010634467006 -0.686928927898407 0.7267245650291443
vn 0.0005417658248916268 -0.6869825720787048 0.7266736626625061
vn 0.0005417658830992877 -0.6869825720787048 0.7266736626625061
vn 0.0007374590495601296 -0.6870642304420471 0.7265962958335876
vn 0.0007374589913524687 -0.6870642900466919 0.7265962362289429
vn 0.0009068222716450691 -0.6871687173843384 0.7264973521232605
vn 0.0009068221552297473 -0.6871687173843384 0.7264972925186157
vn 0.0010516138281673193 -0.687292754650116 0.7263796925544739
vn 0.0010516139445826411 -0.687292754650116 0.7263797521591187
vn 0.0011644655605778098 -0.6874333620071411 0.7262465953826904
vn 0.0011644655605778098 -0.6874333620071411 0.7262465953826904
vn 0.001240721088834107 -0.6875858902931213 0.7261019945144653
vn 0.001240720972418785 -0.6875858306884766 0.7261019945144653
vn 0.0012788556050509214 -0.6877462267875671 0.7259500622749329
vn 0.0012788553722202778 -0.6877461671829224 0.7259500622749329
vn 0.001278416020795703 -0.6879084706306458 0.7257962822914124
vn 0.0012784161372110248 -0.6879084706306458 0.7257962822914124
vn 0.0012398522812873125 -0.688068687915802 0.7256445288658142
vn 0.0012398522812873125 -0.6880686283111572 0.725644588470459
vn 0.0011635029222816229 -0.6882212162017822 0.7254999876022339
vn 0.001163502805866301 -0.6882212162017822 0.7254999876022339
vn 0.0010511978762224317 -0.6883617639541626 0.7253668308258057
vn 0.0010511977598071098 -0.6883617639541626 0.7253667712211609
vn 0.0009079414303414524 -0.6884861588478088 0.7252489328384399
vn 0.0009079414885491133 -0.6884861588478088 0.7252489328384399
vn 0.0007361606112681329 -0.6885906457901001 0.725149929523468
vn 0.0007361606112681329 -0.6885906457901001 0.725149929523468
vn 0.0005422275280579925 -0.6886717081069946 0.7250731587409973
vn 0.0005422275280579925 -0.6886717081069946 0.7250731587409973
vn 0.0003322819247841835 -0.6887273192405701 0.7250204682350159
vn 0.00033228195388801396 -0.6887273192405701 0.7250204682350159
vn 0.00011191378143848851 -0.6887556910514832 0.7249935269355774
vn 0.00011191379599040374 -0.6887556910514832 0.7249935269355774
vn -0.00011169783829245716 -0.6887553930282593 0.7249937653541565
vn -0.00011169783829245716 -0.6887553930282593 0.7249938249588013
vn -0.00033222418278455734 -0.6887272000312805 0.7250205278396606
vn -0.0003322242118883878 -0.6887272000312805 0.7250205278396606
vn -0.0005428059957921505 -0.6886721253395081 0.7250726222991943
vn -0.0005428060539998114 -0.6886721253395081 0.7250726222991943
vn -0.0007364752818830311 -0.6885911226272583 0.7251495122909546
vn -0.0007364752236753702 -0.6885911226272583 0.7251494526863098
vn -0.0009077036520466208 -0.6884862184524536 0.7252489328384399
vn -0.0009077037102542818 -0.6884862184524536 0.7252489328384399
vn -0.001051252125762403 -0.688361644744873 0.7253668308258057
vn -0.0010512522421777248 -0.688361644744873 0.7253668904304504
vn -0.0011632542591542006 -0.6882213950157166 0.7254998087882996
vn -0.0011632543755695224 -0.6882214546203613 0.7254998087882996
vn -0.0012399794068187475 -0.6880682110786438 0.7256449460983276
vn -0.0012399795232340693 -0.6880682110786438 0.7256450057029724
vt 0.9629610180854797 0.18851447105407715
vt 0.9815847873687744 0.18855911493301392
vt 0.9790693521499634 0.15889275074005127
vt 0.9608005285263062 0.16214972734451294
vt 0.954116940498352 0.13632071018218994
vt 0.9714062213897705 0.13012248277664185
vt 0.9426292181015015 0.1125718355178833
vt 0.9587953090667725 0.10314488410949707
vt 0.9273170232772827 0.0906490683555603
vt 0.9415535926818848 0.07887434959411621
vt 0.9085575342178345 0.07194966077804565
vt 0.9204632043838501 0.05787491798400879
vt 0.8866947293281555 0.05652618408203125
vt 0.8960675001144409 0.04081231355667114
vt 0.8629506826400757 0.0449945330619812
vt 0.8690841197967529 0.028230488300323486
vt 0.8373208045959473 0.03755497932434082
vt 0.8403240442276001 0.020522594451904297
vt 0.8106598854064941 0.03522282838821411
vt 0.8106595277786255 0.01792776584625244
vt 0.7839983701705933 0.0375552773475647
vt 0.7809950113296509 0.0205228328704834
vt 0.7581488490104675 0.04448342323303223
vt 0.7522349953651428 0.028230369091033936
vt 0.7338926196098328 0.05579519271850586
vt 0.7252511382102966 0.040811240673065186
vt 0.7119562029838562 0.07114434242248535
vt 0.7008545994758606 0.05787283182144165
vt 0.6929771900177002 0.09006226062774658
vt 0.6797634959220886 0.07887160778045654
vt 0.6774458289146423 0.11183887720108032
vt 0.6625215411186218 0.10314196348190308
vt 0.666154682636261 0.13603311777114868
vt 0.649910032749176 0.1301192045211792
vt 0.6592804789543152 0.16186195611953735
vt 0.6422457695007324 0.15888923406600952
vt 0.6570239067077637 0.1885116696357727
vt 0.6397293210029602 0.18855559825897217
vt 0.6594383120536804 0.21516138315200806
vt 0.642411470413208 0.21820735931396484
vt 0.6664365530014038 0.24100279808044434
vt 0.6501895785331726 0.24694597721099854
vt 0.6777932047843933 0.265264093875885
vt 0.6628089547157288 0.27391231060028076
vt 0.6931440234184265 0.2872360944747925
vt 0.6798718571662903 0.29831719398498535
vt 0.7119590640068054 0.30627328157424927
vt 0.700803816318512 0.3194981813430786
vt 0.7338373064994812 0.3216295838356018
vt 0.7251842617988586 0.33659952878952026
vt 0.758341372013092 0.3321685194969177
vt 0.7521912455558777 0.3491640090942383
vt 0.7837193012237549 0.33869028091430664
vt 0.7809747457504272 0.3568371534347534
vt 0.8106545209884644 0.3408844470977783
vt 0.8106545209884644 0.3594164252281189
vt 0.8368491530418396 0.33832037448883057
vt 0.8403342962265015 0.3568374514579773
vt 0.8628444671630859 0.3326628804206848
vt 0.8691178560256958 0.3491646647453308
vt 0.8867310881614685 0.32051950693130493
vt 0.896125078201294 0.33660078048706055
vt 0.9083633422851562 0.30565762519836426
vt 0.9205057621002197 0.3194999098777771
vt 0.9271785020828247 0.2868679165840149
vt 0.9414380788803101 0.29831939935684204
vt 0.9425484538078308 0.26473432779312134
vt 0.9585013389587402 0.2739146947860718
vt 0.954305112361908 0.2409101128578186
vt 0.9711215496063232 0.24694913625717163
vt 0.9607353806495667 0.21497410535812378
vt 0.9789012670516968 0.2182108759880066
vt 0.9032459259033203 0.34891945123672485
vt 0.8739773035049438 0.3625403642654419
vt 0.9294703006744385 0.33014774322509766
vt 0.9520167112350464 0.3072323799133301
vt 0.9702146053314209 0.28058332204818726
vt 0.9839865565299988 0.2516149878501892
vt 0.9919021129608154 0.22060418128967285
vt 0.9945245981216431 0.18859410285949707
vt 0.9916821718215942 0.15683794021606445
vt 0.9834802150726318 0.12587183713912964
vt 0.969569742679596 0.0971299409866333
vt 0.9510369300842285 0.07074850797653198
vt 0.928754448890686 0.047905564308166504
vt 0.902559757232666 0.029660046100616455
vt 0.8733887076377869 0.015978634357452393
vt 0.842626690864563 0.007180154323577881
vt 0.8106592893600464 0.0039757490158081055
vt 0.7784674763679504 0.007180392742156982
vt 0.7473689913749695 0.015191853046417236
vt 0.7181412577629089 0.02847898006439209
vt 0.6917211413383484 0.046948134899139404
vt 0.6688762307167053 0.06967812776565552
vt 0.6502305865287781 0.09600329399108887
vt 0.6365440487861633 0.12525016069412231
vt 0.6282286643981934 0.1564406156539917
vt 0.6254972815513611 0.18859004974365234
vt 0.6273549199104309 0.22099721431732178
vt 0.6362494826316833 0.252025842666626
vt 0.6500030159950256 0.28150445222854614
vt 0.6681795120239258 0.30761653184890747
vt 0.6911398768424988 0.3304654359817505
vt 0.7177785634994507 0.34891825914382935
vt 0.7471418976783752 0.3625398278236389
vt 0.7785118818283081 0.3708565831184387
vt 0.81046462059021 0.37355685234069824
vt 0.8427971601486206 0.3708568215370178
vt 0.9307664632797241 0.1877630352973938
vt 0.9516080021858215 0.18786531686782837
vt 0.9493525624275208 0.212421715259552
vt 0.9288463592529297 0.20870381593704224
vt 0.9428749680519104 0.23619794845581055
vt 0.9233253598213196 0.22898030281066895
vt 0.9323795437812805 0.2584756016731262
vt 0.9143776893615723 0.24797970056533813
vt 0.9181915521621704 0.27858448028564453
vt 0.9022800326347351 0.2651302218437195
vt 0.9007445573806763 0.29592281579971313
vt 0.8874019980430603 0.279918372631073
vt 0.8805686831474304 0.30997318029403687
vt 0.8701944947242737 0.2919023633003235
vt 0.8582749962806702 0.32031774520874023
vt 0.8511745929718018 0.30072540044784546
vt 0.8345420360565186 0.3266545534133911
vt 0.8309057354927063 0.30612993240356445
vt 0.810056209564209 0.3288273811340332
vt 0.810056209564209 0.30802035331726074
vt 0.7855692505836487 0.3266545534133911
vt 0.789205014705658 0.3061293363571167
vt 0.7618304491043091 0.32031846046447754
vt 0.7689307332038879 0.3007248044013977
vt 0.739530086517334 0.30997514724731445
vt 0.7499023079872131 0.2919023633003235
vt 0.719347357749939 0.29592686891555786
vt 0.7326874732971191 0.2799198627471924
vt 0.701894223690033 0.2785901427268982
vt 0.7178037166595459 0.2651331424713135
vt 0.6877011060714722 0.25848203897476196
vt 0.7057019472122192 0.24798375368118286
vt 0.6772021651268005 0.23620456457138062
vt 0.6967512369155884 0.2289852499961853
vt 0.6707220077514648 0.21242761611938477
vt 0.6912282109260559 0.20870858430862427
vt 0.6684657335281372 0.18786978721618652
vt 0.689307451248169 0.1877676248550415
vt 0.6705111265182495 0.1632758378982544
vt 0.6910549998283386 0.1667969822883606
vt 0.6768056154251099 0.13939428329467773
vt 0.6964251399040222 0.14643508195877075
vt 0.6871668696403503 0.11695557832717896
vt 0.7052622437477112 0.1273045539855957
vt 0.7012864947319031 0.09664905071258545
vt 0.7173036336898804 0.1099923849105835
vt 0.7187390923500061 0.07910043001174927
vt 0.7321864366531372 0.09503179788589478
vt 0.7389939427375793 0.06485295295715332
vt 0.7494592666625977 0.08288538455963135
vt 0.7614320516586304 0.05434739589691162
vt 0.7685944437980652 0.07392877340316772
vt 0.7853654623031616 0.04790985584259033
vt 0.7890023589134216 0.06844031810760498
vt 0.8100548386573792 0.04574090242385864
vt 0.8100553154945374 0.06659096479415894
vt 0.8347426652908325 0.04790806770324707
vt 0.8311066627502441 0.06843841075897217
vt 0.8586702942848206 0.05434459447860718
vt 0.8515092134475708 0.0739254355430603
vt 0.8811022639274597 0.06485003232955933
vt 0.8706364035606384 0.08288127183914185
vt 0.9013509154319763 0.07909822463989258
vt 0.8879022598266602 0.09502768516540527
vt 0.9187978506088257 0.09664684534072876
vt 0.9027796983718872 0.10998839139938354
vt 0.9329128861427307 0.11695337295532227
vt 0.9148169159889221 0.12730056047439575
vt 0.9432708024978638 0.1393914818763733
vt 0.9236512184143066 0.14643096923828125
vt 0.9495633244514465 0.16327214241027832
vt 0.9290197491645813 0.16679257154464722
vt 0.9573160409927368 0.21393853425979614
vt 0.9493525624275208 0.212421715259552
vt 0.9516080021858215 0.18786531686782837
vt 0.9597151875495911 0.18797826766967773
vt 0.950454831123352 0.239068865776062
vt 0.9428749680519104 0.23619794845581055
vt 0.9393491148948669 0.2626110911369324
vt 0.9323795437812805 0.2584756016731262
vt 0.9243437647819519 0.28385812044143677
vt 0.9181915521621704 0.27858448028564453
vt 0.9058979749679565 0.30217504501342773
vt 0.9007445573806763 0.29592281579971313
vt 0.884572446346283 0.31701743602752686
vt 0.8805686831474304 0.30997318029403687
vt 0.8610124588012695 0.3279464840888977
vt 0.8582749962806702 0.32031774520874023
vt 0.8359244465827942 0.3346441984176636
vt 0.8345420360565186 0.3266545534133911
vt 0.8100563287734985 0.33690375089645386
vt 0.810056209564209 0.3288273811340332
vt 0.7841867208480835 0.3346445560455322
vt 0.7855692505836487 0.3266545534133911
vt 0.7590928673744202 0.32794731855392456
vt 0.7618304491043091 0.32031846046447754
vt 0.7355258464813232 0.3170194625854492
vt 0.739530086517334 0.30997514724731445
vt 0.7141937017440796 0.30217891931533813
vt 0.719347357749939 0.29592686891555786
vt 0.695742130279541 0.2838633060455322
vt 0.701894223690033 0.2785901427268982
vt 0.6807317733764648 0.26261717081069946
vt 0.6877011060714722 0.25848203897476196
vt 0.6696226596832275 0.23907530307769775
vt 0.6772021651268005 0.23620456457138062
vt 0.662759006023407 0.2139441967010498
vt 0.6707220077514648 0.21242761611938477
vt 0.6603589057922363 0.18798291683197021
vt 0.6684657335281372 0.18786978721618652
vt 0.6625066995620728 0.16197794675827026
vt 0.6705111265182495 0.1632758378982544
vt 0.6691486239433289 0.13672137260437012
vt 0.6768056154251099 0.13939428329467773
vt 0.6800928711891174 0.11298614740371704
vt 0.6871668696403503 0.11695557832717896
vt 0.6950153708457947 0.09150218963623047
vt 0.7012864947319031 0.09664905071258545
vt 0.7134667038917542 0.0729328989982605
vt 0.7187390923500061 0.07910043001174927
vt 0.7348860502243042 0.05785411596298218
vt 0.7389939427375793 0.06485295295715332
vt 0.7586191892623901 0.046734511852264404
vt 0.7614320516586304 0.05434739589691162
vt 0.7839361429214478 0.039920270442962646
vt 0.7853654623031616 0.04790985584259033
vt 0.8100548982620239 0.0376242995262146
vt 0.8100548386573792 0.04574090242385864
vt 0.8361719846725464 0.03991878032684326
vt 0.8347426652908325 0.04790806770324707
vt 0.8614832162857056 0.04673212766647339
vt 0.8586702942848206 0.05434459447860718
vt 0.8852095603942871 0.057851552963256836
vt 0.8811022639274597 0.06485003232955933
vt 0.9066229462623596 0.07293051481246948
vt 0.9013509154319763 0.07909822463989258
vt 0.925068736076355 0.091499924659729
vt 0.9187978506088257 0.09664684534072876
vt 0.9399868249893188 0.11298370361328125
vt 0.9329128861427307 0.11695337295532227
vt 0.9509280323982239 0.1367185115814209
vt 0.9432708024978638 0.1393914818763733
vt 0.9575679898262024 0.16197431087493896
vt 0.9495633244514465 0.16327214241027832

g Object02
s 1
usemtl Object02
f 3/3/3 2/2/2 1/1/1 
f 4/4/4 3/3/3 1/1/1 
f 3/3/3 4/4/4 5/5/5 
f 6/6/6 3/3/3 5/5/5 
f 6/6/6 5/5/5 7/7/7 
f 8/8/8 6/6/6 7/7/7 
f 8/8/8 7/7/7 9/9/9 
f 10/10/10 8/8/8 9/9/9 
f 10/10/10 9/9/9 11/11/11 
f 12/12/12 10/10/10 11/11/11 
f 12/12/12 11/11/11 13/13/13 
f 14/14/14 12/12/12 13/13/13 
f 14/14/14 13/13/13 15/15/15 
f 16/16/16 14/14/14 15/15/15 
f 16/16/16 15/15/15 17/17/17 
f 18/18/18 16/16/16 17/17/17 
f 18/18/18 17/17/17 19/19/19 
f 20/20/20 18/18/18 19/19/19 
f 20/20/20 19/19/19 21/21/21 
f 22/22/22 20/20/20 21/21/21 
f 22/22/22 21/21/21 23/23/23 
f 24/24/24 22/22/22 23/23/23 
f 24/24/24 23/23/23 25/25/25 
f 26/26/26 24/24/24 25/25/25 
f 26/26/26 25/25/25 27/27/27 
f 28/28/28 26/26/26 27/27/27 
f 28/28/28 27/27/27 29/29/29 
f 30/30/30 28/28/28 29/29/29 
f 30/30/30 29/29/29 31/31/31 
f 32/32/32 30/30/30 31/31/31 
f 32/32/32 31/31/31 33/33/33 
f 34/34/34 32/32/32 33/33/33 
f 34/34/34 33/33/33 35/35/35 
f 36/36/36 34/34/34 35/35/35 
f 36/36/36 35/35/35 37/37/37 
f 38/38/38 36/36/36 37/37/37 
f 38/38/38 37/37/37 39/39/39 
f 40/40/40 38/38/38 39/39/39 
f 40/40/40 39/39/39 41/41/41 
f 42/42/42 40/40/40 41/41/41 
f 42/42/42 41/41/41 43/43/43 
f 44/44/44 42/42/42 43/43/43 
f 44/44/44 43/43/43 45/45/45 
f 46/46/46 44/44/44 45/45/45 
f 46/46/46 45/45/45 47/47/47 
f 48/48/48 46/46/46 47/47/47 
f 48/48/48 47/47/47 49/49/49 
f 50/50/50 48/48/48 49/49/49 
f 50/50/50 49/49/49 51/51/51 
f 52/52/52 50/50/50 51/51/51 
f 52/52/52 51/51/51 53/53/53 
f 54/54/54 52/52/52 53/53/53 
f 54/54/54 53/53/53 55/55/55 
f 56/56/56 54/54/54 55/55/55 
f 56/56/56 55/55/55 57/57/57 
f 58/58/58 56/56/56 57/57/57 
f 58/58/58 57/57/57 59/59/59 
f 60/60/60 58/58/58 59/59/59 
f 60/60/60 59/59/59 61/61/61 
f 62/62/62 60/60/60 61/61/61 
f 62/62/62 61/61/61 63/63/63 
f 64/64/64 62/62/62 63/63/63 
f 64/64/64 63/63/63 65/65/65 
f 66/66/66 64/64/64 65/65/65 
f 66/66/66 65/65/65 67/67/67 
f 68/68/68 66/66/66 67/67/67 
f 68/68/68 67/67/67 69/69/69 
f 70/70/70 68/68/68 69/69/69 
f 70/70/70 69/69/69 71/71/71 
f 72/72/72 70/70/70 71/71/71 
f 72/72/72 71/71/71 1/1/1 
f 2/2/2 72/72/72 1/1/1 
f 62/62/62 73/73/73 60/60/60 
f 73/73/73 74/74/74 60/60/60 
f 75/75/75 73/73/73 62/62/62 
f 64/64/64 75/75/75 62/62/62 
f 76/76/76 75/75/75 64/64/64 
f 66/66/66 76/76/76 64/64/64 
f 77/77/77 76/76/76 66/66/66 
f 68/68/68 77/77/77 66/66/66 
f 78/78/78 77/77/77 68/68/68 
f 70/70/70 78/78/78 68/68/68 
f 79/79/79 78/78/78 70/70/70 
f 72/72/72 79/79/79 70/70/70 
f 80/80/80 79/79/79 72/72/72 
f 2/2/2 80/80/80 72/72/72 
f 81/81/81 80/80/80 2/2/2 
f 3/3/3 81/81/81 2/2/2 
f 82/82/82 81/81/81 3/3/3 
f 6/6/6 82/82/82 3/3/3 
f 83/83/83 82/82/82 6/6/6 
f 8/8/8 83/83/83 6/6/6 
f 84/84/84 83/83/83 8/8/8 
f 10/10/10 84/84/84 8/8/8 
f 85/85/85 84/84/84 10/10/10 
f 12/12/12 85/85/85 10/10/10 
f 86/86/86 85/85/85 12/12/12 
f 14/14/14 86/86/86 12/12/12 
f 87/87/87 86/86/86 14/14/14 
f 16/16/16 87/87/87 14/14/14 
f 88/88/88 87/87/87 16/16/16 
f 18/18/18 88/88/88 16/16/16 
f 89/89/89 88/88/88 18/18/18 
f 20/20/20 89/89/89 18/18/18 
f 90/90/90 89/89/89 20/20/20 
f 22/22/22 90/90/90 20/20/20 
f 91/91/91 90/90/90 22/22/22 
f 24/24/24 91/91/91 22/22/22 
f 92/92/92 91/91/91 24/24/24 
f 26/26/26 92/92/92 24/24/24 
f 93/93/93 92/92/92 26/26/26 
f 28/28/28 93/93/93 26/26/26 
f 94/94/94 93/93/93 28/28/28 
f 30/30/30 94/94/94 28/28/28 
f 95/95/95 94/94/94 30/30/30 
f 32/32/32 95/95/95 30/30/30 
f 96/96/96 95/95/95 32/32/32 
f 34/34/34 96/96/96 32/32/32 
f 97/97/97 96/96/96 34/34/34 
f 36/36/36 97/97/97 34/34/34 
f 98/98/98 97/97/97 36/36/36 
f 38/38/38 98/98/98 36/36/36 
f 99/99/99 98/98/98 38/38/38 
f 40/40/40 99/99/99 38/38/38 
f 100/100/100 99/99/99 40/40/40 
f 42/42/42 100/100/100 40/40/40 
f 101/101/101 100/100/100 42/42/42 
f 44/44/44 101/101/101 42/42/42 
f 102/102/102 101/101/101 44/44/44 
f 46/46/46 102/102/102 44/44/44 
f 103/103/103 102/102/102 46/46/46 
f 48/48/48 103/103/103 46/46/46 
f 104/104/104 103/103/103 48/48/48 
f 50/50/50 104/104/104 48/48/48 
f 105/105/105 104/104/104 50/50/50 
f 52/52/52 105/105/105 50/50/50 
f 106/106/106 105/105/105 52/52/52 
f 54/54/54 106/106/106 52/52/52 
f 107/107/107 106/106/106 54/54/54 
f 56/56/56 107/107/107 54/54/54 
f 108/108/108 107/107/107 56/56/56 
f 58/58/58 108/108/108 56/56/56 
f 74/74/74 108/108/108 58/58/58 
f 60/60/60 74/74/74 58/58/58 
f 111/111/111 110/110/110 109/109/109 
f 112/112/112 111/111/111 109/109/109 
f 113/113/113 111/111/111 112/112/112 
f 114/114/114 113/113/113 112/112/112 
f 115/115/115 113/113/113 114/114/114 
f 116/116/116 115/115/115 114/114/114 
f 117/117/117 115/115/115 116/116/116 
f 118/118/118 117/117/117 116/116/116 
f 119/119/119 117/117/117 118/118/118 
f 120/120/120 119/119/119 118/118/118 
f 121/121/121 119/119/119 120/120/120 
f 122/122/122 121/121/121 120/120/120 
f 123/123/123 121/121/121 122/122/122 
f 124/124/124 123/123/123 122/122/122 
f 125/125/125 123/123/123 124/124/124 
f 126/126/126 125/125/125 124/124/124 
f 127/127/127 125/125/125 126/126/126 
f 128/128/128 127/127/127 126/126/126 
f 129/129/129 127/127/127 128/128/128 
f 130/130/130 129/129/129 128/128/128 
f 131/131/131 129/129/129 130/130/130 
f 132/132/132 131/131/131 130/130/130 
f 133/133/133 131/131/131 132/132/132 
f 134/134/134 133/133/133 132/132/132 
f 135/135/135 133/133/133 134/134/134 
f 136/136/136 135/135/135 134/134/134 
f 137/137/137 135/135/135 136/136/136 
f 138/138/138 137/137/137 136/136/136 
f 139/139/139 137/137/137 138/138/138 
f 140/140/140 139/139/139 138/138/138 
f 141/141/141 139/139/139 140/140/140 
f 142/142/142 141/141/141 140/140/140 
f 143/143/143 141/141/141 142/142/142 
f 144/144/144 143/143/143 142/142/142 
f 145/145/145 143/143/143 144/144/144 
f 146/146/146 145/145/145 144/144/144 
f 147/147/147 145/145/145 146/146/146 
f 148/148/148 147/147/147 146/146/146 
f 149/149/149 147/147/147 148/148/148 
f 150/150/150 149/149/149 148/148/148 
f 151/151/151 149/149/149 150/150/150 
f 152/152/152 151/151/151 150/150/150 
f 153/153/153 151/151/151 152/152/152 
f 154/154/154 153/153/153 152/152/152 
f 155/155/155 153/153/153 154/154/154 
f 156/156/156 155/155/155 154/154/154 
f 157/157/157 155/155/155 156/156/156 
f 158/158/158 157/157/157 156/156/156 
f 159/159/159 157/157/157 158/158/158 
f 160/160/160 159/159/159 158/158/158 
f 161/161/161 159/159/159 160/160/160 
f 162/162/162 161/161/161 160/160/160 
f 163/163/163 161/161/161 162/162/162 
f 164/164/164 163/163/163 162/162/162 
f 165/165/165 163/163/163 164/164/164 
f 166/166/166 165/165/165 164/164/164 
f 167/167/167 165/165/165 166/166/166 
f 168/168/168 167/167/167 166/166/166 
f 169/169/169 167/167/167 168/168/168 
f 170/170/170 169/169/169 168/168/168 
f 171/171/171 169/169/169 170/170/170 
f 172/172/172 171/171/171 170/170/170 
f 173/173/173 171/171/171 172/172/172 
f 174/174/174 173/173/173 172/172/172 
f 175/175/175 173/173/173 174/174/174 
f 176/176/176 175/175/175 174/174/174 
f 177/177/177 175/175/175 176/176/176 
f 178/178/178 177/177/177 176/176/176 
f 179/179/179 177/177/177 178/178/178 
f 180/180/180 179/179/179 178/178/178 
f 110/110/110 179/179/179 180/180/180 
f 109/109/109 110/110/110 180/180/180 
f 183/183/183 182/182/182 181/181/181 
f 184/184/184 183/183/183 181/181/181 
f 181/181/181 182/182/182 185/185/185 
f 182/182/182 186/186/186 185/185/185 
f 185/185/185 186/186/186 187/187/187 
f 186/186/186 188/188/188 187/187/187 
f 187/187/187 188/188/188 189/189/189 
f 188/188/188 190/190/190 189/189/189 
f 189/189/189 190/190/190 191/191/191 
f 190/190/190 192/192/192 191/191/191 
f 191/191/191 192/192/192 193/193/193 
f 192/192/192 194/194/194 193/193/193 
f 193/193/193 194/194/194 195/195/195 
f 194/194/194 196/196/196 195/195/195 
f 195/195/195 196/196/196 197/197/197 
f 196/196/196 198/198/198 197/197/197 
f 197/197/197 198/198/198 199/199/199 
f 198/198/198 200/200/200 199/199/199 
f 199/199/199 200/200/200 201/201/201 
f 200/200/200 202/202/202 201/201/201 
f 201/201/201 202/202/202 203/203/203 
f 202/202/202 204/204/204 203/203/203 
f 203/203/203 204/204/204 205/205/205 
f 204/204/204 206/206/206 205/205/205 
f 205/205/205 206/206/206 207/207/207 
f 206/206/206 208/208/208 207/207/207 
f 207/207/207 208/208/208 209/209/209 
f 208/208/208 210/210/210 209/209/209 
f 209/209/209 210/210/210 211/211/211 
f 210/210/210 212/212/212 211/211/211 
f 211/211/211 212/212/212 213/213/213 
f 212/212/212 214/214/214 213/213/213 
f 213/213/213 214/214/214 215/215/215 
f 214/214/214 216/216/216 215/215/215 
f 215/215/215 216/216/216 217/217/217 
f 216/216/216 218/218/218 217/217/217 
f 217/217/217 218/218/218 219/219/219 
f 218/218/218 220/220/220 219/219/219 
f 219/219/219 220/220/220 221/221/221 
f 220/220/220 222/222/222 221/221/221 
f 221/221/221 222/222/222 223/223/223 
f 222/222/222 224/224/224 223/223/223 
f 223/223/223 224/224/224 225/225/225 
f 224/224/224 226/226/226 225/225/225 
f 225/225/225 226/226/226 227/227/227 
f 226/226/226 228/228/228 227/227/227 
f 227/227/227 228/228/228 229/229/229 
f 228/228/228 230/230/230 229/229/229 
f 229/229/229 230/230/230 231/231/231 
f 230/230/230 232/232/232 231/231/231 
f 231/231/231 232/232/232 233/233/233 
f 232/232/232 234/234/234 233/233/233 
f 233/233/233 234/234/234 235/235/235 
f 234/234/234 236/236/236 235/235/235 
f 235/235/235 236/236/236 237/237/237 
f 236/236/236 238/238/238 237/237/237 
f 237/237/237 238/238/238 239/239/239 
f 238/238/238 240/240/240 239/239/239 
f 239/239/239 240/240/240 241/241/241 
f 240/240/240 242/242/242 241/241/241 
f 241/241/241 242/242/242 243/243/243 
f 242/242/242 244/244/244 243/243/243 
f 243/243/243 244/244/244 245/245/245 
f 244/244/244 246/246/246 245/245/245 
f 245/245/245 246/246/246 247/247/247 
f 246/246/246 248/248/248 247/247/247 
f 247/247/247 248/248/248 249/249/249 
f 248/248/248 250/250/250 249/249/249 
f 249/249/249 250/250/250 251/251/251 
f 250/250/250 252/252/252 251/251/251 
f 251/251/251 252/252/252 184/184/184 
f 252/252/252 183/183/183 184/184/184 

