v -4.3337227140227697e-08 0.9867438077926636 -0.19176574051380157
v 0.24656108021736145 0.9555959105491638 -0.19176574051380157
v 0.24656108021736145 0.9555959105491638 0.1917659491300583
v -4.3337227140227697e-08 0.9867438077926636 0.1917659491300583
v 0.4776298701763153 0.8641092777252197 0.1917659342288971
v 0.4776298701763153 0.8641092777252197 -0.19176575541496277
v 0.6786874532699585 0.7180324196815491 0.1917659193277359
v 0.6786874532699585 0.7180324196815491 -0.19176578521728516
v 0.8371005058288574 0.526543915271759 0.19176587462425232
v 0.8371005058288574 0.5265439748764038 -0.19176581501960754
v 0.9429154992103577 0.30167558789253235 0.19176585972309113
v 0.9429154992103577 0.3016756772994995 -0.19176584482192993
v 0.9894837737083435 0.057556770741939545 0.19176580011844635
v 0.9894837737083435 0.05755683779716492 -0.1917658895254135
v 0.9738789796829224 -0.19047363102436066 0.19176575541496277
v 0.9738789796829224 -0.1904735565185547 -0.1917659342288971
v 0.8970817923545837 -0.426830917596817 0.19176572561264038
v 0.8970817923545837 -0.42683085799217224 -0.19176597893238068
v 0.7639178037643433 -0.6366639733314514 0.1917657107114792
v 0.7639178037643433 -0.6366639137268066 -0.19176599383354187
v 0.5827539563179016 -0.8067882061004639 0.1917656660079956
v 0.5827539563179016 -0.8067882061004639 -0.19176602363586426
v 0.3649735450744629 -0.9265139698982239 0.1917656511068344
v 0.3649735450744629 -0.9265139698982239 -0.19176605343818665
v 0.12426051497459412 -0.9883186221122742 0.1917656511068344
v 0.12426051497459412 -0.9883186221122742 -0.19176605343818665
v -0.12426025420427322 -0.988318681716919 0.1917656511068344
v -0.12426025420427322 -0.988318681716919 -0.19176605343818665
v -0.3649732768535614 -0.926514208316803 0.1917656511068344
v -0.3649732768535614 -0.926514208316803 -0.19176605343818665
v -0.5827537775039673 -0.8067882061004639 0.1917656660079956
v -0.5827537775039673 -0.8067882061004639 -0.19176602363586426
v -0.7639178037643433 -0.6366639733314514 0.1917657107114792
v -0.7639178037643433 -0.6366639137268066 -0.19176599383354187
v -0.8970819711685181 -0.42683088779449463 0.19176572561264038
v -0.8970819711685181 -0.42683082818984985 -0.19176597893238068
v -0.9738789796829224 -0.19047348201274872 0.19176575541496277
v -0.9738789796829224 -0.19047339260578156 -0.1917659342288971
v -0.9894837737083435 0.057557038962841034 0.19176580011844635
v -0.9894837737083435 0.057557106018066406 -0.1917658895254135
v -0.9429154992103577 0.3016759157180786 0.19176585972309113
v -0.9429154992103577 0.3016760051250458 -0.19176584482192993
v -0.8371003270149231 0.5265442728996277 0.19176587462425232
v -0.8371003270149231 0.5265443921089172 -0.19176581501960754
v -0.6786870360374451 0.7180328965187073 0.1917659193277359
v -0.6786870360374451 0.7180328965187073 -0.19176578521728516
v -0.47762927412986755 0.8641096949577332 0.1917659342288971
v -0.47762927412986755 0.8641096949577332 -0.19176575541496277
v -0.24656030535697937 0.9555960893630981 0.1917659491300583
v -0.24656030535697937 0.9555960893630981 -0.19176574051380157
v -4.3337227140227697e-08 0.9867438077926636 0.1917659491300583
v -4.3337227140227697e-08 0.9867438077926636 -0.19176574051380157
vn 1.6740523278713226e-07 1.0 0.0
vn 0.24875116348266602 0.9685673713684082 0.0
vn 0.24875116348266602 0.9685673713684082 0.0
vn 1.6740523278713226e-07 1.0 0.0
vn 0.48183804750442505 0.8762603998184204 0.0
vn 0.48183804750442505 0.8762603998184204 0.0
vn 0.6845304369926453 0.7289842963218689 0.0
vn 0.6845304369926453 0.7289842963218689 0.0
vn 0.8443163633346558 0.5358451008796692 0.0
vn 0.8443163633346558 0.5358451008796692 0.0
vn 0.9510517120361328 0.3090316951274872 0.0
vn 0.9510517120361328 0.3090316951274872 0.0
vn 0.99802565574646 0.06280846893787384 0.0
vn 0.99802565574646 0.06280846893787384 0.0
vn 0.9822892546653748 -0.1873709112405777 0.0
vn 0.9822892546653748 -0.1873709112405777 0.0
vn 0.9048629403114319 -0.4257029891014099 0.0
vn 0.9048629403114319 -0.4257029891014099 0.0
vn 0.7704324722290039 -0.6375216245651245 0.0
vn 0.7704324722290039 -0.6375216245651245 0.0
vn 0.5877251625061035 -0.8090606927871704 0.0
vn 0.5877251625061035 -0.8090606927871704 0.0
vn 0.36815130710601807 -0.9297659993171692 0.0
vn 0.36815130710601807 -0.9297659993171692 0.0
vn 0.12532852590084076 -0.9921151995658875 0.0
vn 0.12532852590084076 -0.9921151995658875 0.0
vn -0.12529118359088898 -0.9921200275421143 0.0
vn -0.12529118359088898 -0.9921200275421143 0.0
vn -0.36815130710601807 -0.9297659993171692 0.0
vn -0.36815130710601807 -0.9297659993171692 0.0
vn -0.5878235101699829 -0.8089892268180847 0.0
vn -0.5878235101699829 -0.8089892268180847 0.0
vn -0.7704324722290039 -0.6375216245651245 0.0
vn -0.7704324722290039 -0.6375216245651245 0.0
vn -0.9048084616661072 -0.4258187711238861 0.0
vn -0.9048084616661072 -0.4258187711238861 0.0
vn -0.9822892546653748 -0.1873709112405777 0.0
vn -0.9822892546653748 -0.1873709112405777 0.0
vn -0.99802565574646 0.06280846893787384 0.0
vn -0.99802565574646 0.06280846893787384 0.0
vn -0.9510738253593445 0.308963805437088 0.0
vn -0.9510738253593445 0.308963805437088 0.0
vn -0.8442301154136658 0.5359809994697571 0.0
vn -0.8442301154136658 0.5359809994697571 0.0
vn -0.6845304369926453 0.7289842963218689 0.0
vn -0.6845304369926453 0.7289842963218689 0.0
vn -0.48183804750442505 0.8762603998184204 0.0
vn -0.48183804750442505 0.8762603998184204 0.0
vn -0.2486787885427475 0.9685859084129333 0.0
vn -0.2486787885427475 0.9685859084129333 0.0
vn 1.6740523278713226e-07 1.0 0.0
vn 1.6740523278713226e-07 1.0 0.0
vt 0.9999996423721313 0.9999998726095782
vt 0.9599996209144592 0.9999998743580392
vt 0.9599995613098145 4.76837158203125e-07
vt 0.9999995827674866 4.76837158203125e-07
vt 0.9199995994567871 4.76837158203125e-07
vt 0.9199996590614319 0.9999998761065001
vt 0.8799996376037598 4.76837158203125e-07
vt 0.8799996376037598 0.9999998778549468
vt 0.8399996161460876 4.76837158203125e-07
vt 0.8399996757507324 0.9999998796033935
vt 0.7999995946884155 4.76837158203125e-07
vt 0.7999996542930603 0.9999998813518616
vt 0.7599996328353882 4.76837158203125e-07
vt 0.759999692440033 0.9999998831003154
vt 0.7199996709823608 4.76837158203125e-07
vt 0.7199996709823608 0.9999998848487692
vt 0.6799997091293335 4.76837158203125e-07
vt 0.6799997091293335 0.999999886597223
vt 0.6399996876716614 4.76837158203125e-07
vt 0.6399997472763062 0.9999998883456769
vt 0.5999996662139893 4.76837158203125e-07
vt 0.599999725818634 0.9999998900941307
vt 0.5599997043609619 4.76837158203125e-07
vt 0.5599997639656067 0.9999998918425845
vt 0.5199996829032898 4.76837158203125e-07
vt 0.5199997425079346 0.9999998935910455
vt 0.47999972105026245 4.76837158203125e-07
vt 0.4799997806549072 0.9999998953394993
vt 0.4399998188018799 4.76837158203125e-07
vt 0.43999987840652466 0.999999897087946
vt 0.3999996781349182 4.76837158203125e-07
vt 0.399999737739563 0.9999998988364069
vt 0.35999977588653564 4.76837158203125e-07
vt 0.3599998354911804 0.9999999005848608
vt 0.31999969482421875 4.76837158203125e-07
vt 0.3199997544288635 0.9999999023333217
vt 0.2799997329711914 5.960464477539062e-07
vt 0.2799997925758362 0.9999999040817755
vt 0.23999977111816406 5.960464477539062e-07
vt 0.23999983072280884 0.9999999058302294
vt 0.19999969005584717 5.960464477539062e-07
vt 0.19999974966049194 0.9999999075786832
vt 0.15999984741210938 5.960464477539062e-07
vt 0.15999990701675415 0.999999909327137
vt 0.11999976634979248 5.960464477539062e-07
vt 0.11999982595443726 0.9999999110755908
vt 0.07999980449676514 5.960464477539062e-07
vt 0.07999986410140991 0.9999999128240518
vt 0.03999978303909302 5.960464477539062e-07
vt 0.03999984264373779 0.9999999145725056
vt -1.1920928955078125e-07 5.960464477539062e-07
vt -1.1920928955078125e-07 0.9999999163209594

g Tube001
s 1
usemtl Tube001
f 3/3/3 2/2/2 1/1/1 
f 4/4/4 3/3/3 1/1/1 
f 3/3/3 5/5/5 2/2/2 
f 5/5/5 6/6/6 2/2/2 
f 5/5/5 7/7/7 6/6/6 
f 7/7/7 8/8/8 6/6/6 
f 7/7/7 9/9/9 8/8/8 
f 9/9/9 10/10/10 8/8/8 
f 9/9/9 11/11/11 10/10/10 
f 11/11/11 12/12/12 10/10/10 
f 11/11/11 13/13/13 12/12/12 
f 13/13/13 14/14/14 12/12/12 
f 13/13/13 15/15/15 14/14/14 
f 15/15/15 16/16/16 14/14/14 
f 15/15/15 17/17/17 16/16/16 
f 17/17/17 18/18/18 16/16/16 
f 17/17/17 19/19/19 18/18/18 
f 19/19/19 20/20/20 18/18/18 
f 19/19/19 21/21/21 20/20/20 
f 21/21/21 22/22/22 20/20/20 
f 21/21/21 23/23/23 22/22/22 
f 23/23/23 24/24/24 22/22/22 
f 23/23/23 25/25/25 24/24/24 
f 25/25/25 26/26/26 24/24/24 
f 25/25/25 27/27/27 26/26/26 
f 27/27/27 28/28/28 26/26/26 
f 27/27/27 29/29/29 28/28/28 
f 29/29/29 30/30/30 28/28/28 
f 29/29/29 31/31/31 30/30/30 
f 31/31/31 32/32/32 30/30/30 
f 31/31/31 33/33/33 32/32/32 
f 33/33/33 34/34/34 32/32/32 
f 33/33/33 35/35/35 34/34/34 
f 35/35/35 36/36/36 34/34/34 
f 35/35/35 37/37/37 36/36/36 
f 37/37/37 38/38/38 36/36/36 
f 37/37/37 39/39/39 38/38/38 
f 39/39/39 40/40/40 38/38/38 
f 39/39/39 41/41/41 40/40/40 
f 41/41/41 42/42/42 40/40/40 
f 41/41/41 43/43/43 42/42/42 
f 43/43/43 44/44/44 42/42/42 
f 43/43/43 45/45/45 44/44/44 
f 45/45/45 46/46/46 44/44/44 
f 45/45/45 47/47/47 46/46/46 
f 47/47/47 48/48/48 46/46/46 
f 47/47/47 49/49/49 48/48/48 
f 49/49/49 50/50/50 48/48/48 
f 49/49/49 51/51/51 50/50/50 
f 51/51/51 52/52/52 50/50/50 

