[
	{
		"ID": 1,
		"ChangeCondition": "BehaviorCondition_TurnN",
		"CCParam": "5",
		"NextBehaviorID": 1
	},
	{
		"ID": 2,
		"ChangeCondition": "BehaviorCondition_AttackedByEnemy",
		"CCParam": "",
		"NextBehaviorID": 1
	},
	{
		"ID": 3,
		"ChangeCondition": "BehaviorCondition_EnemyEnterMoveAndAttackRange",
		"CCParam": "",
		"NextBehaviorID": 1
	},
	{
		"ID": 4,
		"ChangeCondition": "BehaviorCondition_DistanceToMoveTargetLestEqual",
		"CCParam": "1",
		"NextBehaviorID": 4
	},
	{
		"ID": 5,
		"ChangeCondition": "BehaviorCondition_SelfHPPercentLessEqual",
		"CCParam": "0.5",
		"NextBehaviorID": 6
	},
	{
		"ID": 6,
		"ChangeCondition": "BehaviorCondition_FoundEnemyWithBuffN",
		"CCParam": "31008",
		"NextBehaviorID": 15
	},
	{
		"ID": 7,
		"ChangeCondition": "BehaviorCondition_NoEnemyWithBuffN",
		"CCParam": "31008",
		"NextBehaviorID": 14
	},
	{
		"ID": 8,
		"ChangeCondition": "BehaviorCondition_NoEnemyEnterMoveAndAttackRange",
		"CCParam": "",
		"NextBehaviorID": 17
	},
	{
		"ID": 9,
		"ChangeCondition": "BehaviorCondition_EnemyEnterMoveAndAttackRange",
		"CCParam": "",
		"NextBehaviorID": 16
	},
	{
		"ID": 10,
		"ChangeCondition": "BehaviorCondition_DistanceToMoveTargetLestEqual",
		"CCParam": "1",
		"NextBehaviorID": 18
	},
	{
		"ID": 11,
		"ChangeCondition": "BehaviorCondition_TurnN",
		"CCParam": "3",
		"NextBehaviorID": 1
	},
	{
		"ID": 12,
		"ChangeCondition": "BehaviorCondition_TurnN",
		"CCParam": "2",
		"NextBehaviorID": 1
	},
	{
		"ID": 13,
		"ChangeCondition": "BehaviorCondition_TurnN",
		"CCParam": "2",
		"NextBehaviorID": 1024
	},
	{
		"ID": 14,
		"ChangeCondition": "BehaviorCondition_TurnN",
		"CCParam": "4",
		"NextBehaviorID": 1
	},
	{
		"ID": 15,
		"ChangeCondition": "BehaviorCondition_DistanceToMoveTargetLestEqual",
		"CCParam": "0",
		"NextBehaviorID": 126
	},
	{
		"ID": 16,
		"ChangeCondition": "BehaviorCondition_DistanceToMoveTargetLestEqual",
		"CCParam": "0",
		"NextBehaviorID": 128
	},
	{
		"ID": 17,
		"ChangeCondition": "BehaviorCondition_DistanceToMoveTargetLestEqual",
		"CCParam": "0",
		"NextBehaviorID": 128
	},
	{
		"ID": 18,
		"ChangeCondition": "BehaviorCondition_NoEnemyEnterMoveAndAttackRange",
		"CCParam": "",
		"NextBehaviorID": 34
	},
	{
		"ID": 19,
		"ChangeCondition": "BehaviorCondition_EnemyEnterMoveAndAttackRange",
		"CCParam": "",
		"NextBehaviorID": 33
	},
	{
		"ID": 20,
		"ChangeCondition": "BehaviorCondition_TurnN",
		"CCParam": "6",
		"NextBehaviorID": 1
	},
	{
		"ID": 21,
		"ChangeCondition": "BehaviorCondition_SelfHPPercentLessEqual",
		"CCParam": "0.22",
		"NextBehaviorID": 38
	},
	{
		"ID": 22,
		"ChangeCondition": "BehaviorCondition_NoEnemyEnterMoveAndAttackRange",
		"CCParam": "",
		"NextBehaviorID": 40
	},
	{
		"ID": 23,
		"ChangeCondition": "BehaviorCondition_EnemyEnterMoveAndAttackRange",
		"CCParam": "",
		"NextBehaviorID": 39
	},
	{
		"ID": 24,
		"ChangeCondition": "BehaviorCondition_TurnN",
		"CCParam": "4",
		"NextBehaviorID": 1
	},
	{
		"ID": 25,
		"ChangeCondition": "BehaviorCondition_TurnN",
		"CCParam": "6",
		"NextBehaviorID": 1
	},
	{
		"ID": 26,
		"ChangeCondition": "BehaviorCondition_TurnN",
		"CCParam": "2",
		"NextBehaviorID": 1547
	},
	{
		"ID": 27,
		"ChangeCondition": "BehaviorCondition_EnemyEnterMoveAndAttackRange",
		"CCParam": "",
		"NextBehaviorID": 186
	},
	{
		"ID": 28,
		"ChangeCondition": "BehaviorCondition_EnemyEnterMoveAndAttackRange",
		"CCParam": "",
		"NextBehaviorID": 187
	},
	{
		"ID": 29,
		"ChangeCondition": "BehaviorCondition_AttackedByEnemy",
		"CCParam": "",
		"NextBehaviorID": 186
	},
	{
		"ID": 30,
		"ChangeCondition": "BehaviorCondition_AttackedByEnemy",
		"CCParam": "",
		"NextBehaviorID": 187
	},
	{
		"ID": 31,
		"ChangeCondition": "BehaviorCondition_TurnCountN",
		"CCParam": "1",
		"NextBehaviorID": 202
	},
	{
		"ID": 100,
		"ChangeCondition": "BehaviorCondition_TurnN",
		"CCParam": "2",
		"NextBehaviorID": 104
	},
	{
		"ID": 101,
		"ChangeCondition": "BehaviorCondition_DistanceToMoveTargetLestEqual",
		"CCParam": "1",
		"NextBehaviorID": 105
	},
	{
		"ID": 102,
		"ChangeCondition": "BehaviorCondition_TurnN",
		"CCParam": "3",
		"NextBehaviorID": 110
	},
	{
		"ID": 103,
		"ChangeCondition": "BehaviorCondition_AttackedByEnemy",
		"CCParam": "",
		"NextBehaviorID": 110
	},
	{
		"ID": 104,
		"ChangeCondition": "BehaviorCondition_TurnN",
		"CCParam": "3",
		"NextBehaviorID": 23
	},
	{
		"ID": 105,
		"ChangeCondition": "BehaviorCondition_TurnN",
		"CCParam": "7",
		"NextBehaviorID": 23
	},
	{
		"ID": 106,
		"ChangeCondition": "BehaviorCondition_AttackedByEnemy",
		"CCParam": "",
		"NextBehaviorID": 114
	},
	{
		"ID": 107,
		"ChangeCondition": "BehaviorCondition_EnemyEnterMoveAndAttackRangeExcept",
		"CCParam": "1517",
		"NextBehaviorID": 114
	},
	{
		"ID": 108,
		"ChangeCondition": "BehaviorCondition_EnemyEnterMoveAndAttackRangeExcept",
		"CCParam": "1504",
		"NextBehaviorID": 106
	},
	{
		"ID": 109,
		"ChangeCondition": "BehaviorCondition_TurnN",
		"CCParam": "2",
		"NextBehaviorID": 108
	},
	{
		"ID": 110,
		"ChangeCondition": "BehaviorCondition_TurnN",
		"CCParam": "4",
		"NextBehaviorID": 108
	},
	{
		"ID": 111,
		"ChangeCondition": "BehaviorCondition_TurnN",
		"CCParam": "10",
		"NextBehaviorID": 23
	},
	{
		"ID": 135,
		"ChangeCondition": "BehaviorCondition_NoEnemyEnterMoveAndAttackRangeOfMoveTarget",
		"CCParam": "",
		"NextBehaviorID": 136
	},
	{
		"ID": 136,
		"ChangeCondition": "BehaviorCondition_TurnCountN",
		"CCParam": "1",
		"NextBehaviorID": 136
	},
	{
		"ID": 138,
		"ChangeCondition": "BehaviorCondition_EnemyEnterMoveAndAttackRange",
		"CCParam": "",
		"NextBehaviorID": 160
	},
	{
		"ID": 141,
		"ChangeCondition": "BehaviorCondition_AttackedByEnemy",
		"CCParam": "",
		"NextBehaviorID": 142
	},
	{
		"ID": 158,
		"ChangeCondition": "BehaviorCondition_EnemyEnterMoveAndAttackRange",
		"CCParam": "",
		"NextBehaviorID": 159
	},
	{
		"ID": 159,
		"ChangeCondition": "BehaviorCondition_NoEnemyEnterMoveAndAttackRangeOfMoveTarget",
		"CCParam": "",
		"NextBehaviorID": 158
	},
	{
		"ID": 160,
		"ChangeCondition": "BehaviorCondition_NoEnemyEnterMoveAndAttackRangeOfMoveTarget",
		"CCParam": "",
		"NextBehaviorID": 138
	},
	{
		"ID": 167,
		"ChangeCondition": "BehaviorCondition_AttackedByEnemy",
		"CCParam": "",
		"NextBehaviorID": 168
	},
	{
		"ID": 168,
		"ChangeCondition": "BehaviorCondition_DistanceToMoveTargetLestEqual",
		"CCParam": "1",
		"NextBehaviorID": 18
	},
	{
		"ID": 169,
		"ChangeCondition": "BehaviorCondition_DistanceToMoveTargetLestEqual",
		"CCParam": "0",
		"NextBehaviorID": 18
	},
	{
		"ID": 201,
		"ChangeCondition": "BehaviorCondition_EnemyEnterMoveAndAttackRange",
		"CCParam": "",
		"NextBehaviorID": 4102
	},
	{
		"ID": 1000,
		"ChangeCondition": "BehaviorCondition_TurnN",
		"CCParam": "4",
		"NextBehaviorID": 1001
	},
	{
		"ID": 1003,
		"ChangeCondition": "BehaviorCondition_TurnN",
		"CCParam": "2",
		"NextBehaviorID": 1004
	},
	{
		"ID": 1005,
		"ChangeCondition": "BehaviorCondition_TurnN",
		"CCParam": "2",
		"NextBehaviorID": 1
	},
	{
		"ID": 1008,
		"ChangeCondition": "BehaviorCondition_DistanceToMoveTargetLestEqual",
		"CCParam": "0",
		"NextBehaviorID": 4
	},
	{
		"ID": 1009,
		"ChangeCondition": "BehaviorCondition_TurnN",
		"CCParam": "3",
		"NextBehaviorID": 1009
	},
	{
		"ID": 1010,
		"ChangeCondition": "BehaviorCondition_TurnN",
		"CCParam": "2",
		"NextBehaviorID": 1011
	},
	{
		"ID": 1012,
		"ChangeCondition": "BehaviorCondition_DistanceToMoveTargetLestEqual",
		"CCParam": "1",
		"NextBehaviorID": 1013
	},
	{
		"ID": 1015,
		"ChangeCondition": "BehaviorCondition_TurnN",
		"CCParam": "3",
		"NextBehaviorID": 1
	},
	{
		"ID": 1016,
		"ChangeCondition": "BehaviorCondition_TurnN",
		"CCParam": "2",
		"NextBehaviorID": 1
	},
	{
		"ID": 1026,
		"ChangeCondition": "BehaviorCondition_AttackedByEnemy",
		"CCParam": "",
		"NextBehaviorID": 1009
	},
	{
		"ID": 1036,
		"ChangeCondition": "BehaviorCondition_DistanceToMoveTargetLestEqual",
		"CCParam": "0",
		"NextBehaviorID": 1
	},
	{
		"ID": 1045,
		"ChangeCondition": "BehaviorCondition_NoEnemyEnterMoveAndAttackRange",
		"CCParam": "",
		"NextBehaviorID": 1046
	},
	{
		"ID": 1512,
		"ChangeCondition": "BehaviorCondition_DistanceToMoveTargetLestEqual",
		"CCParam": "0",
		"NextBehaviorID": 1513
	},
	{
		"ID": 1523,
		"ChangeCondition": "BehaviorCondition_TurnN",
		"CCParam": "2",
		"NextBehaviorID": 1524
	},
	{
		"ID": 1524,
		"ChangeCondition": "BehaviorCondition_DistanceToMoveTargetLestEqual",
		"CCParam": "0",
		"NextBehaviorID": 1528
	},
	{
		"ID": 1028,
		"ChangeCondition": "BehaviorCondition_TurnN",
		"CCParam": "5",
		"NextBehaviorID": 1029
	},
	{
		"ID": 1030,
		"ChangeCondition": "BehaviorCondition_TurnN",
		"CCParam": "2",
		"NextBehaviorID": 1029
	},
	{
		"ID": 2001,
		"ChangeCondition": "BehaviorCondition_TurnN",
		"CCParam": "2",
		"NextBehaviorID": 2002
	},
	{
		"ID": 2130,
		"ChangeCondition": "BehaviorCondition_TurnN",
		"CCParam": "1",
		"NextBehaviorID": 2135
	},
	{
		"ID": 2131,
		"ChangeCondition": "BehaviorCondition_HeroNExist",
		"CCParam": "460",
		"NextBehaviorID": 2136
	},
	{
		"ID": 2132,
		"ChangeCondition": "BehaviorCondition_TurnN",
		"CCParam": "2",
		"NextBehaviorID": 2130
	},
	{
		"ID": 2134,
		"ChangeCondition": "BehaviorCondition_HeroNExist",
		"CCParam": "460",
		"NextBehaviorID": 2137
	},
	{
		"ID": 2136,
		"ChangeCondition": "BehaviorCondition_TurnN",
		"CCParam": "1",
		"NextBehaviorID": 2138
	},
	{
		"ID": 2137,
		"ChangeCondition": "BehaviorCondition_TurnN",
		"CCParam": "2",
		"NextBehaviorID": 2133
	},
	{
		"ID": 2138,
		"ChangeCondition": "BehaviorCondition_TurnN",
		"CCParam": "1",
		"NextBehaviorID": 2139
	},
	{
		"ID": 2139,
		"ChangeCondition": "BehaviorCondition_TurnN",
		"CCParam": "3",
		"NextBehaviorID": 2134
	},
	{
		"ID": 2140,
		"ChangeCondition": "BehaviorCondition_AttackedByEnemy",
		"CCParam": "",
		"NextBehaviorID": 2136
	},
	{
		"ID": 2141,
		"ChangeCondition": "BehaviorCondition_EnemyEnterMoveAndAttackRange",
		"CCParam": "",
		"NextBehaviorID": 2136
	},
	{
		"ID": 2142,
		"ChangeCondition": "BehaviorCondition_AttackedByEnemy",
		"CCParam": "",
		"NextBehaviorID": 2137
	},
	{
		"ID": 2143,
		"ChangeCondition": "BehaviorCondition_EnemyEnterMoveAndAttackRange",
		"CCParam": "",
		"NextBehaviorID": 2137
	},
	{
		"ID": 2200,
		"ChangeCondition": "BehaviorCondition_DistanceToMoveTargetLestEqual",
		"CCParam": "0",
		"NextBehaviorID": 3003
	},
	{
		"ID": 2201,
		"ChangeCondition": "BehaviorCondition_DistanceToMoveTargetLestEqual",
		"CCParam": "0",
		"NextBehaviorID": 3002
	},
	{
		"ID": 2202,
		"ChangeCondition": "BehaviorCondition_DistanceToMoveTargetLestEqual",
		"CCParam": "0",
		"NextBehaviorID": 3005
	},
	{
		"ID": 2203,
		"ChangeCondition": "BehaviorCondition_DistanceToMoveTargetLestEqual",
		"CCParam": "0",
		"NextBehaviorID": 3004
	},
	{
		"ID": 2204,
		"ChangeCondition": "BehaviorCondition_DistanceToMoveTargetLestEqual",
		"CCParam": "0",
		"NextBehaviorID": 3007
	},
	{
		"ID": 2205,
		"ChangeCondition": "BehaviorCondition_DistanceToMoveTargetLestEqual",
		"CCParam": "0",
		"NextBehaviorID": 3006
	},
	{
		"ID": 2206,
		"ChangeCondition": "BehaviorCondition_DistanceToMoveTargetLestEqual",
		"CCParam": "0",
		"NextBehaviorID": 3109
	},
	{
		"ID": 2207,
		"ChangeCondition": "BehaviorCondition_DistanceToMoveTargetLestEqual",
		"CCParam": "0",
		"NextBehaviorID": 3110
	},
	{
		"ID": 2208,
		"ChangeCondition": "BehaviorCondition_DistanceToMoveTargetLestEqual",
		"CCParam": "0",
		"NextBehaviorID": 3111
	},
	{
		"ID": 2209,
		"ChangeCondition": "BehaviorCondition_DistanceToMoveTargetLestEqual",
		"CCParam": "0",
		"NextBehaviorID": 3108
	},
	{
		"ID": 2210,
		"ChangeCondition": "BehaviorCondition_EnemyEnterMoveAndAttackRangeOfMoveTarget",
		"CCParam": "",
		"NextBehaviorID": 3124
	},
	{
		"ID": 2211,
		"ChangeCondition": "BehaviorCondition_NoEnemyEnterMoveAndAttackRangeOfMoveTarget",
		"CCParam": "",
		"NextBehaviorID": 3123
	},
	{
		"ID": 2212,
		"ChangeCondition": "BehaviorCondition_AttackedByEnemy",
		"CCParam": "",
		"NextBehaviorID": 3127
	},
	{
		"ID": 2213,
		"ChangeCondition": "BehaviorCondition_EnemyEnterMoveAndAttackRange",
		"CCParam": "",
		"NextBehaviorID": 3127
	},
	{
		"ID": 2214,
		"ChangeCondition": "BehaviorCondition_EveryTurn",
		"CCParam": "",
		"NextBehaviorID": 3128
	},
	{
		"ID": 2215,
		"ChangeCondition": "BehaviorCondition_EveryTurn",
		"CCParam": "",
		"NextBehaviorID": 3127
	},
	{
		"ID": 2216,
		"ChangeCondition": "BehaviorCondition_FoundEnemyWithBuffN",
		"CCParam": "9940494",
		"NextBehaviorID": 3129
	},
	{
		"ID": 2217,
		"ChangeCondition": "BehaviorCondition_NoEnemyWithBuffN",
		"CCParam": "9940494",
		"NextBehaviorID": 3130
	},
	{
		"ID": 2218,
		"ChangeCondition": "BehaviorCondition_FoundEnemyWithBuffN",
		"CCParam": "9940493",
		"NextBehaviorID": 3131
	},
	{
		"ID": 2219,
		"ChangeCondition": "BehaviorCondition_NoEnemyWithBuffN",
		"CCParam": "9940493",
		"NextBehaviorID": 3132
	},
	{
		"ID": 2220,
		"ChangeCondition": "BehaviorCondition_FoundEnemyWithBuffN",
		"CCParam": "9940495",
		"NextBehaviorID": 3133
	},
	{
		"ID": 2221,
		"ChangeCondition": "BehaviorCondition_NoEnemyWithBuffN",
		"CCParam": "9940495",
		"NextBehaviorID": 3134
	},
	{
		"ID": 2222,
		"ChangeCondition": "BehaviorCondition_FoundEnemyWithBuffN",
		"CCParam": "2029",
		"NextBehaviorID": 3138
	},
	{
		"ID": 2223,
		"ChangeCondition": "BehaviorCondition_NoEnemyWithBuffN",
		"CCParam": "2029",
		"NextBehaviorID": 3137
	},
	{
		"ID": 2224,
		"CCParam": "45215",
		"NextBehaviorID": 3143
	},
	{
		"ID": 2225,
		"CCParam": "45215",
		"NextBehaviorID": 3142
	},
	{
		"ID": 2226,
		"CCParam": "45212",
		"NextBehaviorID": 3145
	},
	{
		"ID": 2227,
		"CCParam": "45212",
		"NextBehaviorID": 3144
	},
	{
		"ID": 2228,
		"CCParam": "45214",
		"NextBehaviorID": 3147
	},
	{
		"ID": 2229,
		"CCParam": "45214",
		"NextBehaviorID": 3146
	},
	{
		"ID": 2230,
		"ChangeCondition": "BehaviorCondition_DistanceToMoveTargetLestEqual",
		"CCParam": "0",
		"NextBehaviorID": 3149
	},
	{
		"ID": 2231,
		"ChangeCondition": "BehaviorCondition_DistanceToMoveTargetLestEqual",
		"CCParam": "0",
		"NextBehaviorID": 3148
	},
	{
		"ID": 2232,
		"ChangeCondition": "BehaviorCondition_DistanceToMoveTargetLestEqual",
		"CCParam": "0",
		"NextBehaviorID": 3151
	},
	{
		"ID": 2233,
		"ChangeCondition": "BehaviorCondition_DistanceToMoveTargetLestEqual",
		"CCParam": "0",
		"NextBehaviorID": 3150
	},
	{
		"ID": 2234,
		"CCParam": "9945223",
		"NextBehaviorID": 3153
	},
	{
		"ID": 2235,
		"CCParam": "9845223",
		"NextBehaviorID": 3154
	},
	{
		"ID": 2236,
		"CCParam": "9745223",
		"NextBehaviorID": 3155
	},
	{
		"ID": 2237,
		"ChangeCondition": "BehaviorCondition_TurnN",
		"CCParam": "3",
		"NextBehaviorID": 3158
	},
	{
		"ID": 2238,
		"ChangeCondition": "BehaviorCondition_EnemyEnterMoveAndAttackRange",
		"CCParam": "",
		"NextBehaviorID": 3158
	},
	{
		"ID": 2239,
		"ChangeCondition": "BehaviorCondition_NoEnemyEnterMoveAndAttackRange",
		"CCParam": "",
		"NextBehaviorID": 3157
	},
	{
		"ID": 2240,
		"ChangeCondition": "BehaviorCondition_TurnN",
		"CCParam": "3",
		"NextBehaviorID": 3161
	},
	{
		"ID": 2241,
		"ChangeCondition": "BehaviorCondition_EnemyEnterMoveAndAttackRange",
		"CCParam": "",
		"NextBehaviorID": 3161
	},
	{
		"ID": 2242,
		"ChangeCondition": "BehaviorCondition_NoEnemyEnterMoveAndAttackRange",
		"CCParam": "",
		"NextBehaviorID": 3160
	},
	{
		"ID": 3022,
		"ChangeCondition": "BehaviorCondition_SelfHPPercentLessEqual",
		"CCParam": "0.22",
		"NextBehaviorID": 3023
	},
	{
		"ID": 3023,
		"ChangeCondition": "BehaviorCondition_DistanceToMoveTargetLestEqual",
		"CCParam": "0",
		"NextBehaviorID": 1
	},
	{
		"ID": 3024,
		"ChangeCondition": "BehaviorCondition_DistanceToMoveTargetLestEqual",
		"CCParam": "0",
		"NextBehaviorID": 3031
	},
	{
		"ID": 3025,
		"ChangeCondition": "BehaviorCondition_TurnCountN",
		"CCParam": "1",
		"NextBehaviorID": 3037
	},
	{
		"ID": 3026,
		"ChangeCondition": "BehaviorCondition_TurnCountN",
		"CCParam": "3",
		"NextBehaviorID": 3036
	},
	{
		"ID": 3027,
		"ChangeCondition": "BehaviorCondition_DistanceToMoveTargetLestEqual",
		"CCParam": "0",
		"NextBehaviorID": 3043
	},
	{
		"ID": 3028,
		"ChangeCondition": "BehaviorCondition_DistanceToMoveTargetLestEqual",
		"CCParam": "0",
		"NextBehaviorID": 3044
	},
	{
		"ID": 3029,
		"ChangeCondition": "BehaviorCondition_DistanceToMoveTargetLestEqual",
		"CCParam": "0",
		"NextBehaviorID": 3045
	},
	{
		"ID": 3030,
		"ChangeCondition": "BehaviorCondition_DistanceToMoveTargetLestEqual",
		"CCParam": "2",
		"NextBehaviorID": 1
	},
	{
		"ID": 3031,
		"ChangeCondition": "BehaviorCondition_DistanceToMoveTargetLestEqual",
		"CCParam": "2",
		"NextBehaviorID": 3051
	},
	{
		"ID": 3032,
		"ChangeCondition": "BehaviorCondition_DistanceToMoveTargetLestEqual",
		"CCParam": "0",
		"NextBehaviorID": 3053
	},
	{
		"ID": 3033,
		"ChangeCondition": "BehaviorCondition_DistanceToMoveTargetLestEqual",
		"CCParam": "0",
		"NextBehaviorID": 3055
	},
	{
		"ID": 3034,
		"ChangeCondition": "BehaviorCondition_DistanceToMoveTargetLestEqual",
		"CCParam": "0",
		"NextBehaviorID": 3057
	},
	{
		"ID": 3035,
		"ChangeCondition": "BehaviorCondition_DistanceToMoveTargetLestEqual",
		"CCParam": "0",
		"NextBehaviorID": 3059
	},
	{
		"ID": 3036,
		"ChangeCondition": "BehaviorCondition_DistanceToMoveTargetLestEqual",
		"CCParam": "0",
		"NextBehaviorID": 3061
	},
	{
		"ID": 3037,
		"ChangeCondition": "BehaviorCondition_DistanceToMoveTargetLestEqual",
		"CCParam": "2",
		"NextBehaviorID": 1
	},
	{
		"ID": 3038,
		"ChangeCondition": "BehaviorCondition_AttackedByEnemy",
		"CCParam": "",
		"NextBehaviorID": 3066
	},
	{
		"ID": 3039,
		"ChangeCondition": "BehaviorCondition_TurnCountN",
		"CCParam": "1",
		"NextBehaviorID": 1
	},
	{
		"ID": 3040,
		"ChangeCondition": "BehaviorCondition_AttackedByEnemy",
		"CCParam": "",
		"NextBehaviorID": 1
	},
	{
		"ID": 3041,
		"ChangeCondition": "BehaviorCondition_TurnCountN",
		"CCParam": "1",
		"NextBehaviorID": 3076
	},
	{
		"ID": 3042,
		"ChangeCondition": "BehaviorCondition_TurnCountN",
		"CCParam": "1",
		"NextBehaviorID": 3077
	},
	{
		"ID": 3043,
		"ChangeCondition": "BehaviorCondition_TurnCountN",
		"CCParam": "1",
		"NextBehaviorID": 3078
	},
	{
		"ID": 3044,
		"ChangeCondition": "BehaviorCondition_TurnCountN",
		"CCParam": "1",
		"NextBehaviorID": 3075
	},
	{
		"ID": 4001,
		"ChangeCondition": "BehaviorCondition_DistanceToMoveTargetLestEqual",
		"CCParam": "0",
		"NextBehaviorID": 4001
	},
	{
		"ID": 4002,
		"ChangeCondition": "BehaviorCondition_DistanceToMoveTargetLestEqual",
		"CCParam": "0",
		"NextBehaviorID": 5
	},
	{
		"ID": 4003,
		"ChangeCondition": "BehaviorCondition_TurnCountN",
		"CCParam": "1",
		"NextBehaviorID": 13
	},
	{
		"ID": 4004,
		"ChangeCondition": "BehaviorCondition_EnemyEnterMoveAndAttackRange",
		"CCParam": "",
		"NextBehaviorID": 4005
	},
	{
		"ID": 4007,
		"ChangeCondition": "BehaviorCondition_EnemyEnterMoveAndAttackRange",
		"CCParam": "",
		"NextBehaviorID": 4005
	},
	{
		"ID": 4008,
		"ChangeCondition": "BehaviorCondition_EnemyEnterMoveAndAttackRange",
		"CCParam": "",
		"NextBehaviorID": 4005
	},
	{
		"ID": 4009,
		"ChangeCondition": "BehaviorCondition_AttackedByEnemy",
		"CCParam": "",
		"NextBehaviorID": 1
	},
	{
		"ID": 4010,
		"ChangeCondition": "BehaviorCondition_EnemyEnterMoveAndAttackRangeExcept",
		"CCParam": "55",
		"NextBehaviorID": 1
	},
	{
		"ID": 4011,
		"ChangeCondition": "BehaviorCondition_EnemyEnterMoveAndAttackRangeExcept",
		"CCParam": "2551",
		"NextBehaviorID": 1
	},
	{
		"ID": 4012,
		"ChangeCondition": "BehaviorCondition_EnemyEnterMoveAndAttackRangeExcept",
		"CCParam": "2609",
		"NextBehaviorID": 4013
	},
	{
		"ID": 4013,
		"ChangeCondition": "BehaviorCondition_NoEnemyEnterMoveAndAttackRangeExcept",
		"CCParam": "2609",
		"NextBehaviorID": 4009
	},
	{
		"ID": 4014,
		"ChangeCondition": "BehaviorCondition_TurnCountN",
		"CCParam": "1",
		"NextBehaviorID": 4006
	},
	{
		"ID": 4015,
		"ChangeCondition": "BehaviorCondition_AttackedByEnemy",
		"CCParam": "",
		"NextBehaviorID": 4016
	},
	{
		"ID": 4016,
		"ChangeCondition": "BehaviorCondition_EnemyEnterMoveAndAttackRangeExcept",
		"CCParam": "2764",
		"NextBehaviorID": 4016
	},
	{
		"ID": 4017,
		"ChangeCondition": "BehaviorCondition_TurnCountN",
		"CCParam": "1",
		"NextBehaviorID": 1
	},
	{
		"ID": 4018,
		"ChangeCondition": "BehaviorCondition_AttackedByEnemy",
		"CCParam": "",
		"NextBehaviorID": 4022
	},
	{
		"ID": 4019,
		"ChangeCondition": "BehaviorCondition_EnemyEnterMoveAndAttackRangeExcept",
		"CCParam": "2905",
		"NextBehaviorID": 4022
	},
	{
		"ID": 4020,
		"ChangeCondition": "BehaviorCondition_EnemyEnterMoveAndAttackRange",
		"CCParam": "",
		"NextBehaviorID": 1
	},
	{
		"ID": 4021,
		"ChangeCondition": "BehaviorCondition_DistanceToMoveTargetLestEqual",
		"CCParam": "1",
		"NextBehaviorID": 1
	},
	{
		"ID": 4022,
		"ChangeCondition": "BehaviorCondition_EnemyEnterMoveAndAttackRange",
		"CCParam": "",
		"NextBehaviorID": 4026
	},
	{
		"ID": 4023,
		"ChangeCondition": "BehaviorCondition_NoEnemyEnterMoveAndAttackRange",
		"CCParam": "",
		"NextBehaviorID": 4025
	},
	{
		"ID": 4024,
		"ChangeCondition": "BehaviorCondition_DistanceToMoveTargetLestEqual",
		"CCParam": "0",
		"NextBehaviorID": 4
	},
	{
		"ID": 4025,
		"ChangeCondition": "BehaviorCondition_AttackedByEnemy",
		"CCParam": "",
		"NextBehaviorID": 4109
	},
	{
		"ID": 4026,
		"ChangeCondition": "BehaviorCondition_EnemyEnterMoveAndAttackRange",
		"CCParam": "",
		"NextBehaviorID": 4109
	},
	{
		"ID": 4027,
		"ChangeCondition": "BehaviorCondition_AttackedByEnemy",
		"CCParam": "",
		"NextBehaviorID": 4111
	},
	{
		"ID": 4028,
		"ChangeCondition": "BehaviorCondition_EnemyEnterMoveAndAttackRange",
		"CCParam": "",
		"NextBehaviorID": 4111
	},
	{
		"ID": 4029,
		"ChangeCondition": "BehaviorCondition_FoundEnemyWithBuffN",
		"CCParam": "972027",
		"NextBehaviorID": 4112
	},
	{
		"ID": 4030,
		"ChangeCondition": "BehaviorCondition_NoEnemyWithBuffN",
		"CCParam": "972027",
		"NextBehaviorID": 4111
	},
	{
		"ID": 4031,
		"ChangeCondition": "BehaviorCondition_AttackedByEnemy",
		"CCParam": "",
		"NextBehaviorID": 4114
	},
	{
		"ID": 4032,
		"ChangeCondition": "BehaviorCondition_EnemyEnterMoveAndAttackRange",
		"CCParam": "",
		"NextBehaviorID": 4114
	},
	{
		"ID": 4033,
		"ChangeCondition": "BehaviorCondition_SelfHPPercentLessEqual",
		"CCParam": "0.5",
		"NextBehaviorID": 4115
	},
	{
		"ID": 4034,
		"ChangeCondition": "BehaviorCondition_SelfHPPercentGreaterEqual",
		"CCParam": "0.5",
		"NextBehaviorID": 4114
	},
	{
		"ID": 4035,
		"ChangeCondition": "BehaviorCondition_EnemyEnterMoveAndAttackRange",
		"CCParam": "",
		"NextBehaviorID": 4117
	},
	{
		"ID": 4036,
		"ChangeCondition": "BehaviorCondition_NoEnemyEnterMoveAndAttackRange",
		"CCParam": "",
		"NextBehaviorID": 4116
	},
	{
		"ID": 4037,
		"ChangeCondition": "BehaviorCondition_EnemyBlockWayToMoveTarget",
		"CCParam": "",
		"NextBehaviorID": 4119
	},
	{
		"ID": 4038,
		"ChangeCondition": "BehaviorCondition_HasWayToMoveTarget",
		"CCParam": "",
		"NextBehaviorID": 4118
	},
	{
		"ID": 4039,
		"ChangeCondition": "BehaviorCondition_AttackedByEnemy",
		"CCParam": "",
		"NextBehaviorID": 4121
	},
	{
		"ID": 4040,
		"ChangeCondition": "BehaviorCondition_EnemyEnterMoveAndAttackRangeExcept",
		"CCParam": "9454,2006,4504,7001",
		"NextBehaviorID": 4121
	},
	{
		"ID": 4041,
		"ChangeCondition": "BehaviorCondition_FoundEnemyWithBuffN",
		"CCParam": "47029",
		"NextBehaviorID": 4222
	},
	{
		"ID": 4042,
		"ChangeCondition": "BehaviorCondition_NoEnemyWithBuffN",
		"CCParam": "47029",
		"NextBehaviorID": 4221
	},
	{
		"ID": 4043,
		"ChangeCondition": "BehaviorCondition_FoundEnemyWithBuffN",
		"CCParam": "47030",
		"NextBehaviorID": 4224
	},
	{
		"ID": 4044,
		"ChangeCondition": "BehaviorCondition_NoEnemyWithBuffN",
		"CCParam": "47030",
		"NextBehaviorID": 4223
	},
	{
		"ID": 5004,
		"ChangeCondition": "BehaviorCondition_AttackedByEnemy",
		"CCParam": "",
		"NextBehaviorID": 5006
	},
	{
		"ID": 5005,
		"ChangeCondition": "BehaviorCondition_AttackedByEnemy",
		"CCParam": "",
		"NextBehaviorID": 5007
	},
	{
		"ID": 107721,
		"ChangeCondition": "BehaviorCondition_DistanceToMoveTargetLestEqual",
		"CCParam": "0",
		"NextBehaviorID": 5
	},
	{
		"ID": 107811,
		"ChangeCondition": "BehaviorCondition_TurnN",
		"CCParam": "2",
		"NextBehaviorID": 10782
	},
	{
		"ID": 107812,
		"ChangeCondition": "BehaviorCondition_TurnN",
		"CCParam": "3",
		"NextBehaviorID": 5
	},
	{
		"ID": 26271,
		"ChangeCondition": "BehaviorCondition_SelfHPPercentLessEqual",
		"CCParam": "0.999",
		"NextBehaviorID": 26272
	}
]