[
	{
		"ID": 1,
		"Name": "火龙20",
		"TeamName": "Lv.20",
		"PreLevel": 0,
		"TicketCost": 0,
		"EnergySuccess": 30,
		"EnergyFail": 6,
		"TeamEnergyCost": 24,
		"MonsterLevel": 20,
		"HardDesc": "Lv.20",
		"BattleID": 700,
		"PlayerExp": 30,
		"HeroExp": 120,
		"Gold": 1032,
		"DropID": 4012,
		"TeamDropID": 8001,
		"OperationalActivityDropID": 10028,
		"DayBonusDropID": 4001,
		"DayBonusExtraDropID": 0,
		"DisplayRewardCount": 2,
		"Strategy": ""
	},
	{
		"ID": 2,
		"Name": "火龙25",
		"TeamName": "Lv.25",
		"PreLevel": 1,
		"TicketCost": 0,
		"EnergySuccess": 30,
		"EnergyFail": 6,
		"TeamEnergyCost": 24,
		"MonsterLevel": 25,
		"HardDesc": "Lv.25",
		"BattleID": 701,
		"PlayerExp": 30,
		"HeroExp": 135,
		"Gold": 1299,
		"DropID": 4013,
		"TeamDropID": 8002,
		"OperationalActivityDropID": 10028,
		"DayBonusDropID": 4002,
		"DayBonusExtraDropID": 0,
		"DisplayRewardCount": 3,
		"Strategy": ""
	},
	{
		"ID": 3,
		"Name": "火龙30",
		"TeamName": "Lv.30",
		"PreLevel": 2,
		"TicketCost": 0,
		"EnergySuccess": 30,
		"EnergyFail": 6,
		"TeamEnergyCost": 24,
		"MonsterLevel": 30,
		"HardDesc": "Lv.30",
		"BattleID": 701,
		"PlayerExp": 30,
		"HeroExp": 150,
		"Gold": 1593,
		"DropID": 4014,
		"TeamDropID": 8003,
		"OperationalActivityDropID": 10028,
		"DayBonusDropID": 4003,
		"DayBonusExtraDropID": 0,
		"DisplayRewardCount": 3,
		"Strategy": ""
	},
	{
		"ID": 4,
		"Name": "火龙35",
		"TeamName": "Lv.35",
		"PreLevel": 3,
		"TicketCost": 0,
		"EnergySuccess": 30,
		"EnergyFail": 6,
		"TeamEnergyCost": 24,
		"MonsterLevel": 35,
		"HardDesc": "Lv.35",
		"BattleID": 702,
		"PlayerExp": 30,
		"HeroExp": 165,
		"Gold": 1914,
		"DropID": 4015,
		"TeamDropID": 8004,
		"OperationalActivityDropID": 10028,
		"DayBonusDropID": 4004,
		"DayBonusExtraDropID": 0,
		"DisplayRewardCount": 3,
		"Strategy": ""
	},
	{
		"ID": 5,
		"Name": "火龙40",
		"TeamName": "Lv.40",
		"PreLevel": 4,
		"TicketCost": 0,
		"EnergySuccess": 30,
		"EnergyFail": 6,
		"TeamEnergyCost": 24,
		"MonsterLevel": 40,
		"HardDesc": "Lv.40",
		"BattleID": 703,
		"PlayerExp": 30,
		"HeroExp": 180,
		"Gold": 2256,
		"DropID": 4016,
		"TeamDropID": 8005,
		"OperationalActivityDropID": 10028,
		"DayBonusDropID": 4005,
		"DayBonusExtraDropID": 0,
		"DisplayRewardCount": 3,
		"Strategy": ""
	},
	{
		"ID": 6,
		"Name": "火龙45",
		"TeamName": "Lv.45",
		"PreLevel": 5,
		"TicketCost": 0,
		"EnergySuccess": 30,
		"EnergyFail": 6,
		"TeamEnergyCost": 24,
		"MonsterLevel": 45,
		"HardDesc": "Lv.45",
		"BattleID": 704,
		"PlayerExp": 30,
		"HeroExp": 195,
		"Gold": 2625,
		"DropID": 4017,
		"TeamDropID": 8006,
		"OperationalActivityDropID": 10028,
		"DayBonusDropID": 4006,
		"DayBonusExtraDropID": 0,
		"DisplayRewardCount": 3,
		"Strategy": ""
	},
	{
		"ID": 7,
		"Name": "火龙50",
		"TeamName": "Lv.50",
		"PreLevel": 6,
		"TicketCost": 0,
		"EnergySuccess": 30,
		"EnergyFail": 6,
		"TeamEnergyCost": 24,
		"MonsterLevel": 50,
		"HardDesc": "Lv.50",
		"BattleID": 705,
		"PlayerExp": 30,
		"HeroExp": 210,
		"Gold": 3012,
		"DropID": 4018,
		"TeamDropID": 8007,
		"OperationalActivityDropID": 10028,
		"DayBonusDropID": 4007,
		"DayBonusExtraDropID": 0,
		"DisplayRewardCount": 3,
		"Strategy": ""
	},
	{
		"ID": 8,
		"Name": "火龙55",
		"TeamName": "Lv.55",
		"PreLevel": 7,
		"TicketCost": 0,
		"EnergySuccess": 30,
		"EnergyFail": 6,
		"TeamEnergyCost": 24,
		"MonsterLevel": 55,
		"HardDesc": "Lv.55",
		"BattleID": 706,
		"PlayerExp": 30,
		"HeroExp": 225,
		"Gold": 3420,
		"DropID": 4019,
		"TeamDropID": 8008,
		"OperationalActivityDropID": 10028,
		"DayBonusDropID": 4008,
		"DayBonusExtraDropID": 0,
		"DisplayRewardCount": 3,
		"Strategy": ""
	},
	{
		"ID": 9,
		"Name": "火龙60",
		"TeamName": "Lv.60",
		"PreLevel": 8,
		"TicketCost": 0,
		"EnergySuccess": 30,
		"EnergyFail": 6,
		"TeamEnergyCost": 24,
		"MonsterLevel": 60,
		"HardDesc": "Lv.60",
		"BattleID": 707,
		"PlayerExp": 30,
		"HeroExp": 240,
		"Gold": 3846,
		"DropID": 4020,
		"TeamDropID": 8009,
		"OperationalActivityDropID": 10028,
		"DayBonusDropID": 4009,
		"DayBonusExtraDropID": 0,
		"DisplayRewardCount": 3,
		"Strategy": ""
	},
	{
		"ID": 10,
		"Name": "火龙65",
		"TeamName": "Lv.65",
		"PreLevel": 9,
		"TicketCost": 0,
		"EnergySuccess": 30,
		"EnergyFail": 6,
		"TeamEnergyCost": 24,
		"MonsterLevel": 65,
		"HardDesc": "Lv.65",
		"BattleID": 708,
		"PlayerExp": 30,
		"HeroExp": 240,
		"Gold": 3846,
		"DropID": 4021,
		"TeamDropID": 8010,
		"OperationalActivityDropID": 10028,
		"DayBonusDropID": 4010,
		"DayBonusExtraDropID": 0,
		"DisplayRewardCount": 3,
		"Strategy": ""
	},
	{
		"ID": 100,
		"Name": "火龙70",
		"TeamName": "Lv.70",
		"PreLevel": 10,
		"TicketCost": 0,
		"EnergySuccess": 30,
		"EnergyFail": 6,
		"TeamEnergyCost": 24,
		"MonsterLevel": 70,
		"HardDesc": "Nightmare",
		"BattleID": 709,
		"PlayerExp": 30,
		"HeroExp": 240,
		"Gold": 3846,
		"DropID": 4022,
		"TeamDropID": 8010,
		"OperationalActivityDropID": 10028,
		"DayBonusDropID": 4011,
		"DayBonusExtraDropID": 0,
		"DisplayRewardCount": 3,
		"Strategy": ""
	},
	{
		"ID": 11,
		"Name": "冰龙20",
		"TeamName": "Lv.20",
		"PreLevel": 0,
		"TicketCost": 0,
		"EnergySuccess": 30,
		"EnergyFail": 6,
		"TeamEnergyCost": 24,
		"MonsterLevel": 20,
		"HardDesc": "Lv.20",
		"BattleID": 710,
		"PlayerExp": 30,
		"HeroExp": 120,
		"Gold": 1032,
		"DropID": 4034,
		"TeamDropID": 8011,
		"OperationalActivityDropID": 10028,
		"DayBonusDropID": 4023,
		"DayBonusExtraDropID": 0,
		"DisplayRewardCount": 2,
		"Strategy": ""
	},
	{
		"ID": 12,
		"Name": "冰龙25",
		"TeamName": "Lv.25",
		"PreLevel": 11,
		"TicketCost": 0,
		"EnergySuccess": 30,
		"EnergyFail": 6,
		"TeamEnergyCost": 24,
		"MonsterLevel": 25,
		"HardDesc": "Lv.25",
		"BattleID": 711,
		"PlayerExp": 30,
		"HeroExp": 135,
		"Gold": 1299,
		"DropID": 4035,
		"TeamDropID": 8012,
		"OperationalActivityDropID": 10028,
		"DayBonusDropID": 4024,
		"DayBonusExtraDropID": 0,
		"DisplayRewardCount": 3,
		"Strategy": ""
	},
	{
		"ID": 13,
		"Name": "冰龙30",
		"TeamName": "Lv.30",
		"PreLevel": 12,
		"TicketCost": 0,
		"EnergySuccess": 30,
		"EnergyFail": 6,
		"TeamEnergyCost": 24,
		"MonsterLevel": 30,
		"HardDesc": "Lv.30",
		"BattleID": 711,
		"PlayerExp": 30,
		"HeroExp": 150,
		"Gold": 1593,
		"DropID": 4036,
		"TeamDropID": 8013,
		"OperationalActivityDropID": 10028,
		"DayBonusDropID": 4025,
		"DayBonusExtraDropID": 0,
		"DisplayRewardCount": 3,
		"Strategy": ""
	},
	{
		"ID": 14,
		"Name": "冰龙35",
		"TeamName": "Lv.35",
		"PreLevel": 13,
		"TicketCost": 0,
		"EnergySuccess": 30,
		"EnergyFail": 6,
		"TeamEnergyCost": 24,
		"MonsterLevel": 35,
		"HardDesc": "Lv.35",
		"BattleID": 712,
		"PlayerExp": 30,
		"HeroExp": 165,
		"Gold": 1914,
		"DropID": 4037,
		"TeamDropID": 8014,
		"OperationalActivityDropID": 10028,
		"DayBonusDropID": 4026,
		"DayBonusExtraDropID": 0,
		"DisplayRewardCount": 3,
		"Strategy": ""
	},
	{
		"ID": 15,
		"Name": "冰龙40",
		"TeamName": "Lv.40",
		"PreLevel": 14,
		"TicketCost": 0,
		"EnergySuccess": 30,
		"EnergyFail": 6,
		"TeamEnergyCost": 24,
		"MonsterLevel": 40,
		"HardDesc": "Lv.40",
		"BattleID": 713,
		"PlayerExp": 30,
		"HeroExp": 180,
		"Gold": 2256,
		"DropID": 4038,
		"TeamDropID": 8015,
		"OperationalActivityDropID": 10028,
		"DayBonusDropID": 4027,
		"DayBonusExtraDropID": 0,
		"DisplayRewardCount": 3,
		"Strategy": ""
	},
	{
		"ID": 16,
		"Name": "冰龙45",
		"TeamName": "Lv.45",
		"PreLevel": 15,
		"TicketCost": 0,
		"EnergySuccess": 30,
		"EnergyFail": 6,
		"TeamEnergyCost": 24,
		"MonsterLevel": 45,
		"HardDesc": "Lv.45",
		"BattleID": 714,
		"PlayerExp": 30,
		"HeroExp": 195,
		"Gold": 2625,
		"DropID": 4039,
		"TeamDropID": 8016,
		"OperationalActivityDropID": 10028,
		"DayBonusDropID": 4028,
		"DayBonusExtraDropID": 0,
		"DisplayRewardCount": 3,
		"Strategy": ""
	},
	{
		"ID": 17,
		"Name": "冰龙50",
		"TeamName": "Lv.50",
		"PreLevel": 16,
		"TicketCost": 0,
		"EnergySuccess": 30,
		"EnergyFail": 6,
		"TeamEnergyCost": 24,
		"MonsterLevel": 50,
		"HardDesc": "Lv.50",
		"BattleID": 715,
		"PlayerExp": 30,
		"HeroExp": 210,
		"Gold": 3012,
		"DropID": 4040,
		"TeamDropID": 8017,
		"OperationalActivityDropID": 10028,
		"DayBonusDropID": 4029,
		"DayBonusExtraDropID": 0,
		"DisplayRewardCount": 3,
		"Strategy": ""
	},
	{
		"ID": 18,
		"Name": "冰龙55",
		"TeamName": "Lv.55",
		"PreLevel": 17,
		"TicketCost": 0,
		"EnergySuccess": 30,
		"EnergyFail": 6,
		"TeamEnergyCost": 24,
		"MonsterLevel": 55,
		"HardDesc": "Lv.55",
		"BattleID": 716,
		"PlayerExp": 30,
		"HeroExp": 225,
		"Gold": 3420,
		"DropID": 4041,
		"TeamDropID": 8018,
		"OperationalActivityDropID": 10028,
		"DayBonusDropID": 4030,
		"DayBonusExtraDropID": 0,
		"DisplayRewardCount": 3,
		"Strategy": ""
	},
	{
		"ID": 19,
		"Name": "冰龙60",
		"TeamName": "Lv.60",
		"PreLevel": 18,
		"TicketCost": 0,
		"EnergySuccess": 30,
		"EnergyFail": 6,
		"TeamEnergyCost": 24,
		"MonsterLevel": 60,
		"HardDesc": "Lv.60",
		"BattleID": 717,
		"PlayerExp": 30,
		"HeroExp": 240,
		"Gold": 3846,
		"DropID": 4042,
		"TeamDropID": 8019,
		"OperationalActivityDropID": 10028,
		"DayBonusDropID": 4031,
		"DayBonusExtraDropID": 0,
		"DisplayRewardCount": 3,
		"Strategy": ""
	},
	{
		"ID": 20,
		"Name": "冰龙65",
		"TeamName": "Lv.65",
		"PreLevel": 19,
		"TicketCost": 0,
		"EnergySuccess": 30,
		"EnergyFail": 6,
		"TeamEnergyCost": 24,
		"MonsterLevel": 65,
		"HardDesc": "Lv.65",
		"BattleID": 718,
		"PlayerExp": 30,
		"HeroExp": 240,
		"Gold": 3846,
		"DropID": 4043,
		"TeamDropID": 8020,
		"OperationalActivityDropID": 10028,
		"DayBonusDropID": 4032,
		"DayBonusExtraDropID": 0,
		"DisplayRewardCount": 3,
		"Strategy": ""
	},
	{
		"ID": 200,
		"Name": "冰龙70",
		"TeamName": "Lv.70",
		"PreLevel": 20,
		"TicketCost": 0,
		"EnergySuccess": 30,
		"EnergyFail": 6,
		"TeamEnergyCost": 24,
		"MonsterLevel": 70,
		"HardDesc": "Nightmare",
		"BattleID": 719,
		"PlayerExp": 30,
		"HeroExp": 240,
		"Gold": 3846,
		"DropID": 4044,
		"TeamDropID": 8020,
		"OperationalActivityDropID": 10028,
		"DayBonusDropID": 4033,
		"DayBonusExtraDropID": 0,
		"DisplayRewardCount": 3,
		"Strategy": ""
	},
	{
		"ID": 21,
		"Name": "雷龙20",
		"TeamName": "Lv.20",
		"PreLevel": 0,
		"TicketCost": 0,
		"EnergySuccess": 30,
		"EnergyFail": 6,
		"TeamEnergyCost": 24,
		"MonsterLevel": 20,
		"HardDesc": "Lv.20",
		"BattleID": 720,
		"PlayerExp": 30,
		"HeroExp": 120,
		"Gold": 1032,
		"DropID": 4056,
		"TeamDropID": 8021,
		"OperationalActivityDropID": 10028,
		"DayBonusDropID": 4045,
		"DayBonusExtraDropID": 0,
		"DisplayRewardCount": 2,
		"Strategy": ""
	},
	{
		"ID": 22,
		"Name": "雷龙25",
		"TeamName": "Lv.25",
		"PreLevel": 21,
		"TicketCost": 0,
		"EnergySuccess": 30,
		"EnergyFail": 6,
		"TeamEnergyCost": 24,
		"MonsterLevel": 25,
		"HardDesc": "Lv.25",
		"BattleID": 721,
		"PlayerExp": 30,
		"HeroExp": 135,
		"Gold": 1299,
		"DropID": 4057,
		"TeamDropID": 8022,
		"OperationalActivityDropID": 10028,
		"DayBonusDropID": 4046,
		"DayBonusExtraDropID": 0,
		"DisplayRewardCount": 3,
		"Strategy": ""
	},
	{
		"ID": 23,
		"Name": "雷龙30",
		"TeamName": "Lv.30",
		"PreLevel": 22,
		"TicketCost": 0,
		"EnergySuccess": 30,
		"EnergyFail": 6,
		"TeamEnergyCost": 24,
		"MonsterLevel": 30,
		"HardDesc": "Lv.30",
		"BattleID": 721,
		"PlayerExp": 30,
		"HeroExp": 150,
		"Gold": 1593,
		"DropID": 4058,
		"TeamDropID": 8023,
		"OperationalActivityDropID": 10028,
		"DayBonusDropID": 4047,
		"DayBonusExtraDropID": 0,
		"DisplayRewardCount": 3,
		"Strategy": ""
	},
	{
		"ID": 24,
		"Name": "雷龙35",
		"TeamName": "Lv.35",
		"PreLevel": 23,
		"TicketCost": 0,
		"EnergySuccess": 30,
		"EnergyFail": 6,
		"TeamEnergyCost": 24,
		"MonsterLevel": 35,
		"HardDesc": "Lv.35",
		"BattleID": 722,
		"PlayerExp": 30,
		"HeroExp": 165,
		"Gold": 1914,
		"DropID": 4059,
		"TeamDropID": 8024,
		"OperationalActivityDropID": 10028,
		"DayBonusDropID": 4048,
		"DayBonusExtraDropID": 0,
		"DisplayRewardCount": 3,
		"Strategy": ""
	},
	{
		"ID": 25,
		"Name": "雷龙40",
		"TeamName": "Lv.40",
		"PreLevel": 24,
		"TicketCost": 0,
		"EnergySuccess": 30,
		"EnergyFail": 6,
		"TeamEnergyCost": 24,
		"MonsterLevel": 40,
		"HardDesc": "Lv.40",
		"BattleID": 723,
		"PlayerExp": 30,
		"HeroExp": 180,
		"Gold": 2256,
		"DropID": 4060,
		"TeamDropID": 8025,
		"OperationalActivityDropID": 10028,
		"DayBonusDropID": 4049,
		"DayBonusExtraDropID": 0,
		"DisplayRewardCount": 3,
		"Strategy": ""
	},
	{
		"ID": 26,
		"Name": "雷龙45",
		"TeamName": "Lv.45",
		"PreLevel": 25,
		"TicketCost": 0,
		"EnergySuccess": 30,
		"EnergyFail": 6,
		"TeamEnergyCost": 24,
		"MonsterLevel": 45,
		"HardDesc": "Lv.45",
		"BattleID": 724,
		"PlayerExp": 30,
		"HeroExp": 195,
		"Gold": 2625,
		"DropID": 4061,
		"TeamDropID": 8026,
		"OperationalActivityDropID": 10028,
		"DayBonusDropID": 4050,
		"DayBonusExtraDropID": 0,
		"DisplayRewardCount": 3,
		"Strategy": ""
	},
	{
		"ID": 27,
		"Name": "雷龙50",
		"TeamName": "Lv.50",
		"PreLevel": 26,
		"TicketCost": 0,
		"EnergySuccess": 30,
		"EnergyFail": 6,
		"TeamEnergyCost": 24,
		"MonsterLevel": 50,
		"HardDesc": "Lv.50",
		"BattleID": 725,
		"PlayerExp": 30,
		"HeroExp": 210,
		"Gold": 3012,
		"DropID": 4062,
		"TeamDropID": 8027,
		"OperationalActivityDropID": 10028,
		"DayBonusDropID": 4051,
		"DayBonusExtraDropID": 0,
		"DisplayRewardCount": 3,
		"Strategy": ""
	},
	{
		"ID": 28,
		"Name": "雷龙55",
		"TeamName": "Lv.55",
		"PreLevel": 27,
		"TicketCost": 0,
		"EnergySuccess": 30,
		"EnergyFail": 6,
		"TeamEnergyCost": 24,
		"MonsterLevel": 55,
		"HardDesc": "Lv.55",
		"BattleID": 726,
		"PlayerExp": 30,
		"HeroExp": 225,
		"Gold": 3420,
		"DropID": 4063,
		"TeamDropID": 8028,
		"OperationalActivityDropID": 10028,
		"DayBonusDropID": 4052,
		"DayBonusExtraDropID": 0,
		"DisplayRewardCount": 3,
		"Strategy": ""
	},
	{
		"ID": 29,
		"Name": "雷龙60",
		"TeamName": "Lv.60",
		"PreLevel": 28,
		"TicketCost": 0,
		"EnergySuccess": 30,
		"EnergyFail": 6,
		"TeamEnergyCost": 24,
		"MonsterLevel": 60,
		"HardDesc": "Lv.60",
		"BattleID": 727,
		"PlayerExp": 30,
		"HeroExp": 240,
		"Gold": 3846,
		"DropID": 4064,
		"TeamDropID": 8029,
		"OperationalActivityDropID": 10028,
		"DayBonusDropID": 4053,
		"DayBonusExtraDropID": 0,
		"DisplayRewardCount": 3,
		"Strategy": ""
	},
	{
		"ID": 30,
		"Name": "雷龙65",
		"TeamName": "Lv.65",
		"PreLevel": 29,
		"TicketCost": 0,
		"EnergySuccess": 30,
		"EnergyFail": 6,
		"TeamEnergyCost": 24,
		"MonsterLevel": 65,
		"HardDesc": "Lv.65",
		"BattleID": 728,
		"PlayerExp": 30,
		"HeroExp": 240,
		"Gold": 3846,
		"DropID": 4065,
		"TeamDropID": 8030,
		"OperationalActivityDropID": 10028,
		"DayBonusDropID": 4054,
		"DayBonusExtraDropID": 0,
		"DisplayRewardCount": 3,
		"Strategy": ""
	},
	{
		"ID": 300,
		"Name": "雷龙70",
		"TeamName": "Lv.70",
		"PreLevel": 30,
		"TicketCost": 0,
		"EnergySuccess": 30,
		"EnergyFail": 6,
		"TeamEnergyCost": 24,
		"MonsterLevel": 70,
		"HardDesc": "Nightmare",
		"BattleID": 729,
		"PlayerExp": 30,
		"HeroExp": 240,
		"Gold": 3846,
		"DropID": 4066,
		"TeamDropID": 8030,
		"OperationalActivityDropID": 10028,
		"DayBonusDropID": 4055,
		"DayBonusExtraDropID": 0,
		"DisplayRewardCount": 3,
		"Strategy": ""
	},
	{
		"ID": 31,
		"Name": "黑龙20",
		"TeamName": "Lv.20",
		"PreLevel": 0,
		"TicketCost": 0,
		"EnergySuccess": 30,
		"EnergyFail": 6,
		"TeamEnergyCost": 24,
		"MonsterLevel": 20,
		"HardDesc": "Lv.20",
		"BattleID": 730,
		"PlayerExp": 30,
		"HeroExp": 120,
		"Gold": 1032,
		"DropID": 4078,
		"TeamDropID": 8031,
		"OperationalActivityDropID": 10028,
		"DayBonusDropID": 4067,
		"DayBonusExtraDropID": 0,
		"DisplayRewardCount": 2,
		"Strategy": ""
	},
	{
		"ID": 32,
		"Name": "黑龙25",
		"TeamName": "Lv.25",
		"PreLevel": 31,
		"TicketCost": 0,
		"EnergySuccess": 30,
		"EnergyFail": 6,
		"TeamEnergyCost": 24,
		"MonsterLevel": 25,
		"HardDesc": "Lv.25",
		"BattleID": 731,
		"PlayerExp": 30,
		"HeroExp": 135,
		"Gold": 1299,
		"DropID": 4079,
		"TeamDropID": 8032,
		"OperationalActivityDropID": 10028,
		"DayBonusDropID": 4068,
		"DayBonusExtraDropID": 0,
		"DisplayRewardCount": 3,
		"Strategy": ""
	},
	{
		"ID": 33,
		"Name": "黑龙30",
		"TeamName": "Lv.30",
		"PreLevel": 32,
		"TicketCost": 0,
		"EnergySuccess": 30,
		"EnergyFail": 6,
		"TeamEnergyCost": 24,
		"MonsterLevel": 30,
		"HardDesc": "Lv.30",
		"BattleID": 731,
		"PlayerExp": 30,
		"HeroExp": 150,
		"Gold": 1593,
		"DropID": 4080,
		"TeamDropID": 8033,
		"OperationalActivityDropID": 10028,
		"DayBonusDropID": 4069,
		"DayBonusExtraDropID": 0,
		"DisplayRewardCount": 3,
		"Strategy": ""
	},
	{
		"ID": 34,
		"Name": "黑龙35",
		"TeamName": "Lv.35",
		"PreLevel": 33,
		"TicketCost": 0,
		"EnergySuccess": 30,
		"EnergyFail": 6,
		"TeamEnergyCost": 24,
		"MonsterLevel": 35,
		"HardDesc": "Lv.35",
		"BattleID": 732,
		"PlayerExp": 30,
		"HeroExp": 165,
		"Gold": 1914,
		"DropID": 4081,
		"TeamDropID": 8034,
		"OperationalActivityDropID": 10028,
		"DayBonusDropID": 4070,
		"DayBonusExtraDropID": 0,
		"DisplayRewardCount": 3,
		"Strategy": ""
	},
	{
		"ID": 35,
		"Name": "黑龙40",
		"TeamName": "Lv.40",
		"PreLevel": 34,
		"TicketCost": 0,
		"EnergySuccess": 30,
		"EnergyFail": 6,
		"TeamEnergyCost": 24,
		"MonsterLevel": 40,
		"HardDesc": "Lv.40",
		"BattleID": 733,
		"PlayerExp": 30,
		"HeroExp": 180,
		"Gold": 2256,
		"DropID": 4082,
		"TeamDropID": 8035,
		"OperationalActivityDropID": 10028,
		"DayBonusDropID": 4071,
		"DayBonusExtraDropID": 0,
		"DisplayRewardCount": 3,
		"Strategy": ""
	},
	{
		"ID": 36,
		"Name": "黑龙45",
		"TeamName": "Lv.45",
		"PreLevel": 35,
		"TicketCost": 0,
		"EnergySuccess": 30,
		"EnergyFail": 6,
		"TeamEnergyCost": 24,
		"MonsterLevel": 45,
		"HardDesc": "Lv.45",
		"BattleID": 734,
		"PlayerExp": 30,
		"HeroExp": 195,
		"Gold": 2625,
		"DropID": 4083,
		"TeamDropID": 8036,
		"OperationalActivityDropID": 10028,
		"DayBonusDropID": 4072,
		"DayBonusExtraDropID": 0,
		"DisplayRewardCount": 3,
		"Strategy": ""
	},
	{
		"ID": 37,
		"Name": "黑龙50",
		"TeamName": "Lv.50",
		"PreLevel": 36,
		"TicketCost": 0,
		"EnergySuccess": 30,
		"EnergyFail": 6,
		"TeamEnergyCost": 24,
		"MonsterLevel": 50,
		"HardDesc": "Lv.50",
		"BattleID": 735,
		"PlayerExp": 30,
		"HeroExp": 210,
		"Gold": 3012,
		"DropID": 4084,
		"TeamDropID": 8037,
		"OperationalActivityDropID": 10028,
		"DayBonusDropID": 4073,
		"DayBonusExtraDropID": 0,
		"DisplayRewardCount": 3,
		"Strategy": ""
	},
	{
		"ID": 38,
		"Name": "黑龙55",
		"TeamName": "Lv.55",
		"PreLevel": 37,
		"TicketCost": 0,
		"EnergySuccess": 30,
		"EnergyFail": 6,
		"TeamEnergyCost": 24,
		"MonsterLevel": 55,
		"HardDesc": "Lv.55",
		"BattleID": 736,
		"PlayerExp": 30,
		"HeroExp": 225,
		"Gold": 3420,
		"DropID": 4085,
		"TeamDropID": 8038,
		"OperationalActivityDropID": 10028,
		"DayBonusDropID": 4074,
		"DayBonusExtraDropID": 0,
		"DisplayRewardCount": 3,
		"Strategy": ""
	},
	{
		"ID": 39,
		"Name": "黑龙60",
		"TeamName": "Lv.60",
		"PreLevel": 38,
		"TicketCost": 0,
		"EnergySuccess": 30,
		"EnergyFail": 6,
		"TeamEnergyCost": 24,
		"MonsterLevel": 60,
		"HardDesc": "Lv.60",
		"BattleID": 737,
		"PlayerExp": 30,
		"HeroExp": 240,
		"Gold": 3846,
		"DropID": 4086,
		"TeamDropID": 8039,
		"OperationalActivityDropID": 10028,
		"DayBonusDropID": 4075,
		"DayBonusExtraDropID": 0,
		"DisplayRewardCount": 3,
		"Strategy": ""
	},
	{
		"ID": 40,
		"Name": "黑龙65",
		"TeamName": "Lv.65",
		"PreLevel": 39,
		"TicketCost": 0,
		"EnergySuccess": 30,
		"EnergyFail": 6,
		"TeamEnergyCost": 24,
		"MonsterLevel": 65,
		"HardDesc": "Lv.65",
		"BattleID": 738,
		"PlayerExp": 30,
		"HeroExp": 240,
		"Gold": 3846,
		"DropID": 4087,
		"TeamDropID": 8040,
		"OperationalActivityDropID": 10028,
		"DayBonusDropID": 4076,
		"DayBonusExtraDropID": 0,
		"DisplayRewardCount": 3,
		"Strategy": ""
	},
	{
		"ID": 400,
		"Name": "黑龙70",
		"TeamName": "Lv.70",
		"PreLevel": 40,
		"TicketCost": 0,
		"EnergySuccess": 30,
		"EnergyFail": 6,
		"TeamEnergyCost": 24,
		"MonsterLevel": 70,
		"HardDesc": "Nightmare",
		"BattleID": 739,
		"PlayerExp": 30,
		"HeroExp": 240,
		"Gold": 3846,
		"DropID": 4088,
		"TeamDropID": 8040,
		"OperationalActivityDropID": 10028,
		"DayBonusDropID": 4077,
		"DayBonusExtraDropID": 0,
		"DisplayRewardCount": 3,
		"Strategy": ""
	}
]