[
	{
		"ID": 1,
		"Reward": [
			{
				"GoodsType": "GoodsType_EnchantStone",
				"Id": 3,
				"Count": 2
			},
			{
				"GoodsType": "GoodsType_EnchantStone",
				"Id": 6,
				"Count": 2
			},
			{
				"GoodsType": "GoodsType_EnchantStone",
				"Id": 9,
				"Count": 2
			},
			{
				"GoodsType": "GoodsType_EnchantStone",
				"Id": 11,
				"Count": 2
			}
		]
	},
	{
		"ID": 2,
		"Reward": [
			{
				"GoodsType": "GoodsType_EnchantStone",
				"Id": 3,
				"Count": 2
			},
			{
				"GoodsType": "GoodsType_EnchantStone",
				"Id": 6,
				"Count": 2
			},
			{
				"GoodsType": "GoodsType_EnchantStone",
				"Id": 9,
				"Count": 2
			},
			{
				"GoodsType": "GoodsType_EnchantStone",
				"Id": 11,
				"Count": 2
			}
		]
	},
	{
		"ID": 3,
		"Reward": [
			{
				"GoodsType": "GoodsType_EnchantStone",
				"Id": 3,
				"Count": 2
			},
			{
				"GoodsType": "GoodsType_EnchantStone",
				"Id": 6,
				"Count": 2
			},
			{
				"GoodsType": "GoodsType_EnchantStone",
				"Id": 9,
				"Count": 2
			},
			{
				"GoodsType": "GoodsType_EnchantStone",
				"Id": 11,
				"Count": 2
			}
		]
	},
	{
		"ID": 4,
		"Reward": [
			{
				"GoodsType": "GoodsType_EnchantStone",
				"Id": 3,
				"Count": 2
			},
			{
				"GoodsType": "GoodsType_EnchantStone",
				"Id": 6,
				"Count": 2
			},
			{
				"GoodsType": "GoodsType_EnchantStone",
				"Id": 9,
				"Count": 2
			},
			{
				"GoodsType": "GoodsType_EnchantStone",
				"Id": 11,
				"Count": 2
			}
		]
	},
	{
		"ID": 5,
		"Reward": [
			{
				"GoodsType": "GoodsType_EnchantStone",
				"Id": 3,
				"Count": 2
			},
			{
				"GoodsType": "GoodsType_EnchantStone",
				"Id": 6,
				"Count": 2
			},
			{
				"GoodsType": "GoodsType_EnchantStone",
				"Id": 9,
				"Count": 2
			},
			{
				"GoodsType": "GoodsType_EnchantStone",
				"Id": 11,
				"Count": 2
			}
		]
	},
	{
		"ID": 6,
		"Reward": [
			{
				"GoodsType": "GoodsType_EnchantStone",
				"Id": 3,
				"Count": 2
			},
			{
				"GoodsType": "GoodsType_EnchantStone",
				"Id": 6,
				"Count": 2
			},
			{
				"GoodsType": "GoodsType_EnchantStone",
				"Id": 9,
				"Count": 2
			},
			{
				"GoodsType": "GoodsType_EnchantStone",
				"Id": 11,
				"Count": 2
			}
		]
	},
	{
		"ID": 201,
		"Reward": [
			{
				"GoodsType": "GoodsType_EnchantStone",
				"Id": 14,
				"Count": 5
			},
			{
				"GoodsType": "GoodsType_EnchantStone",
				"Id": 15,
				"Count": 5
			},
			{
				"GoodsType": "GoodsType_EnchantStone",
				"Id": 16,
				"Count": 5
			},
			{
				"GoodsType": "GoodsType_EnchantStone",
				"Id": 17,
				"Count": 5
			},
			{
				"GoodsType": "GoodsType_EnchantStone",
				"Id": 18,
				"Count": 5
			},
			{
				"GoodsType": "GoodsType_EnchantStone",
				"Id": 19,
				"Count": 5
			},
			{
				"GoodsType": "GoodsType_EnchantStone",
				"Id": 20,
				"Count": 5
			},
			{
				"GoodsType": "GoodsType_EnchantStone",
				"Id": 21,
				"Count": 5
			},
			{
				"GoodsType": "GoodsType_EnchantStone",
				"Id": 22,
				"Count": 5
			},
			{
				"GoodsType": "GoodsType_EnchantStone",
				"Id": 23,
				"Count": 5
			},
			{
				"GoodsType": "GoodsType_EnchantStone",
				"Id": 24,
				"Count": 5
			},
			{
				"GoodsType": "GoodsType_EnchantStone",
				"Id": 25,
				"Count": 5
			},
			{
				"GoodsType": "GoodsType_EnchantStone",
				"Id": 26,
				"Count": 5
			}
		]
	},
	{
		"ID": 202,
		"Reward": [
			{
				"GoodsType": "GoodsType_EnchantStone",
				"Id": 27,
				"Count": 5
			},
			{
				"GoodsType": "GoodsType_EnchantStone",
				"Id": 28,
				"Count": 5
			},
			{
				"GoodsType": "GoodsType_EnchantStone",
				"Id": 29,
				"Count": 5
			},
			{
				"GoodsType": "GoodsType_EnchantStone",
				"Id": 30,
				"Count": 5
			},
			{
				"GoodsType": "GoodsType_EnchantStone",
				"Id": 31,
				"Count": 5
			},
			{
				"GoodsType": "GoodsType_EnchantStone",
				"Id": 32,
				"Count": 5
			},
			{
				"GoodsType": "GoodsType_EnchantStone",
				"Id": 33,
				"Count": 5
			},
			{
				"GoodsType": "GoodsType_EnchantStone",
				"Id": 34,
				"Count": 5
			},
			{
				"GoodsType": "GoodsType_EnchantStone",
				"Id": 35,
				"Count": 5
			},
			{
				"GoodsType": "GoodsType_EnchantStone",
				"Id": 36,
				"Count": 5
			},
			{
				"GoodsType": "GoodsType_EnchantStone",
				"Id": 37,
				"Count": 5
			},
			{
				"GoodsType": "GoodsType_EnchantStone",
				"Id": 38,
				"Count": 5
			},
			{
				"GoodsType": "GoodsType_EnchantStone",
				"Id": 39,
				"Count": 5
			}
		]
	},
	{
		"ID": 203,
		"Reward": [
			{
				"GoodsType": "GoodsType_JobMaterial",
				"Id": 1,
				"Count": 10
			},
			{
				"GoodsType": "GoodsType_JobMaterial",
				"Id": 2,
				"Count": 10
			},
			{
				"GoodsType": "GoodsType_JobMaterial",
				"Id": 3,
				"Count": 10
			},
			{
				"GoodsType": "GoodsType_JobMaterial",
				"Id": 4,
				"Count": 10
			},
			{
				"GoodsType": "GoodsType_JobMaterial",
				"Id": 5,
				"Count": 10
			},
			{
				"GoodsType": "GoodsType_JobMaterial",
				"Id": 6,
				"Count": 10
			},
			{
				"GoodsType": "GoodsType_JobMaterial",
				"Id": 7,
				"Count": 10
			},
			{
				"GoodsType": "GoodsType_JobMaterial",
				"Id": 8,
				"Count": 10
			},
			{
				"GoodsType": "GoodsType_JobMaterial",
				"Id": 9,
				"Count": 10
			},
			{
				"GoodsType": "GoodsType_JobMaterial",
				"Id": 10,
				"Count": 10
			},
			{
				"GoodsType": "GoodsType_JobMaterial",
				"Id": 11,
				"Count": 10
			},
			{
				"GoodsType": "GoodsType_JobMaterial",
				"Id": 41,
				"Count": 10
			},
			{
				"GoodsType": "GoodsType_JobMaterial",
				"Id": 42,
				"Count": 10
			},
			{
				"GoodsType": "GoodsType_JobMaterial",
				"Id": 43,
				"Count": 10
			},
			{
				"GoodsType": "GoodsType_JobMaterial",
				"Id": 44,
				"Count": 10
			},
			{
				"GoodsType": "GoodsType_JobMaterial",
				"Id": 45,
				"Count": 10
			},
			{
				"GoodsType": "GoodsType_JobMaterial",
				"Id": 46,
				"Count": 10
			}
		]
	},
	{
		"ID": 204,
		"Reward": [
			{
				"GoodsType": "GoodsType_JobMaterial",
				"Id": 48,
				"Count": 10
			},
			{
				"GoodsType": "GoodsType_JobMaterial",
				"Id": 49,
				"Count": 10
			},
			{
				"GoodsType": "GoodsType_JobMaterial",
				"Id": 50,
				"Count": 10
			},
			{
				"GoodsType": "GoodsType_JobMaterial",
				"Id": 51,
				"Count": 10
			},
			{
				"GoodsType": "GoodsType_JobMaterial",
				"Id": 52,
				"Count": 10
			},
			{
				"GoodsType": "GoodsType_JobMaterial",
				"Id": 53,
				"Count": 10
			}
		]
	},
	{
		"ID": 205,
		"Reward": [
			{
				"GoodsType": "GoodsType_JobMaterial",
				"Id": 12,
				"Count": 10
			},
			{
				"GoodsType": "GoodsType_JobMaterial",
				"Id": 13,
				"Count": 10
			},
			{
				"GoodsType": "GoodsType_JobMaterial",
				"Id": 14,
				"Count": 10
			},
			{
				"GoodsType": "GoodsType_JobMaterial",
				"Id": 15,
				"Count": 10
			},
			{
				"GoodsType": "GoodsType_JobMaterial",
				"Id": 16,
				"Count": 10
			},
			{
				"GoodsType": "GoodsType_JobMaterial",
				"Id": 47,
				"Count": 10
			}
		]
	},
	{
		"ID": 206,
		"Reward": [
			{
				"GoodsType": "GoodsType_JobMaterial",
				"Id": 17,
				"Count": 10
			},
			{
				"GoodsType": "GoodsType_JobMaterial",
				"Id": 18,
				"Count": 10
			},
			{
				"GoodsType": "GoodsType_JobMaterial",
				"Id": 19,
				"Count": 10
			},
			{
				"GoodsType": "GoodsType_JobMaterial",
				"Id": 20,
				"Count": 10
			},
			{
				"GoodsType": "GoodsType_JobMaterial",
				"Id": 21,
				"Count": 10
			},
			{
				"GoodsType": "GoodsType_JobMaterial",
				"Id": 22,
				"Count": 10
			},
			{
				"GoodsType": "GoodsType_JobMaterial",
				"Id": 23,
				"Count": 10
			},
			{
				"GoodsType": "GoodsType_JobMaterial",
				"Id": 24,
				"Count": 10
			}
		]
	},
	{
		"ID": 207,
		"Reward": [
			{
				"GoodsType": "GoodsType_JobMaterial",
				"Id": 25,
				"Count": 10
			},
			{
				"GoodsType": "GoodsType_JobMaterial",
				"Id": 26,
				"Count": 10
			},
			{
				"GoodsType": "GoodsType_JobMaterial",
				"Id": 27,
				"Count": 10
			},
			{
				"GoodsType": "GoodsType_JobMaterial",
				"Id": 28,
				"Count": 10
			},
			{
				"GoodsType": "GoodsType_JobMaterial",
				"Id": 29,
				"Count": 10
			},
			{
				"GoodsType": "GoodsType_JobMaterial",
				"Id": 30,
				"Count": 10
			},
			{
				"GoodsType": "GoodsType_JobMaterial",
				"Id": 31,
				"Count": 10
			}
		]
	},
	{
		"ID": 208,
		"Reward": [
			{
				"GoodsType": "GoodsType_JobMaterial",
				"Id": 32,
				"Count": 10
			},
			{
				"GoodsType": "GoodsType_JobMaterial",
				"Id": 33,
				"Count": 10
			},
			{
				"GoodsType": "GoodsType_JobMaterial",
				"Id": 34,
				"Count": 10
			},
			{
				"GoodsType": "GoodsType_JobMaterial",
				"Id": 35,
				"Count": 10
			},
			{
				"GoodsType": "GoodsType_JobMaterial",
				"Id": 36,
				"Count": 10
			},
			{
				"GoodsType": "GoodsType_JobMaterial",
				"Id": 37,
				"Count": 10
			},
			{
				"GoodsType": "GoodsType_JobMaterial",
				"Id": 38,
				"Count": 10
			},
			{
				"GoodsType": "GoodsType_JobMaterial",
				"Id": 39,
				"Count": 10
			},
			{
				"GoodsType": "GoodsType_JobMaterial",
				"Id": 40,
				"Count": 10
			}
		]
	},
	{
		"ID": 209,
		"Reward": [
			{
				"GoodsType": "GoodsType_Item",
				"Id": 5008,
				"Count": 10
			},
			{
				"GoodsType": "GoodsType_Item",
				"Id": 5012,
				"Count": 10
			},
			{
				"GoodsType": "GoodsType_Item",
				"Id": 5016,
				"Count": 10
			},
			{
				"GoodsType": "GoodsType_Item",
				"Id": 5020,
				"Count": 10
			}
		]
	},
	{
		"ID": 210,
		"Reward": [
			{
				"GoodsType": "GoodsType_Item",
				"Id": 5009,
				"Count": 10
			},
			{
				"GoodsType": "GoodsType_Item",
				"Id": 5013,
				"Count": 10
			},
			{
				"GoodsType": "GoodsType_Item",
				"Id": 5017,
				"Count": 10
			},
			{
				"GoodsType": "GoodsType_Item",
				"Id": 5021,
				"Count": 10
			}
		]
	},
	{
		"ID": 211,
		"Reward": [
			{
				"GoodsType": "GoodsType_Item",
				"Id": 5010,
				"Count": 10
			},
			{
				"GoodsType": "GoodsType_Item",
				"Id": 5014,
				"Count": 10
			},
			{
				"GoodsType": "GoodsType_Item",
				"Id": 5018,
				"Count": 10
			},
			{
				"GoodsType": "GoodsType_Item",
				"Id": 5022,
				"Count": 10
			}
		]
	},
	{
		"ID": 212,
		"Reward": [
			{
				"GoodsType": "GoodsType_Item",
				"Id": 5011,
				"Count": 8
			},
			{
				"GoodsType": "GoodsType_Item",
				"Id": 5015,
				"Count": 8
			},
			{
				"GoodsType": "GoodsType_Item",
				"Id": 5019,
				"Count": 8
			},
			{
				"GoodsType": "GoodsType_Item",
				"Id": 5023,
				"Count": 8
			}
		]
	},
	{
		"ID": 213,
		"Reward": [
			{
				"GoodsType": "GoodsType_Item",
				"Id": 6037,
				"Count": 5
			},
			{
				"GoodsType": "GoodsType_Item",
				"Id": 6038,
				"Count": 5
			},
			{
				"GoodsType": "GoodsType_Item",
				"Id": 6039,
				"Count": 5
			},
			{
				"GoodsType": "GoodsType_Item",
				"Id": 6040,
				"Count": 5
			},
			{
				"GoodsType": "GoodsType_Item",
				"Id": 6041,
				"Count": 5
			},
			{
				"GoodsType": "GoodsType_Item",
				"Id": 6042,
				"Count": 5
			}
		]
	},
	{
		"ID": 214,
		"Reward": [
			{
				"GoodsType": "GoodsType_Item",
				"Id": 6043,
				"Count": 10
			},
			{
				"GoodsType": "GoodsType_Item",
				"Id": 6044,
				"Count": 10
			},
			{
				"GoodsType": "GoodsType_Item",
				"Id": 6045,
				"Count": 10
			},
			{
				"GoodsType": "GoodsType_Item",
				"Id": 6046,
				"Count": 10
			},
			{
				"GoodsType": "GoodsType_Item",
				"Id": 6047,
				"Count": 10
			},
			{
				"GoodsType": "GoodsType_Item",
				"Id": 6048,
				"Count": 10
			}
		]
	},
	{
		"ID": 215,
		"Reward": [
			{
				"GoodsType": "GoodsType_Item",
				"Id": 3204,
				"Count": 6
			},
			{
				"GoodsType": "GoodsType_Item",
				"Id": 3205,
				"Count": 6
			},
			{
				"GoodsType": "GoodsType_Item",
				"Id": 3206,
				"Count": 6
			},
			{
				"GoodsType": "GoodsType_Item",
				"Id": 3207,
				"Count": 6
			},
			{
				"GoodsType": "GoodsType_Item",
				"Id": 3208,
				"Count": 6
			},
			{
				"GoodsType": "GoodsType_Item",
				"Id": 3209,
				"Count": 6
			}
		]
	},
	{
		"ID": 216,
		"Reward": [
			{
				"GoodsType": "GoodsType_Item",
				"Id": 3216,
				"Count": 6
			},
			{
				"GoodsType": "GoodsType_Item",
				"Id": 3217,
				"Count": 6
			},
			{
				"GoodsType": "GoodsType_Item",
				"Id": 3218,
				"Count": 6
			},
			{
				"GoodsType": "GoodsType_Item",
				"Id": 3219,
				"Count": 6
			},
			{
				"GoodsType": "GoodsType_Item",
				"Id": 3220,
				"Count": 6
			},
			{
				"GoodsType": "GoodsType_Item",
				"Id": 3221,
				"Count": 6
			}
		]
	},
	{
		"ID": 217,
		"Reward": [
			{
				"GoodsType": "GoodsType_Item",
				"Id": 3222,
				"Count": 6
			},
			{
				"GoodsType": "GoodsType_Item",
				"Id": 3223,
				"Count": 6
			},
			{
				"GoodsType": "GoodsType_Item",
				"Id": 3224,
				"Count": 6
			},
			{
				"GoodsType": "GoodsType_Item",
				"Id": 3225,
				"Count": 6
			},
			{
				"GoodsType": "GoodsType_Item",
				"Id": 3226,
				"Count": 6
			},
			{
				"GoodsType": "GoodsType_Item",
				"Id": 3227,
				"Count": 6
			}
		]
	},
	{
		"ID": 218,
		"Reward": [
			{
				"GoodsType": "GoodsType_Item",
				"Id": 3210,
				"Count": 5
			},
			{
				"GoodsType": "GoodsType_Item",
				"Id": 3211,
				"Count": 5
			},
			{
				"GoodsType": "GoodsType_Item",
				"Id": 3212,
				"Count": 5
			},
			{
				"GoodsType": "GoodsType_Item",
				"Id": 3213,
				"Count": 5
			},
			{
				"GoodsType": "GoodsType_Item",
				"Id": 3214,
				"Count": 5
			},
			{
				"GoodsType": "GoodsType_Item",
				"Id": 3215,
				"Count": 5
			}
		]
	},
	{
		"ID": 219,
		"Reward": [
			{
				"GoodsType": "GoodsType_Item",
				"Id": 7012,
				"Count": 1
			},
			{
				"GoodsType": "GoodsType_Item",
				"Id": 7013,
				"Count": 1
			},
			{
				"GoodsType": "GoodsType_Item",
				"Id": 7014,
				"Count": 1
			},
			{
				"GoodsType": "GoodsType_Item",
				"Id": 7015,
				"Count": 1
			},
			{
				"GoodsType": "GoodsType_Item",
				"Id": 7016,
				"Count": 1
			}
		]
	},
	{
		"ID": 220,
		"Reward": [
			{
				"GoodsType": "GoodsType_Item",
				"Id": 6025,
				"Count": 10
			},
			{
				"GoodsType": "GoodsType_Item",
				"Id": 6026,
				"Count": 10
			},
			{
				"GoodsType": "GoodsType_Item",
				"Id": 6027,
				"Count": 10
			},
			{
				"GoodsType": "GoodsType_Item",
				"Id": 6028,
				"Count": 10
			},
			{
				"GoodsType": "GoodsType_Item",
				"Id": 6029,
				"Count": 10
			},
			{
				"GoodsType": "GoodsType_Item",
				"Id": 6030,
				"Count": 10
			}
		]
	},
	{
		"ID": 221,
		"Reward": [
			{
				"GoodsType": "GoodsType_Item",
				"Id": 6031,
				"Count": 10
			},
			{
				"GoodsType": "GoodsType_Item",
				"Id": 6032,
				"Count": 10
			},
			{
				"GoodsType": "GoodsType_Item",
				"Id": 6033,
				"Count": 10
			},
			{
				"GoodsType": "GoodsType_Item",
				"Id": 6034,
				"Count": 10
			},
			{
				"GoodsType": "GoodsType_Item",
				"Id": 6035,
				"Count": 10
			},
			{
				"GoodsType": "GoodsType_Item",
				"Id": 6036,
				"Count": 10
			}
		]
	},
	{
		"ID": 222,
		"Reward": [
			{
				"GoodsType": "GoodsType_Item",
				"Id": 3210,
				"Count": 6
			},
			{
				"GoodsType": "GoodsType_Item",
				"Id": 3211,
				"Count": 6
			},
			{
				"GoodsType": "GoodsType_Item",
				"Id": 3212,
				"Count": 6
			},
			{
				"GoodsType": "GoodsType_Item",
				"Id": 3213,
				"Count": 6
			},
			{
				"GoodsType": "GoodsType_Item",
				"Id": 3214,
				"Count": 6
			},
			{
				"GoodsType": "GoodsType_Item",
				"Id": 3215,
				"Count": 6
			}
		]
	},
	{
		"ID": 223,
		"Reward": [
			{
				"GoodsType": "GoodsType_Item",
				"Id": 3234,
				"Count": 12
			},
			{
				"GoodsType": "GoodsType_Item",
				"Id": 3235,
				"Count": 12
			},
			{
				"GoodsType": "GoodsType_Item",
				"Id": 3236,
				"Count": 12
			},
			{
				"GoodsType": "GoodsType_Item",
				"Id": 3237,
				"Count": 12
			}
		]
	},
	{
		"ID": 224,
		"Reward": [
			{
				"GoodsType": "GoodsType_Item",
				"Id": 3238,
				"Count": 6
			},
			{
				"GoodsType": "GoodsType_Item",
				"Id": 3239,
				"Count": 6
			},
			{
				"GoodsType": "GoodsType_Item",
				"Id": 3240,
				"Count": 6
			},
			{
				"GoodsType": "GoodsType_Item",
				"Id": 3241,
				"Count": 6
			}
		]
	},
	{
		"ID": 225,
		"Reward": [
			{
				"GoodsType": "GoodsType_Item",
				"Id": 6002,
				"Count": 10
			},
			{
				"GoodsType": "GoodsType_Item",
				"Id": 6005,
				"Count": 10
			},
			{
				"GoodsType": "GoodsType_Item",
				"Id": 6008,
				"Count": 10
			},
			{
				"GoodsType": "GoodsType_Item",
				"Id": 6011,
				"Count": 10
			},
			{
				"GoodsType": "GoodsType_Item",
				"Id": 6014,
				"Count": 10
			},
			{
				"GoodsType": "GoodsType_Item",
				"Id": 6017,
				"Count": 10
			}
		]
	},
	{
		"ID": 226,
		"Reward": [
			{
				"GoodsType": "GoodsType_Item",
				"Id": 6003,
				"Count": 10
			},
			{
				"GoodsType": "GoodsType_Item",
				"Id": 6006,
				"Count": 10
			},
			{
				"GoodsType": "GoodsType_Item",
				"Id": 6009,
				"Count": 10
			},
			{
				"GoodsType": "GoodsType_Item",
				"Id": 6012,
				"Count": 10
			},
			{
				"GoodsType": "GoodsType_Item",
				"Id": 6015,
				"Count": 10
			},
			{
				"GoodsType": "GoodsType_Item",
				"Id": 6018,
				"Count": 10
			}
		]
	},
	{
		"ID": 69003,
		"Reward": [
			{
				"GoodsType": "GoodsType_Item",
				"Id": 68000,
				"Count": 1
			},
			{
				"GoodsType": "GoodsType_Item",
				"Id": 68001,
				"Count": 1
			}
		]
	},
	{
		"ID": 69004,
		"Reward": [
			{
				"GoodsType": "GoodsType_Item",
				"Id": 68002,
				"Count": 1
			},
			{
				"GoodsType": "GoodsType_Item",
				"Id": 68003,
				"Count": 1
			}
		]
	},
	{
		"ID": 69005,
		"Reward": [
			{
				"GoodsType": "GoodsType_Item",
				"Id": 68004,
				"Count": 1
			},
			{
				"GoodsType": "GoodsType_Item",
				"Id": 68005,
				"Count": 1
			}
		]
	},
	{
		"ID": 69006,
		"Reward": [
			{
				"GoodsType": "GoodsType_Item",
				"Id": 68006,
				"Count": 1
			},
			{
				"GoodsType": "GoodsType_Item",
				"Id": 68007,
				"Count": 1
			}
		]
	},
	{
		"ID": 69007,
		"Reward": [
			{
				"GoodsType": "GoodsType_Item",
				"Id": 68008,
				"Count": 1
			},
			{
				"GoodsType": "GoodsType_Item",
				"Id": 68009,
				"Count": 1
			}
		]
	},
	{
		"ID": 69008,
		"Reward": [
			{
				"GoodsType": "GoodsType_Item",
				"Id": 68010,
				"Count": 1
			},
			{
				"GoodsType": "GoodsType_Item",
				"Id": 68011,
				"Count": 1
			}
		]
	},
	{
		"ID": 69009,
		"Reward": [
			{
				"GoodsType": "GoodsType_Item",
				"Id": 68012,
				"Count": 1
			},
			{
				"GoodsType": "GoodsType_Item",
				"Id": 68013,
				"Count": 1
			}
		]
	}
]