v 0.15680399537086487 0.47645196318626404 0.4016229808330536
v 0.2953450083732605 0.44582998752593994 0.3395040035247803
v -0.10116100311279297 0.31481099128723145 0.5222560167312622
v 0.10352800041437149 0.31349897384643555 0.5827980041503906
v 0.24859897792339325 0.3211682140827179 0.5285100936889648
v 0.2743299901485443 0.6654080152511597 0.1978829950094223
v -0.03371099755167961 0.687358021736145 0.19764098525047302
v -0.15373298525810242 0.6372729539871216 0.2583869993686676
v 0.38381800055503845 0.4461749792098999 0.22385798394680023
v 0.08097900450229645 0.23987600207328796 0.6290990114212036
v -0.16732899844646454 0.20991499722003937 0.5919069647789001
v -0.4308589696884155 0.28816500306129456 0.4800889790058136
v -0.38144198060035706 0.16471299529075623 0.5935319662094116
v 0.39282000064849854 0.28166401386260986 0.4451179802417755
v 0.5125420093536377 0.29401999711990356 0.22061799466609955
v 0.40776148438453674 0.10831902176141739 0.5489476323127747
v 0.29616397619247437 0.6854049563407898 0.10117299854755402
v -0.09570099413394928 0.6961579918861389 0.10414600372314453
v 0.42440399527549744 0.5286089777946472 0.17619800567626953
v 0.5279899835586548 0.5853430032730103 -0.053724996745586395
v 0.42388099431991577 0.6496729850769043 -0.1263439953327179
v 0.5979610085487366 0.5142940282821655 0.018592000007629395
v 0.5007419586181641 0.4564349949359894 0.1648629903793335
v -0.44818297028541565 0.10728799551725388 0.5218899846076965
v -0.3715599775314331 0.004088999703526497 0.6242799758911133
v -0.40045297145843506 -0.20696599781513214 0.6124950051307678
v 0.5214959979057312 0.07214900106191635 0.3706679940223694
v 0.6214919686317444 0.013105999678373337 0.16381599009037018
v 0.6733579635620117 0.25324299931526184 -0.15127599239349365
v 0.7494400143623352 0.015296000055968761 -0.036031000316143036
v -0.5106340050697327 0.10367799550294876 0.4255419969558716
v -0.5247189998626709 0.24028998613357544 0.3887139856815338
v -0.4779280126094818 0.3039200007915497 0.4255559742450714
v -0.5484909415245056 0.3854059875011444 0.23718500137329102
v -0.4930519759654999 0.46228498220443726 0.20002099871635437
v -0.3931010067462921 0.3614040017127991 0.44933101534843445
v -0.5718719959259033 0.24754099547863007 0.34192797541618347
v -0.5413389801979065 0.4622059762477875 -0.010399999096989632
v -0.4832559823989868 0.4916439652442932 -0.02645600028336048
v -0.7569684386253357 0.24281443655490875 -0.02898663841187954
v -0.6883809566497803 0.12729500234127045 0.3069300055503845
v -0.6110529899597168 0.021925000473856926 0.35849398374557495
v -0.4975079894065857 -0.29465699195861816 0.32418400049209595
v -0.6349889039993286 -0.20089340209960938 0.3089355528354645
v -0.6326053142547607 -0.3620343804359436 0.1569625288248062
v -0.4813169836997986 -0.4564549922943115 0.233722984790802
v -0.46595001220703125 -0.39333799481391907 0.3937720060348511
v -0.3584370017051697 -0.48502498865127563 0.41664499044418335
v -0.40613698959350586 -0.6084079742431641 0.14564499258995056
v -0.48968300223350525 -0.5199769735336304 0.1213969960808754
v -0.412788987159729 -0.617808997631073 -0.08919799327850342
v -0.5325589776039124 -0.5164549946784973 -0.018779000267386436
v -0.5779139995574951 -0.4654320180416107 -0.078405000269413
v -0.47044798731803894 -0.5485559701919556 -0.15795399248600006
v -0.3365209996700287 -0.6387630105018616 -0.18155500292778015
v -0.6245194673538208 -0.42385947704315186 0.05937955901026726
v -0.28895899653434753 -0.30294397473335266 0.6424800157546997
v -0.21336299180984497 -0.47045397758483887 0.42057597637176514
v 0.02444099821150303 -0.2774820029735565 0.638221025466919
v -0.1062370017170906 -0.5435150265693665 0.42208197712898254
v 0.09804317355155945 -0.33940643072128296 0.6220441460609436
v 0.2940579950809479 -0.4624429941177368 0.40141600370407104
v -0.14168499410152435 -0.6671549677848816 0.22190900146961212
v 0.31329700350761414 -0.49778997898101807 0.12325900048017502
v 0.5603989958763123 -0.35728099942207336 0.10590999573469162
v 0.23784266412258148 -0.28654253482818604 0.6112089157104492
v -0.2485319972038269 -0.6003779768943787 0.16467399895191193
v -0.27230697870254517 -0.6148300170898438 -0.0016729999333620071
v -0.19248300790786743 -0.6961579918861389 -0.05616199970245361
v 0.13775500655174255 -0.6735469698905945 -0.12850399315357208
v 0.399728000164032 -0.5773620009422302 0.0809749960899353
v 0.4476979672908783 -0.5682070255279541 -0.10884899646043777
v -0.3819969892501831 0.428536981344223 0.41902998089790344
v -0.3598479628562927 0.5513079762458801 0.20347298681735992
v -0.19119299948215485 0.6280979514122009 0.20433299243450165
v -0.44179999828338623 0.49506697058677673 0.2855429947376251
v -0.204818993806839 0.5532419681549072 0.3799610137939453
v -0.04874800145626068 0.43846097588539124 0.49000999331474304
v -0.32110998034477234 0.5997160077095032 0.05002699792385101
v -0.39011600613594055 0.6232050061225891 -0.08284899592399597
v -0.44220399856567383 0.5319229960441589 0.17287901043891907
v -0.47044798731803894 -0.5485559701919556 -0.15795399248600006
v -0.3365209996700287 -0.6387630105018616 -0.18155500292778015
v -0.3219359815120697 -0.5898119807243347 -0.3986859917640686
v -0.591060996055603 -0.17552998661994934 -0.23158100247383118
v 0.14480599761009216 -0.6151359677314758 -0.3653469681739807
v 0.13775500655174255 -0.6735469698905945 -0.12850399315357208
v -0.4577839970588684 -0.17697599530220032 -0.4750960171222687
v -0.6059010028839111 -0.02930700033903122 -0.2684740126132965
v -0.6868026852607727 -0.16064725816249847 -0.12938621640205383
v -0.654570996761322 0.05255599692463875 -0.16358600556850433
v -0.7452545166015625 -0.017451925203204155 -0.049132339656353
v -0.6165980100631714 0.3029319941997528 -0.21143600344657898
v -0.6163719892501831 0.12291499972343445 -0.25473999977111816
v -0.685401976108551 0.35112497210502625 -0.13791699707508087
v -0.7569684386253357 0.24281443655490875 -0.02898663841187954
v -0.6282249689102173 0.4125249683856964 -0.11684700101613998
v -0.5640649795532227 0.43613201379776 -0.1071930006146431
v -0.5723809599876404 0.4157879948616028 -0.25481298565864563
v -0.5061519742012024 0.05898899957537651 -0.46589598059654236
v -0.498602956533432 0.3209569752216339 -0.46904298663139343
v -0.3388359844684601 0.473361998796463 -0.4973919987678528
v -0.3959849774837494 0.6043189764022827 -0.30433300137519836
v -0.4832559823989868 0.4916439652442932 -0.02645600028336048
v -0.39011600613594055 0.6232050061225891 -0.08284899592399597
v -0.09570099413394928 0.6961579918861389 0.10414600372314453
v 0.07193499803543091 0.6766649484634399 -0.32689300179481506
v -0.5413389801979065 0.4622059762477875 -0.010399999096989632
v 0.29616397619247437 0.6854049563407898 0.10117299854755402
v 0.42388099431991577 0.6496729850769043 -0.1263439953327179
v 0.4724859893321991 0.5524229407310486 -0.3424670100212097
v 0.5279899835586548 0.5853430032730103 -0.053724996745586395
v 0.5976380109786987 0.39885199069976807 -0.3300379812717438
v 0.5979610085487366 0.5142940282821655 0.018592000007629395
v 0.6733579635620117 0.25324299931526184 -0.15127599239349365
v 0.6876129508018494 0.23397599160671234 -0.3281719982624054
v 0.7165889739990234 -0.03382299840450287 -0.3362620174884796
v 0.7494400143623352 0.015296000055968761 -0.036031000316143036
v 0.4476979672908783 -0.5682070255279541 -0.10884899646043777
v 0.4218389689922333 -0.4946729838848114 -0.38746100664138794
v 0.06856299936771393 0.5153399705886841 -0.5025230050086975
v 0.06452599912881851 0.3082509934902191 -0.6423580050468445
v -0.3147839903831482 0.15515398979187012 -0.6420839428901672
v 0.375262975692749 0.3942750096321106 -0.5097150206565857
v 0.5573260188102722 -0.05789399892091751 -0.5144019722938538
v 0.3236609995365143 -0.37345001101493835 -0.5009599924087524
v 0.5283470153808594 0.22246401011943817 -0.5122519731521606
v 0.051371000707149506 -0.10478299856185913 -0.6424800157546997
v -0.2870180010795593 -0.148514986038208 -0.6424800157546997
v -0.27180400490760803 -0.47088998556137085 -0.5106329917907715
v 0.040307000279426575 -0.5052480101585388 -0.5034489631652832
v -0.6868026852607727 -0.16064725816249847 -0.12938621640205383
v -0.7452545166015625 -0.017451925203204155 -0.049132339656353
v -0.591060996055603 -0.17552998661994934 -0.23158100247383118
vn 0.3380016088485718 0.4518572688102722 0.825578510761261
vn 0.5065439939498901 0.5866338014602661 0.6318812370300293
vn -0.01049361377954483 0.4776482582092285 0.8784884810447693
vn 0.040516000241041183 0.6612829566001892 0.7490416765213013
vn 0.3599493205547333 0.6307488679885864 0.6874535083770752
vn 0.3899858593940735 0.697097897529602 0.601635754108429
vn -0.11041692644357681 0.951191246509552 0.2881724238395691
vn -0.18528395891189575 0.870917022228241 0.45516297221183777
vn 0.5022210478782654 0.39939889311790466 0.7669775485992432
vn 0.04985985904932022 0.27404677867889404 0.9604229927062988
vn -0.10100755095481873 0.32582393288612366 0.9400192499160767
vn -0.49681898951530457 0.43650686740875244 0.7500884532928467
vn -0.4786022901535034 0.30438998341560364 0.8235815167427063
vn 0.6962507367134094 0.49820631742477417 0.5167449116706848
vn 0.7046680450439453 0.42480722069740295 0.5683148503303528
vn 0.5975493788719177 0.2006838470697403 0.7763122320175171
vn 0.2912406325340271 0.9398723840713501 0.17837828397750854
vn -0.17238116264343262 0.9793857336044312 0.10530124604701996
vn 0.537179172039032 0.5927845239639282 0.6000374555587769
vn 0.7066773176193237 0.6960939168930054 0.12672995030879974
vn 0.42770490050315857 0.9002529978752136 -0.0813203975558281
vn 0.8322765827178955 0.4345577359199524 0.3442023694515228
vn 0.5523303747177124 0.4071779251098633 0.7274182438850403
vn -0.7997587323188782 0.10824105143547058 0.5904826521873474
vn -0.34268245100975037 0.107045978307724 0.9333326816558838
vn -0.6558538675308228 -0.13720235228538513 0.7423147559165955
vn 0.865336537361145 -0.07117103785276413 0.496112197637558
vn 0.8765096664428711 0.06837188452482224 0.47650405764579773
vn 0.9526289105415344 0.29918304085731506 0.05465925484895706
vn 0.9728056788444519 -0.16911236941814423 0.15827196836471558
vn -0.6984332203865051 0.007813551463186741 0.7156325578689575
vn -0.7268253564834595 0.30007410049438477 0.6178029179573059
vn -0.6742435097694397 0.43557456135749817 0.5963812470436096
vn -0.7509778738021851 0.5688939690589905 0.33524900674819946
vn -0.778610110282898 0.5531118512153625 0.296367347240448
vn -0.5478734374046326 0.4739104211330414 0.6893792152404785
vn -0.7071952819824219 0.42380011081695557 0.5659224987030029
vn -0.6415356993675232 0.7615817189216614 0.0917893499135971
vn -0.7272727489471436 0.6863299012184143 0.005065640434622765
vn -0.9050876498222351 0.41449296474456787 0.09493109583854675
vn -0.8541046977043152 0.08736979961395264 0.5127101540565491
vn -0.5136712789535522 -0.05582660809159279 0.8561689853668213
vn -0.7611469030380249 -0.27830901741981506 0.5858322381973267
vn -0.6819362640380859 -0.2725100815296173 0.6787497997283936
vn -0.875992476940155 -0.3793371021747589 0.2978934049606323
vn -0.7401426434516907 -0.5340915322303772 0.40857699513435364
vn -0.8357128500938416 -0.3714693486690521 0.4044683277606964
vn -0.3222091495990753 -0.7695156335830688 0.5513864159584045
vn -0.4653281569480896 -0.8380056619644165 0.2849844694137573
vn -0.668188214302063 -0.7061501741409302 0.23425711691379547
vn -0.5390743613243103 -0.8422242403030396 -0.0075617297552526
vn -0.6582959890365601 -0.751304566860199 0.04677397385239601
vn -0.7711708545684814 -0.5931611657142639 -0.23120413720607758
vn -0.7073305249214172 -0.5974264144897461 -0.37784290313720703
vn -0.37360742688179016 -0.9159830212593079 -0.14626188576221466
vn -0.8106170296669006 -0.5819830894470215 0.06477480381727219
vn -0.22051389515399933 -0.48079538345336914 0.8486515283584595
vn -0.20614320039749146 -0.7612860798835754 0.6147752404212952
vn -0.012434298172593117 -0.1830441951751709 0.9830260276794434
vn -0.09768465906381607 -0.7893863916397095 0.6060749292373657
vn 0.011776484549045563 -0.49444544315338135 0.8691288828849792
vn 0.5553962588310242 -0.6539264917373657 0.5137267112731934
vn -0.15074662864208221 -0.9484354257583618 0.2788291573524475
vn 0.35117384791374207 -0.7207466959953308 0.5976630449295044
vn 0.7599741816520691 -0.36559033393859863 0.5373852849006653
vn 0.378883421421051 -0.31852954626083374 0.8688994646072388
vn -0.3052120506763458 -0.9023018479347229 0.3044617474079132
vn -0.33201056718826294 -0.9281511902809143 0.16823916137218475
vn -0.14296163618564606 -0.9428243041038513 0.30107179284095764
vn 0.17916764318943024 -0.978059709072113 -0.10629281401634216
vn 0.3468433916568756 -0.8119764924049377 0.46946123242378235
vn 0.6439125537872314 -0.7614484429359436 -0.07465214282274246
vn -0.3847987949848175 0.6714754700660706 0.6332855224609375
vn -0.3075348138809204 0.8942806720733643 0.3250913619995117
vn -0.40552887320518494 0.8747361302375793 0.2652980387210846
vn -0.6211436986923218 0.6557021141052246 0.4292263686656952
vn -0.2139403522014618 0.7307565808296204 0.6482471227645874
vn 0.11288373172283173 0.4705541729927063 0.8751205801963806
vn -0.34514814615249634 0.9065141677856445 0.2431148737668991
vn -0.5271285772323608 0.843232274055481 0.10533172637224197
vn -0.5044509768486023 0.8348134160041809 0.220489963889122
vn -0.7073305249214172 -0.5974264144897461 -0.37784290313720703
vn -0.37360742688179016 -0.9159830212593079 -0.14626188576221466
vn -0.4612638056278229 -0.7204101085662842 -0.5179236531257629
vn -0.7794232964515686 -0.3218226134777069 -0.5375216007232666
vn 0.1404968947172165 -0.8524530529975891 -0.5035717487335205
vn 0.17916764318943024 -0.978059709072113 -0.10629281401634216
vn -0.7473312616348267 -0.2358074188232422 -0.62120121717453
vn -0.8643538951873779 -0.08078008890151978 -0.4963535666465759
vn -0.8719950914382935 -0.20251236855983734 -0.4456605315208435
vn -0.8710742592811584 0.027091875672340393 -0.4904036521911621
vn -0.9106683731079102 -0.07883281260728836 -0.40554726123809814
vn -0.7923793196678162 0.26330867409706116 -0.5502758622169495
vn -0.911839485168457 0.02193610742688179 -0.40996044874191284
vn -0.781161367893219 0.34711936116218567 -0.5189363956451416
vn -0.9050876498222351 0.41449296474456787 0.09493109583854675
vn -0.5206711888313293 0.8033877015113831 -0.28891119360923767
vn -0.520749032497406 0.814919650554657 -0.2544139325618744
vn -0.7968667149543762 0.5691097378730774 -0.2027745544910431
vn -0.8007667064666748 -0.009627299383282661 -0.5988990068435669
vn -0.7913071513175964 0.25214824080467224 -0.5570047497749329
vn -0.4004930257797241 0.5236572027206421 -0.751923143863678
vn -0.5539242029190063 0.7877828478813171 -0.2693808972835541
vn -0.7272727489471436 0.6863299012184143 0.005065640434622765
vn -0.5271285772323608 0.843232274055481 0.10533172637224197
vn -0.17238116264343262 0.9793857336044312 0.10530124604701996
vn 0.05503717064857483 0.9201101064682007 -0.38777339458465576
vn -0.6415356993675232 0.7615817189216614 0.0917893499135971
vn 0.2912406325340271 0.9398723840713501 0.17837828397750854
vn 0.42770490050315857 0.9002529978752136 -0.0813203975558281
vn 0.4641343057155609 0.7176927328109741 -0.5191305875778198
vn 0.7066773176193237 0.6960939168930054 0.12672995030879974
vn 0.7469170689582825 0.5070745944976807 -0.4301050305366516
vn 0.8322765827178955 0.4345577359199524 0.3442023694515228
vn 0.9526289105415344 0.29918304085731506 0.05465925484895706
vn 0.8756280541419983 0.2899985611438751 -0.3862336277961731
vn 0.8921400308609009 -0.16459156572818756 -0.42070862650871277
vn 0.9728056788444519 -0.16911236941814423 0.15827196836471558
vn 0.6439125537872314 -0.7614484429359436 -0.07465214282274246
vn 0.5730475783348083 -0.6558026671409607 -0.4914664626121521
vn 0.04309174790978432 0.6326468586921692 -0.7732406258583069
vn 0.08937793970108032 0.2810486853122711 -0.9555224776268005
vn -0.3713812232017517 0.15197749435901642 -0.9159578680992126
vn 0.32260289788246155 0.455046683549881 -0.8299758434295654
vn 0.49118632078170776 -0.13673199713230133 -0.860256016254425
vn 0.37411370873451233 -0.4379013478755951 -0.8174847960472107
vn 0.5886212587356567 0.25350111722946167 -0.7676341533660889
vn 0.12784694135189056 -0.14476986229419708 -0.9811711311340332
vn -0.35006844997406006 -0.20293064415454865 -0.9144786596298218
vn -0.3923324942588806 -0.48586562275886536 -0.7810313105583191
vn 0.11807946115732193 -0.509009063243866 -0.8526235818862915
vn -0.8719950914382935 -0.20251236855983734 -0.4456605315208435
vn -0.9106683731079102 -0.07883281260728836 -0.40554726123809814
vn -0.7794232964515686 -0.3218226134777069 -0.5375216007232666
vt 0.6984193325042725 0.20374363660812378
vt 0.7452243566513062 0.20610249042510986
vt 0.5964908003807068 0.256011426448822
vt 0.6585666537284851 0.2722752094268799
vt 0.7046981453895569 0.26803284883499146
vt 0.7496938705444336 0.08505463600158691
vt 0.5758816599845886 0.05885887145996094
vt 0.5157922506332397 0.09386938810348511
vt 0.7971198558807373 0.19331485033035278
vt 0.6491311192512512 0.2901530861854553
vt 0.5839515328407288 0.2936292886734009
vt 0.4972936809062958 0.2769930362701416
vt 0.5301938652992249 0.3126245141029358
vt 0.7468384504318237 0.27624815702438354
vt 0.8291508555412292 0.26110172271728516
vt 0.7312530875205994 0.3220127820968628
vt 0.7813526391983032 0.03787708282470703
vt 0.5314353704452515 0.006714999675750732
vt 0.8205845355987549 0.15420717000961304
vt 0.9433704614639282 0.10429811477661133
vt 0.9360455274581909 0.020371735095977783
vt 0.9341831207275391 0.17705094814300537
vt 0.850504994392395 0.19480466842651367
vt 0.5071016550064087 0.32739853858947754
vt 0.5408709049224854 0.3461454510688782
vt 0.5433539748191833 0.390964150428772
vt 0.7819732427597046 0.341427743434906
vt 0.8462837934494019 0.37780410051345825
vt 0.9915412664413452 0.3048030734062195
vt 0.9303345084190369 0.4097110629081726
vt 0.4786708950996399 0.3327372074127197
vt 0.461289644241333 0.2936292886734009
vt 0.4764360785484314 0.2738891839981079
vt 0.4102635383605957 0.240989089012146
vt 0.4093943238258362 0.2041161060333252
vt 0.4982869029045105 0.251417875289917
vt 0.4409288763999939 0.2935051918029785
vt 0.3188878297805786 0.19902575016021729
vt 0.3201293349266052 0.16339433193206787
vt 0.30014047026634216 0.3304964303970337
vt 0.42143702507019043 0.3386964797973633
vt 0.45359230041503906 0.3594297766685486
vt 0.49207931756973267 0.43454134464263916
vt 0.45908865332603455 0.41660982370376587
vt 0.44947874546051025 0.4778658151626587
vt 0.4981628656387329 0.48209148645401
vt 0.5177786350250244 0.4458392262458801
vt 0.5448437929153442 0.4598683714866638
vt 0.5190202593803406 0.5252963304519653
vt 0.48785823583602905 0.5144950747489929
vt 0.49232763051986694 0.5912207961082458
vt 0.45781344175338745 0.543919026851654
vt 0.4277688264846802 0.5451605319976807
vt 0.4452742338180542 0.6007803678512573
vt 0.5175303816795349 0.6355428695678711
vt 0.4422030448913574 0.5059956908226013
vt 0.5663219690322876 0.4061107039451599
vt 0.5766265392303467 0.462103009223938
vt 0.6283978223800659 0.4017654061317444
vt 0.6018293499946594 0.47315263748168945
vt 0.6442168951034546 0.41400134563446045
vt 0.6946945190429688 0.4624755382537842
vt 0.5914005637168884 0.5249237418174744
vt 0.7227530479431152 0.5259170532226562
vt 0.7979888319969177 0.48705750703811646
vt 0.6743331551551819 0.40525418519973755
vt 0.5586245656013489 0.5292690396308899
vt 0.5443469285964966 0.5747085809707642
vt 0.574640154838562 0.5984215140342712
vt 0.675947904586792 0.6238726377487183
vt 0.7485765218734741 0.5507473945617676
vt 0.7876843810081482 0.5960627198219299
vt 0.49207931756973267 0.22795313596725464
vt 0.4452742338180542 0.14700627326965332
vt 0.4970453381538391 0.08865499496459961
vt 0.4450259208679199 0.19716358184814453
vt 0.5304421782493591 0.16339433193206787
vt 0.6094025373458862 0.21826940774917603
vt 0.4064147174358368 0.08368897438049316
vt 0.3283233642578125 0.062210798263549805
vt 0.4139879643917084 0.1692294478416443
vt 0.4077000021934509 0.5974999964237213
vt 0.47189998626708984 0.6516000032424927
vt 0.3727000057697296 0.6884999871253967
vt 0.27570000290870667 0.5789999961853027
vt 0.39590001106262207 0.8094999939203262
vt 0.46630001068115234 0.8261000066995621
vt 0.26930001378059387 0.6597999930381775
vt 0.22660000622272491 0.5958999991416931
vt 0.24997662007808685 0.5378884077072144
vt 0.1890999972820282 0.5706999897956848
vt 0.19065669178962708 0.5278004705905914
vt 0.12800000607967377 0.6205999851226807
vt 0.18070000410079956 0.6064999997615814
vt 0.10050000250339508 0.6008999943733215
vt 0.11004624515771866 0.5530649423599243
vt 0.0835999995470047 0.619700014591217
vt 0.07569999992847443 0.6398999989032745
vt 0.11330000311136246 0.6529000103473663
vt 0.21459999680519104 0.6586999893188477
vt 0.16130000352859497 0.6809000074863434
vt 0.14319999516010284 0.7208000123500824
vt 0.09690000116825104 0.7109000086784363
vt 0.04479999840259552 0.6593999862670898
vt 0.04659999907016754 0.7080999910831451
vt 0.005799999926239252 0.7823999971151352
vt 0.10379999876022339 0.8076999932527542
vt 0.04450000077486038 0.6401000022888184
vt 0.023099999874830246 0.876400001347065
vt 0.08550000190734863 0.8958000019192696
vt 0.1395999938249588 0.8832999989390373
vt 0.09529999643564224 0.9362000003457069
vt 0.1729000061750412 0.9092999994754791
vt 0.10610000044107437 0.968299999833107
vt 0.19419999420642853 0.9659000001847744
vt 0.20730000734329224 0.9253000020980835
vt 0.26089999079704285 0.9258000031113625
vt 0.26669999957084656 0.9939999999478459
vt 0.40779998898506165 0.9135999977588654
vt 0.35740000009536743 0.8657000064849854
vt 0.1477999985218048 0.7988999933004379
vt 0.19140000641345978 0.7909999936819077
vt 0.20810000598430634 0.7170999944210052
vt 0.17759999632835388 0.853300005197525
vt 0.26260000467300415 0.8801999986171722
vt 0.32670000195503235 0.8383000046014786
vt 0.21160000562667847 0.8781000003218651
vt 0.2662000060081482 0.7821000069379807
vt 0.26579999923706055 0.7134999930858612
vt 0.33809998631477356 0.7080999910831451
vt 0.3529999852180481 0.7794000059366226
vt 0.3364596366882324 0.47350114583969116
vt 0.3278690278530121 0.4165914058685303
vt 0.3121836483478546 0.5231856107711792

g Box001
s 1
usemtl Box001
f 3/3/3 2/2/2 1/1/1 
f 2/2/2 3/3/3 4/4/4 
f 5/5/5 2/2/2 4/4/4 
f 1/1/1 2/2/2 6/6/6 
f 6/6/6 7/7/7 1/1/1 
f 7/7/7 8/8/8 1/1/1 
f 2/2/2 9/9/9 6/6/6 
f 10/10/10 4/4/4 3/3/3 
f 4/4/4 10/10/10 5/5/5 
f 11/11/11 10/10/10 3/3/3 
f 3/3/3 12/12/12 11/11/11 
f 12/12/12 13/13/13 11/11/11 
f 5/5/5 14/14/14 2/2/2 
f 2/2/2 14/14/14 15/15/15 
f 2/2/2 15/15/15 9/9/9 
f 16/16/16 14/14/14 5/5/5 
f 10/10/10 16/16/16 5/5/5 
f 17/17/17 7/7/7 6/6/6 
f 17/17/17 18/18/18 7/7/7 
f 19/19/19 17/17/17 6/6/6 
f 9/9/9 19/19/19 6/6/6 
f 19/19/19 20/20/20 17/17/17 
f 20/20/20 21/21/21 17/17/17 
f 22/22/22 20/20/20 19/19/19 
f 23/23/23 22/22/22 19/19/19 
f 23/23/23 19/19/19 9/9/9 
f 22/22/22 23/23/23 15/15/15 
f 9/9/9 15/15/15 23/23/23 
f 12/12/12 24/24/24 13/13/13 
f 11/11/11 13/13/13 25/25/25 
f 13/13/13 24/24/24 25/25/25 
f 26/26/26 25/25/25 24/24/24 
f 15/15/15 14/14/14 27/27/27 
f 16/16/16 27/27/27 14/14/14 
f 28/28/28 15/15/15 27/27/27 
f 28/28/28 22/22/22 15/15/15 
f 29/29/29 22/22/22 28/28/28 
f 30/30/30 29/29/29 28/28/28 
f 26/26/26 24/24/24 31/31/31 
f 24/24/24 32/32/32 31/31/31 
f 32/32/32 24/24/24 33/33/33 
f 32/32/32 33/33/33 34/34/34 
f 33/33/33 35/35/35 34/34/34 
f 35/35/35 33/33/33 36/36/36 
f 37/37/37 31/31/31 32/32/32 
f 37/37/37 32/32/32 34/34/34 
f 37/37/37 34/34/34 38/38/38 
f 34/34/34 39/39/39 38/38/38 
f 39/39/39 34/34/34 35/35/35 
f 37/37/37 38/38/38 40/40/40 
f 41/41/41 37/37/37 40/40/40 
f 37/37/37 41/41/41 31/31/31 
f 41/41/41 42/42/42 31/31/31 
f 43/43/43 31/31/31 42/42/42 
f 44/44/44 43/43/43 42/42/42 
f 44/44/44 42/42/42 41/41/41 
f 44/44/44 45/45/45 43/43/43 
f 41/41/41 45/45/45 44/44/44 
f 45/45/45 46/46/46 43/43/43 
f 47/47/47 43/43/43 46/46/46 
f 48/48/48 47/47/47 46/46/46 
f 49/49/49 48/48/48 46/46/46 
f 46/46/46 50/50/50 49/49/49 
f 50/50/50 46/46/46 45/45/45 
f 50/50/50 51/51/51 49/49/49 
f 51/51/51 50/50/50 52/52/52 
f 52/52/52 53/53/53 51/51/51 
f 54/54/54 51/51/51 53/53/53 
f 54/54/54 55/55/55 51/51/51 
f 52/52/52 56/56/56 53/53/53 
f 56/56/56 50/50/50 45/45/45 
f 56/56/56 52/52/52 50/50/50 
f 48/48/48 57/57/57 47/47/47 
f 57/57/57 26/26/26 47/47/47 
f 43/43/43 47/47/47 26/26/26 
f 26/26/26 31/31/31 43/43/43 
f 57/57/57 48/48/48 58/58/58 
f 59/59/59 57/57/57 58/58/58 
f 59/59/59 58/58/58 60/60/60 
f 61/61/61 59/59/59 60/60/60 
f 61/61/61 60/60/60 62/62/62 
f 62/62/62 60/60/60 63/63/63 
f 63/63/63 60/60/60 58/58/58 
f 64/64/64 62/62/62 63/63/63 
f 64/64/64 65/65/65 62/62/62 
f 65/65/65 27/27/27 62/62/62 
f 66/66/66 61/61/61 62/62/62 
f 62/62/62 27/27/27 66/66/66 
f 59/59/59 61/61/61 66/66/66 
f 67/67/67 63/63/63 58/58/58 
f 58/58/58 48/48/48 67/67/67 
f 48/48/48 49/49/49 67/67/67 
f 68/68/68 67/67/67 49/49/49 
f 51/51/51 68/68/68 49/49/49 
f 51/51/51 55/55/55 68/68/68 
f 55/55/55 69/69/69 68/68/68 
f 69/69/69 63/63/63 67/67/67 
f 68/68/68 69/69/69 67/67/67 
f 63/63/63 69/69/69 64/64/64 
f 69/69/69 55/55/55 70/70/70 
f 71/71/71 69/69/69 70/70/70 
f 69/69/69 71/71/71 64/64/64 
f 64/64/64 71/71/71 65/65/65 
f 65/65/65 71/71/71 72/72/72 
f 70/70/70 72/72/72 71/71/71 
f 30/30/30 65/65/65 72/72/72 
f 65/65/65 28/28/28 27/27/27 
f 30/30/30 28/28/28 65/65/65 
f 27/27/27 16/16/16 66/66/66 
f 66/66/66 16/16/16 59/59/59 
f 16/16/16 10/10/10 59/59/59 
f 11/11/11 59/59/59 10/10/10 
f 11/11/11 25/25/25 59/59/59 
f 57/57/57 59/59/59 25/25/25 
f 26/26/26 57/57/57 25/25/25 
f 75/75/75 74/74/74 73/73/73 
f 74/74/74 76/76/76 73/73/73 
f 75/75/75 73/73/73 77/77/77 
f 77/77/77 73/73/73 3/3/3 
f 78/78/78 77/77/77 3/3/3 
f 8/8/8 75/75/75 77/77/77 
f 8/8/8 77/77/77 78/78/78 
f 75/75/75 8/8/8 7/7/7 
f 18/18/18 75/75/75 7/7/7 
f 79/79/79 75/75/75 18/18/18 
f 79/79/79 74/74/74 75/75/75 
f 80/80/80 79/79/79 18/18/18 
f 81/81/81 79/79/79 80/80/80 
f 76/76/76 74/74/74 81/81/81 
f 81/81/81 74/74/74 79/79/79 
f 81/81/81 80/80/80 39/39/39 
f 35/35/35 81/81/81 39/39/39 
f 76/76/76 81/81/81 35/35/35 
f 36/36/36 73/73/73 76/76/76 
f 36/36/36 76/76/76 35/35/35 
f 3/3/3 73/73/73 36/36/36 
f 3/3/3 1/1/1 78/78/78 
f 1/1/1 8/8/8 78/78/78 
f 12/12/12 3/3/3 36/36/36 
f 12/12/12 36/36/36 33/33/33 
f 33/33/33 24/24/24 12/12/12 
f 84/84/84 83/83/83 82/82/82 
f 85/85/85 84/84/84 82/82/82 
f 84/84/84 86/86/86 83/83/83 
f 86/86/86 87/87/87 83/83/83 
f 84/84/84 85/85/85 88/88/88 
f 85/85/85 89/89/89 88/88/88 
f 90/90/90 89/89/89 85/85/85 
f 89/89/89 90/90/90 91/91/91 
f 90/90/90 92/92/92 91/91/91 
f 93/93/93 91/91/91 92/92/92 
f 93/93/93 94/94/94 91/91/91 
f 91/91/91 94/94/94 89/89/89 
f 92/92/92 95/95/95 93/93/93 
f 92/92/92 96/96/96 95/95/95 
f 93/93/93 95/95/95 97/97/97 
f 95/95/95 96/96/96 97/97/97 
f 97/97/97 98/98/98 93/93/93 
f 99/99/99 93/93/93 98/98/98 
f 89/89/89 100/100/100 88/88/88 
f 94/94/94 100/100/100 89/89/89 
f 101/101/101 100/100/100 94/94/94 
f 93/93/93 101/101/101 94/94/94 
f 101/101/101 93/93/93 99/99/99 
f 102/102/102 101/101/101 99/99/99 
f 103/103/103 102/102/102 99/99/99 
f 103/103/103 99/99/99 104/104/104 
f 99/99/99 98/98/98 104/104/104 
f 105/105/105 103/103/103 104/104/104 
f 103/103/103 105/105/105 106/106/106 
f 107/107/107 103/103/103 106/106/106 
f 103/103/103 107/107/107 102/102/102 
f 104/104/104 98/98/98 108/108/108 
f 98/98/98 97/97/97 108/108/108 
f 97/97/97 96/96/96 108/108/108 
f 106/106/106 109/109/109 107/107/107 
f 109/109/109 110/110/110 107/107/107 
f 107/107/107 110/110/110 111/111/111 
f 111/111/111 110/110/110 112/112/112 
f 113/113/113 111/111/111 112/112/112 
f 113/113/113 112/112/112 114/114/114 
f 113/113/113 114/114/114 115/115/115 
f 115/115/115 116/116/116 113/113/113 
f 116/116/116 115/115/115 117/117/117 
f 115/115/115 118/118/118 117/117/117 
f 117/117/117 118/118/118 119/119/119 
f 120/120/120 117/117/117 119/119/119 
f 107/107/107 111/111/111 121/121/121 
f 107/107/107 121/121/121 102/102/102 
f 121/121/121 122/122/122 102/102/102 
f 122/122/122 123/123/123 102/102/102 
f 111/111/111 124/124/124 121/121/121 
f 111/111/111 113/113/113 124/124/124 
f 121/121/121 124/124/124 122/122/122 
f 125/125/125 117/117/117 120/120/120 
f 126/126/126 125/125/125 120/120/120 
f 127/127/127 116/116/116 117/117/117 
f 125/125/125 127/127/127 117/117/117 
f 113/113/113 127/127/127 124/124/124 
f 113/113/113 116/116/116 127/127/127 
f 122/122/122 128/128/128 123/123/123 
f 127/127/127 125/125/125 128/128/128 
f 128/128/128 124/124/124 127/127/127 
f 128/128/128 122/122/122 124/124/124 
f 125/125/125 126/126/126 128/128/128 
f 128/128/128 129/129/129 123/123/123 
f 130/130/130 129/129/129 128/128/128 
f 131/131/131 130/130/130 128/128/128 
f 126/126/126 131/131/131 128/128/128 
f 130/130/130 131/131/131 84/84/84 
f 130/130/130 84/84/84 88/88/88 
f 129/129/129 130/130/130 88/88/88 
f 131/131/131 86/86/86 84/84/84 
f 126/126/126 120/120/120 86/86/86 
f 131/131/131 126/126/126 86/86/86 
f 129/129/129 88/88/88 100/100/100 
f 123/123/123 129/129/129 100/100/100 
f 123/123/123 100/100/100 101/101/101 
f 102/102/102 123/123/123 101/101/101 
f 119/119/119 87/87/87 86/86/86 
f 120/120/120 119/119/119 86/86/86 
f 132/132/132 53/53/53 56/56/56 
f 132/132/132 56/56/56 45/45/45 
f 133/133/133 132/132/132 45/45/45 
f 133/133/133 45/45/45 41/41/41 
f 40/40/40 133/133/133 41/41/41 
f 53/53/53 132/132/132 134/134/134 
f 54/54/54 53/53/53 134/134/134 

